Atividades/Maquinas_De_Estados/Safe/simulation/qsim/safe.msim.vcd
$comment
	File created using the following command:
		vcd file safe.msim.vcd -direction
$end
$date
	Sat Oct 13 17:20:09 2018
$end
$version
	ModelSim Version 10.5b
$end
$timescale
	1ps
$end

$scope module safe_vlg_vec_tst $end
$var reg 1 ! clk $end
$var reg 1 " data_in $end
$var reg 1 # reset $end
$var wire 1 $ data_out [1] $end
$var wire 1 % data_out [0] $end
$var wire 1 & estados [1] $end
$var wire 1 ' estados [0] $end

$scope module i1 $end
$var wire 1 ( gnd $end
$var wire 1 ) vcc $end
$var wire 1 * unknown $end
$var tri1 1 + devclrn $end
$var tri1 1 , devpor $end
$var tri1 1 - devoe $end
$var wire 1 . data_out[0]~output_o $end
$var wire 1 / data_out[1]~output_o $end
$var wire 1 0 estados[0]~output_o $end
$var wire 1 1 estados[1]~output_o $end
$var wire 1 2 clk~input_o $end
$var wire 1 3 data_in~input_o $end
$var wire 1 4 state~12_combout $end
$var wire 1 5 reset~input_o $end
$var wire 1 6 state.S1~q $end
$var wire 1 7 state~11_combout $end
$var wire 1 8 state.S3~q $end
$var wire 1 9 state~10_combout $end
$var wire 1 : state.S2~q $end
$var wire 1 ; state.S0~1_combout $end
$var wire 1 < state.S0~q $end
$var wire 1 = data_out~2_combout $end
$var wire 1 > state.S0~0_combout $end
$var wire 1 ? estados~2_combout $end
$upscope $end
$upscope $end
$enddefinitions $end
#0
$dumpvars
0!
0"
0#
1%
0$
0'
0&
0(
1)
x*
1+
1,
1-
1.
0/
00
01
02
03
14
05
06
07
08
09
0:
1;
0<
1=
0>
1?
$end
#5000
1!
12
1<
16
1>
0=
10
0.
1/
1$
0%
1'
#10000
0!
02
#15000
1!
12
#20000
0!
02
#25000
1!
12
#30000
0!
02
#35000
1!
12
#40000
0!
02
#45000
1!
12
#50000
0!
02
#55000
1!
12
#60000
0!
02
#65000
1!
12
#70000
0!
02
#75000
1!
12
#80000
0!
02
#85000
1!
12
#90000
0!
02
#95000
1!
12
#100000
1"
0!
13
02
19
04
#105000
1!
12
1:
06
0?
09
17
1=
00
1.
11
1&
1%
0'
#110000
0!
02
#115000
1!
12
0:
18
0>
19
07
0=
10
0.
0/
0$
0%
1'
#120000
1#
0!
15
02
08
0<
1?
1=
09
14
00
1.
01
0&
1%
0'
#125000
1!
12
#130000
0!
02
#135000
1!
12
#140000
0!
02
#145000
1!
12
#150000
0"
0!
03
02
#155000
1!
12
#160000
0!
02
#165000
1!
12
#170000
0!
02
#175000
1!
12
#180000
0!
02
#185000
1!
12
#190000
0!
02
#195000
1!
12
#200000
0!
02
#205000
1!
12
#210000
0!
02
#215000
1!
12
#220000
0!
02
#225000
1!
12
#230000
0!
02
#235000
1!
12
#240000
0#
0!
05
02
#245000
1!
12
1<
16
1>
0=
10
0.
1/
1$
0%
1'
#250000
0!
02
#255000
1!
12
#260000
0!
02
#265000
1!
12
#270000
0!
02
#275000
1!
12
#280000
0!
02
#285000
1!
12
#290000
0!
02
#295000
1!
12
#300000
1"
0!
13
02
19
04
#305000
1!
12
1:
06
0?
09
17
1=
00
1.
11
1&
1%
0'
#310000
0!
02
#315000
1!
12
0:
18
0>
19
07
0=
10
0.
0/
0$
0%
1'
#320000
0!
02
#325000
1!
12
1:
08
1>
09
17
1=
00
1.
1/
1$
1%
0'
#330000
0!
02
#335000
1!
12
0:
18
0>
19
07
0=
10
0.
0/
0$
0%
1'
#340000
0!
02
#345000
1!
12
1:
08
1>
09
17
1=
00
1.
1/
1$
1%
0'
#350000
0!
02
#355000
1!
12
0:
18
0>
19
07
0=
10
0.
0/
0$
0%
1'
#360000
0!
02
#365000
1!
12
1:
08
1>
09
17
1=
00
1.
1/
1$
1%
0'
#370000
0!
02
#375000
1!
12
0:
18
0>
19
07
0=
10
0.
0/
0$
0%
1'
#380000
0!
02
#385000
1!
12
1:
08
1>
09
17
1=
00
1.
1/
1$
1%
0'
#390000
0!
02
#395000
1!
12
0:
18
0>
19
07
0=
10
0.
0/
0$
0%
1'
#400000
0"
0!
03
02
09
17
#405000
1!
12
#410000
0!
02
#415000
1!
12
#420000
0!
02
#425000
1!
12
#430000
0!
02
#435000
1!
12
#440000
0!
02
#445000
1!
12
#450000
1"
0!
13
02
19
07
#455000
1!
12
1:
08
1>
09
17
1=
00
1.
1/
1$
1%
0'
#460000
0!
02
#465000
1!
12
0:
18
0>
19
07
0=
10
0.
0/
0$
0%
1'
#470000
0!
02
#475000
1!
12
1:
08
1>
09
17
1=
00
1.
1/
1$
1%
0'
#480000
0!
02
#485000
1!
12
0:
18
0>
19
07
0=
10
0.
0/
0$
0%
1'
#490000
0!
02
#495000
1!
12
1:
08
1>
09
17
1=
00
1.
1/
1$
1%
0'
#500000
0"
0!
03
02
07
14
#505000
1!
12
0:
16
1?
0=
10
0.
01
0&
0%
1'
#510000
0!
02
#515000
1!
12
#520000
0!
02
#525000
1!
12
#530000
0!
02
#535000
1!
12
#540000
0!
02
#545000
1!
12
#550000
1"
0!
13
02
19
04
#555000
1!
12
1:
06
0?
09
17
1=
00
1.
11
1&
1%
0'
#560000
0!
02
#565000
1!
12
0:
18
0>
19
07
0=
10
0.
0/
0$
0%
1'
#570000
0!
02
#575000
1!
12
1:
08
1>
09
17
1=
00
1.
1/
1$
1%
0'
#580000
0!
02
#585000
1!
12
0:
18
0>
19
07
0=
10
0.
0/
0$
0%
1'
#590000
0!
02
#595000
1!
12
1:
08
1>
09
17
1=
00
1.
1/
1$
1%
0'
#600000
0"
0!
03
02
07
14
#605000
1!
12
0:
16
1?
0=
10
0.
01
0&
0%
1'
#610000
0!
02
#615000
1!
12
#620000
0!
02
#625000
1!
12
#630000
0!
02
#635000
1!
12
#640000
0!
02
#645000
1!
12
#650000
1"
0!
13
02
19
04
#655000
1!
12
1:
06
0?
09
17
1=
00
1.
11
1&
1%
0'
#660000
0!
02
#665000
1!
12
0:
18
0>
19
07
0=
10
0.
0/
0$
0%
1'
#670000
0!
02
#675000
1!
12
1:
08
1>
09
17
1=
00
1.
1/
1$
1%
0'
#680000
0!
02
#685000
1!
12
0:
18
0>
19
07
0=
10
0.
0/
0$
0%
1'
#690000
0!
02
#695000
1!
12
1:
08
1>
09
17
1=
00
1.
1/
1$
1%
0'
#700000
0!
02
#705000
1!
12
0:
18
0>
19
07
0=
10
0.
0/
0$
0%
1'
#710000
0!
02
#715000
1!
12
1:
08
1>
09
17
1=
00
1.
1/
1$
1%
0'
#720000
0!
02
#725000
1!
12
0:
18
0>
19
07
0=
10
0.
0/
0$
0%
1'
#730000
0!
02
#735000
1!
12
1:
08
1>
09
17
1=
00
1.
1/
1$
1%
0'
#740000
0!
02
#745000
1!
12
0:
18
0>
19
07
0=
10
0.
0/
0$
0%
1'
#750000
0!
02
#755000
1!
12
1:
08
1>
09
17
1=
00
1.
1/
1$
1%
0'
#760000
0!
02
#765000
1!
12
0:
18
0>
19
07
0=
10
0.
0/
0$
0%
1'
#770000
0!
02
#775000
1!
12
1:
08
1>
09
17
1=
00
1.
1/
1$
1%
0'
#780000
0!
02
#785000
1!
12
0:
18
0>
19
07
0=
10
0.
0/
0$
0%
1'
#790000
0!
02
#795000
1!
12
1:
08
1>
09
17
1=
00
1.
1/
1$
1%
0'
#800000
0"
0!
03
02
07
14
#805000
1!
12
0:
16
1?
0=
10
0.
01
0&
0%
1'
#810000
0!
02
#815000
1!
12
#820000
0!
02
#825000
1!
12
#830000
0!
02
#835000
1!
12
#840000
0!
02
#845000
1!
12
#850000
1"
0!
13
02
19
04
#855000
1!
12
1:
06
0?
09
17
1=
00
1.
11
1&
1%
0'
#860000
0!
02
#865000
1!
12
0:
18
0>
19
07
0=
10
0.
0/
0$
0%
1'
#870000
0!
02
#875000
1!
12
1:
08
1>
09
17
1=
00
1.
1/
1$
1%
0'
#880000
0!
02
#885000
1!
12
0:
18
0>
19
07
0=
10
0.
0/
0$
0%
1'
#890000
0!
02
#895000
1!
12
1:
08
1>
09
17
1=
00
1.
1/
1$
1%
0'
#900000
0!
02
#905000
1!
12
0:
18
0>
19
07
0=
10
0.
0/
0$
0%
1'
#910000
0!
02
#915000
1!
12
1:
08
1>
09
17
1=
00
1.
1/
1$
1%
0'
#920000
0!
02
#925000
1!
12
0:
18
0>
19
07
0=
10
0.
0/
0$
0%
1'
#930000
0!
02
#935000
1!
12
1:
08
1>
09
17
1=
00
1.
1/
1$
1%
0'
#940000
0!
02
#945000
1!
12
0:
18
0>
19
07
0=
10
0.
0/
0$
0%
1'
#950000
0"
0!
03
02
09
17
#955000
1!
12
#960000
0!
02
#965000
1!
12
#970000
0!
02
#975000
1!
12
#980000
0!
02
#985000
1!
12
#990000
0!
02
#995000
1!
12
