Atividades/Somador_4_bits_Display_7_Seg/simulation/qsim/somador_decode.msim.vcd
$comment
	File created using the following command:
		vcd file somador_decode.msim.vcd -direction
$end
$date
	Sun Nov 04 17:38:10 2018
$end
$version
	ModelSim Version 10.5b
$end
$timescale
	1ps
$end

$scope module somador_decode_vlg_vec_tst $end
$var reg 4 ! a [3:0] $end
$var reg 4 " b [3:0] $end
$var reg 1 # c_in $end
$var wire 1 $ c_out [6] $end
$var wire 1 % c_out [5] $end
$var wire 1 & c_out [4] $end
$var wire 1 ' c_out [3] $end
$var wire 1 ( c_out [2] $end
$var wire 1 ) c_out [1] $end
$var wire 1 * c_out [0] $end
$var wire 1 + s [6] $end
$var wire 1 , s [5] $end
$var wire 1 - s [4] $end
$var wire 1 . s [3] $end
$var wire 1 / s [2] $end
$var wire 1 0 s [1] $end
$var wire 1 1 s [0] $end

$scope module i1 $end
$var wire 1 2 gnd $end
$var wire 1 3 vcc $end
$var wire 1 4 unknown $end
$var tri1 1 5 devclrn $end
$var tri1 1 6 devpor $end
$var tri1 1 7 devoe $end
$var wire 1 8 s[0]~output_o $end
$var wire 1 9 s[1]~output_o $end
$var wire 1 : s[2]~output_o $end
$var wire 1 ; s[3]~output_o $end
$var wire 1 < s[4]~output_o $end
$var wire 1 = s[5]~output_o $end
$var wire 1 > s[6]~output_o $end
$var wire 1 ? c_out[0]~output_o $end
$var wire 1 @ c_out[1]~output_o $end
$var wire 1 A c_out[2]~output_o $end
$var wire 1 B c_out[3]~output_o $end
$var wire 1 C c_out[4]~output_o $end
$var wire 1 D c_out[5]~output_o $end
$var wire 1 E c_out[6]~output_o $end
$var wire 1 F c_in~input_o $end
$var wire 1 G a[0]~input_o $end
$var wire 1 H b[0]~input_o $end
$var wire 1 I s0|SC0|MS2|s~combout $end
$var wire 1 J a[1]~input_o $end
$var wire 1 K b[1]~input_o $end
$var wire 1 L s0|SC1|MS2|s~combout $end
$var wire 1 M s0|SC1|cout~combout $end
$var wire 1 N a[2]~input_o $end
$var wire 1 O b[2]~input_o $end
$var wire 1 P s0|SC2|MS2|s~combout $end
$var wire 1 Q a[3]~input_o $end
$var wire 1 R b[3]~input_o $end
$var wire 1 S s0|SC3|MS2|s~combout $end
$var wire 1 T d|WideOr6~0_combout $end
$var wire 1 U d|WideOr5~0_combout $end
$var wire 1 V d|WideOr4~0_combout $end
$var wire 1 W d|WideOr3~0_combout $end
$var wire 1 X d|WideOr2~0_combout $end
$var wire 1 Y d|WideOr1~0_combout $end
$var wire 1 Z d|WideOr0~0_combout $end
$var wire 1 [ s0|SC3|cout~combout $end
$upscope $end
$upscope $end
$enddefinitions $end
#0
$dumpvars
b1110 !
b1000 "
0#
1*
1)
1(
1'
0&
0%
1$
01
00
0/
0.
0-
1,
0+
02
13
x4
15
16
17
08
09
0:
0;
0<
1=
0>
1?
1@
1A
1B
0C
0D
1E
0F
0G
0H
0I
1J
0K
1L
0M
1N
0O
1P
1Q
1R
0S
1T
0U
0V
0W
0X
1Y
0Z
1[
$end
#5000
b0 "
b10 "
1K
0R
1S
1M
0L
0[
0@
0A
0B
0E
0T
0S
0P
0$
0'
0(
0)
1X
1[
1@
1A
1B
1E
1<
18
11
1-
1$
1'
1(
1)
0Y
0X
0<
0=
0,
0-
#10000
b1010 !
b110 "
b111 "
b101 "
1H
0K
1O
0N
0M
1L
1I
1T
1S
1P
1V
1U
0[
0@
0A
0B
0E
19
1:
08
01
1/
10
0$
0'
0(
0)
1Y
1X
1W
0V
0U
09
0:
1;
1<
1=
1,
1-
1.
0/
00
#15000
b10 !
b0 !
b100 !
b1 "
0O
0J
1N
0Q
0S
0L
0X
0W
1V
1:
0;
0<
0-
0.
1/
#20000
b1001 "
b1000 "
b1010 "
b110 !
b10 !
1J
0N
0H
1K
1R
1S
1M
0I
0P
1P
0Y
0V
0:
0=
0T
0,
0/
1Y
1X
1<
1=
18
11
1,
1-
#25000
b11 !
b1110 "
b110 "
b1 !
b101 !
1O
0R
1G
0J
1N
0M
1L
1I
1T
0P
1W
1;
08
01
1.
1Z
0X
0W
0;
0<
1>
1+
0-
0.
#30000
b100 "
b1 !
0N
0K
0L
0S
1P
0Z
1V
1:
0>
0+
1/
#35000
b1001 !
b101 "
b1000 !
b1 "
b1010 !
1H
0O
0G
1J
1Q
1S
1L
0P
1Z
0V
0:
1>
1+
0/
#40000
b11 "
b10 "
b110 "
b1000 !
0J
0H
1K
1O
1P
0I
0Z
1X
1<
0>
0+
1-
#45000
b111 "
b11 "
1H
0O
0P
1I
1Z
0X
0<
1>
1+
0-
#50000
b1011 "
b1100 !
b100 !
b101 !
b1010 "
1G
1N
0Q
0H
1R
1P
0Z
1X
1W
1;
1<
0>
0+
1-
1.
#55000
b1000 "
b1100 "
b1101 !
b1100 !
b1101 "
0G
1Q
1H
0K
1O
0P
0L
1[
1@
1A
1B
1E
1$
1'
1(
1)
0Y
0X
1V
1:
0<
0=
0,
0-
1/
#60000
b101 "
b100 !
b100 "
0Q
0H
0R
0I
0[
0@
0A
0B
0E
0$
0'
0(
0)
0W
0V
0:
0;
0.
0/
#65000
b0 !
b110 "
b10 "
b1000 !
1K
0O
0N
1Q
1L
1W
1;
1.
#70000
b1010 !
b1011 !
b1010 "
b1011 "
b1111 !
b111 !
1H
1R
1G
1J
1N
0Q
1P
1M
0S
0P
1[
1Y
1X
0W
0;
1<
1=
1@
1A
1B
1E
1$
1'
1(
1)
1,
1-
0.
0Y
1U
19
0=
0,
10
#75000
b101 !
b11 "
b10 "
b1101 !
0H
0R
0J
1Q
0M
1I
1S
1P
0X
1V
0[
0@
0A
0B
0E
1:
0<
0-
1/
0$
0'
0(
0)
1Y
1X
1W
0V
0U
09
0:
1;
1<
1=
1,
1-
1.
0/
00
#80000
b110 "
b1100 !
b1110 !
b1110 "
0G
1J
1O
1R
0P
1M
0L
0I
1[
1@
1A
1B
1E
1P
1$
1'
1(
1)
0Y
0X
0W
0;
0<
0=
0T
0,
0-
0.
1Y
1X
1<
1=
18
11
1,
1-
#85000
b1010 !
b10 !
b1010 "
b0 !
b10 "
0O
0R
0J
0N
0Q
0S
0M
1L
0[
0@
0A
0B
0E
1T
0P
0$
0'
0(
0)
0X
0<
08
01
0-
0Y
1X
1U
19
1<
0=
0,
1-
10
#90000
b0 "
b100 "
b1100 "
0K
1O
1R
1S
1P
0L
0T
1Y
0U
09
1=
18
11
1,
00
#95000
b1101 "
b1 !
b1001 !
b1011 !
1G
1J
1Q
1H
1M
0S
1[
1@
1A
1B
1E
1T
1S
0P
1$
1'
1(
1)
1Z
0Y
0X
1W
1V
1:
1;
0<
0=
1>
08
01
1+
0,
0-
1.
1/
0Z
0W
0V
0:
0;
0>
0+
0.
0/
#100000
b101 "
b100 "
b11 !
b1 !
0J
0Q
0H
0R
0M
1I
0[
0@
0A
0B
0E
0S
1P
0$
0'
0(
0)
1W
1V
1:
1;
1.
1/
1Y
0W
0;
1=
1,
0.
#105000
b110 "
b0 !
b10 !
0G
1J
1K
1M
0I
1S
0P
1Z
0Y
1W
1;
0=
1>
1+
0,
1.
0Z
0W
0V
0:
0;
0>
0+
0.
0/
#110000
b110 !
b10 "
b1010 "
b1011 "
b1110 !
b1111 !
1H
0O
1R
1G
1N
1Q
1L
1[
1@
1A
1B
1E
1$
1'
1(
1)
1W
1;
1.
#115000
b1001 "
b1101 !
b1000 "
b101 !
0J
0Q
0H
0K
0M
0L
1I
0S
0T
1S
1P
1Z
1V
1U
0[
0@
0A
0B
0E
19
1:
1>
18
1T
11
1+
1/
10
0$
0'
0(
0)
0W
0V
0:
0;
08
01
0.
0/
#120000
b1 !
b1001 "
b1001 !
1H
0N
1Q
0S
0P
1L
0I
1[
1@
1A
1B
1E
1$
1'
1(
1)
0Z
1X
1<
0>
0+
1-
#125000
b1000 !
b1010 !
b1000 "
b10 !
0H
0G
1J
0Q
1S
0[
0@
0A
0B
0E
0$
0'
0(
0)
0X
1W
0U
09
1;
0<
0-
1.
00
#130000
b1100 "
b110 !
b1101 "
b1110 !
1N
1Q
1H
1O
1I
1[
1@
1A
1B
1E
1$
1'
1(
1)
1Z
1Y
0W
0;
1=
1>
1+
1,
0.
#135000
b1100 "
b110 !
0Q
0H
0I
0S
0Z
0Y
1X
1U
19
1<
0=
0>
0+
0,
1-
10
#140000
b1110 "
b111 !
b101 !
b1010 "
b1011 "
b1101 !
1G
0J
1Q
1H
1K
0O
1P
1M
0L
1S
0P
1Z
0X
1W
1V
0U
09
1:
1;
0<
1>
1+
0-
1.
1/
00
0Z
0W
0V
0:
0;
0>
0+
0.
0/
#145000
b11 "
b1111 !
b111 "
b111 !
1J
0Q
1O
0R
1P
1L
0[
0@
0A
0B
0E
0$
0'
0(
0)
1Y
1X
1<
1=
1,
1-
#150000
b11 !
0N
0P
0Y
0X
1W
1;
0<
0=
0,
0-
1.
#155000
b1111 "
b1 !
b1011 "
b1001 !
0J
1Q
0O
1R
0S
1P
0L
1[
1@
1A
1B
1E
1$
1'
1(
1)
1Z
1V
1:
1>
1+
1/
#160000
b1001 "
b1000 "
b1101 !
b1111 !
b1100 "
1J
1N
0H
0K
1O
1S
0M
1L
1I
0P
0Z
1Y
1X
0V
0:
1<
1=
0>
0+
1,
1-
0/
1Z
0X
0W
0;
0<
1>
1+
0-
0.
#165000
b1110 !
b110 !
b1110 "
b1111 "
b100 !
1H
1K
0G
0J
0Q
0S
0Z
0Y
1V
1U
19
1:
0=
0>
0+
0,
1/
10
#170000
b111 "
b11 "
b101 !
b1101 !
1G
1Q
0O
0R
1S
1P
1M
0L
0I
0[
0@
0A
0B
0E
0T
0S
0P
0$
0'
0(
0)
1Y
1X
0V
0U
1[
1@
1A
1B
1E
09
0:
1<
1=
18
11
1,
1-
0/
00
1$
1'
1(
1)
0Y
0X
0<
0=
0,
0-
#175000
b1 "
b1001 "
b1100 !
b100 !
0G
0Q
0K
1R
0M
1I
1S
1P
1Z
1W
1V
1U
0[
0@
0A
0B
0E
19
1:
1;
1>
1T
1+
1.
1/
10
0$
0'
0(
0)
0W
0V
0:
0;
08
01
0.
0/
#180000
b1011 "
b11 "
b101 !
b1101 !
1G
1Q
1K
0R
1M
0I
0T
0S
0P
0Z
1Y
1X
0U
1[
1@
1A
1B
1E
09
1<
1=
0>
18
11
0+
1,
1-
00
1$
1'
1(
1)
0Y
0X
0<
0=
0,
0-
#185000
b1011 "
b101 !
0Q
1R
#190000
b1 !
b1010 "
b0 !
b10 "
0H
0R
0G
0N
1P
0M
1L
0[
0@
0A
0B
0E
1T
0P
0$
0'
0(
0)
1Y
1=
08
01
1,
0Y
1X
1U
19
1<
0=
0,
1-
10
#195000
b10 !
b0 "
b1010 !
b1011 !
b1000 "
0K
1R
1G
1J
1Q
1I
1[
1@
1A
1B
1E
1$
1'
1(
1)
0X
1V
1:
0<
0-
1/
#200000
b1100 "
b1111 !
b1110 "
1N
1K
1O
1S
1M
0L
1P
1W
0U
09
1;
1.
00
1Z
0W
0V
1U
19
0:
0;
1>
1+
0.
0/
10
#205000
b110 "
b1011 !
0N
0R
0S
0P
0T
1W
1V
1:
1;
18
11
1.
1/
#210000
b111 "
b11 !
b11 "
b1 "
b1001 "
b111 !
1N
0Q
1H
0K
0O
1R
0I
0Z
0W
0V
0U
09
0:
0;
0>
0+
0.
0/
00
#215000
b101 !
b1101 !
b1011 "
1K
0J
1Q
1S
1T
08
01
#220000
b1100 !
b1010 "
0H
0G
0M
1L
0S
1P
1W
1;
1.
1Y
0W
0;
1=
1,
0.
#225000
b1110 "
b1000 !
b0 !
b1 !
b1111 "
1G
0N
0Q
1H
1O
1S
1M
0L
0[
0@
0A
0B
0E
0T
0S
0P
0$
0'
0(
0)
1X
1[
1@
1A
1B
1E
1<
18
11
1-
1$
1'
1(
1)
0Y
0X
0<
0=
0,
0-
#230000
b1101 "
b1001 "
b1001 !
b1000 "
1Q
0H
0K
0O
1P
0M
1I
1T
0P
1Y
1V
1:
1=
08
0T
01
1,
1/
1Z
0Y
1W
1U
19
1;
0=
1>
18
11
1+
0,
1.
10
#235000
b0 "
b1101 !
b10 "
b101 !
1N
0Q
1K
0R
1L
1P
0[
0@
0A
0B
0E
0$
0'
0(
0)
0Z
0>
0+
#240000
b0 "
0K
0L
1T
1Y
0W
0U
09
0;
1=
08
01
1,
0.
00
#245000
b100 "
b1 !
b110 "
0N
1K
1O
1L
0T
0Y
1W
1U
19
1;
0=
18
11
0,
1.
10
#250000
b11 !
b10 !
b111 "
b1010 !
b101 "
1H
0K
0G
1J
1Q
1S
1T
1Y
1X
0V
0U
09
0:
1<
1=
08
01
1,
1-
0/
00
#255000
b1 "
b1110 !
b11 "
1N
1K
0O
1M
0L
0S
0P
1Z
0Y
0X
0W
1U
1[
1@
1A
1B
1E
19
0;
0<
0=
1>
0T
1+
0,
0-
0.
10
1$
1'
1(
1)
1W
1V
1:
1;
18
11
1.
1/
#260000
b110 !
b111 "
b10 !
1O
0N
0Q
1S
0[
0@
0A
0B
0E
1T
0$
0'
0(
0)
0Z
0U
09
0>
08
01
0+
00
#265000
b110 "
b1010 !
b10 "
1Q
0H
0O
1P
0I
0T
1Y
1X
0W
0V
0:
0;
1<
1=
18
11
1,
1-
0.
0/
#270000
b1000 !
b0 !
0J
0Q
0S
0M
1L
1T
0P
0X
0<
08
01
0-
0Y
1X
1U
19
1<
0=
0,
1-
10
#275000
b1010 "
b1000 "
b100 !
b1100 !
1N
1Q
0K
1R
0L
1P
1[
1@
1A
1B
1E
1$
1'
1(
1)
1Z
0X
1W
1V
0U
09
1:
1;
0<
1>
1+
0-
1.
1/
00
#280000
b1101 !
b1100 "
b1111 !
b100 "
b110 "
b1011 !
1K
1O
0R
1G
1J
0N
1S
1M
1I
0[
0@
0A
0B
0E
0S
0P
0$
0'
0(
0)
0W
0V
1U
1[
1@
1A
1B
1E
19
0:
0;
0T
0.
0/
10
1$
1'
1(
1)
1W
1V
1:
1;
18
11
1.
1/
#285000
b11 !
b10 "
b1 !
b1010 "
b1000 "
0K
0O
1R
0J
0Q
1S
0M
1P
0[
0@
0A
0B
0E
1T
0P
0$
0'
0(
0)
0W
0V
0:
0;
08
01
0.
0/
0Z
1W
1V
0U
09
1:
1;
0>
0+
1.
1/
00
#290000
b1001 "
b0 !
b100 !
b1101 "
b1111 "
0G
1N
1H
1K
1O
0S
1L
1[
1@
1A
1B
1E
1$
1'
1(
1)
0W
1U
19
0;
0.
10
#295000
b1100 !
b1110 !
b111 "
b11 "
0O
0R
1J
1Q
1S
1M
0L
1P
0[
0@
0A
0B
0E
0S
0P
0$
0'
0(
0)
1Z
0V
1[
1@
1A
1B
1E
0:
1>
0T
1+
0/
1$
1'
1(
1)
1W
1V
1:
1;
18
11
1.
1/
#300000
b10 "
b1111 !
b1011 !
b0 "
b1001 !
b1000 "
b1100 "
1G
0J
0N
0H
0K
1O
1R
1S
0M
0S
1P
1T
0Z
0U
09
0>
08
01
0+
00
1Y
0W
0;
1=
1,
0.
#305000
b1 !
b1101 "
b0 !
b1111 "
b111 "
b11 "
1H
1K
0O
0R
0G
0Q
1L
0P
0[
0@
0A
0B
0E
0$
0'
0(
0)
0Y
1U
19
0=
0,
10
#310000
b100 !
b110 !
b111 !
1G
1J
1N
1P
1M
0I
1S
0P
1Y
0V
0U
09
0:
1=
1,
0/
00
0Y
1W
1;
0=
0,
1.
#315000
b10 "
b0 "
b1000 "
b101 !
b100 !
0G
0J
0H
0K
1R
0S
0M
0L
1[
1@
1A
1B
1E
0T
1S
1P
1$
1'
1(
1)
0W
0[
0@
0A
0B
0E
0;
18
11
0.
0$
0'
0(
0)
1Y
1X
1<
1=
1,
1-
#320000
b1100 !
b1100 "
b1000 !
b100 "
b1010 !
1O
0R
1J
0N
1Q
1L
1T
08
01
#325000
b101 "
b10 !
b110 !
b100 !
0J
1N
0Q
1H
0L
1I
0P
0Y
0X
1W
1V
1:
1;
0<
0=
0,
0-
1.
1/
#330000
b101 !
b1 "
b1001 "
b1 !
b11 !
0O
1R
1G
1J
0N
1M
0I
1P
0W
0V
0:
0;
0T
0.
0/
1Y
1X
1<
1=
18
11
1,
1-
#335000
b1000 "
b1011 !
b1010 !
b1100 "
b1110 !
b1100 !
0G
0J
1N
1Q
0H
1O
0M
1[
1@
1A
1B
1E
0P
1$
1'
1(
1)
1T
0Y
0X
0<
0=
08
01
0,
0-
#340000
b1110 "
b1111 "
b100 !
b101 !
1G
0Q
1H
1K
1M
0S
0T
1P
18
1T
11
1Z
1W
1V
1:
1;
1>
08
01
1+
1.
1/
#345000
b1011 "
b111 !
b1001 "
b1000 "
1J
0H
0K
0O
0P
0M
1L
1I
1S
1P
0Z
0W
1U
0[
0@
0A
0B
0E
19
0;
0>
0+
0.
10
0$
0'
0(
0)
1Y
1X
1W
0V
0U
09
0:
1;
1<
1=
1,
1-
1.
0/
00
#350000
b1111 !
b1110 !
b1010 "
1K
0G
1Q
0S
1M
0L
0I
1[
1@
1A
1B
1E
1S
0P
1$
1'
1(
1)
1Z
0Y
0X
1V
1:
0<
0=
1>
1+
0,
0-
1/
0Z
0W
0V
0:
0;
0>
0+
0.
0/
#355000
b10 "
b1010 !
b110 "
b1000 !
b111 "
0J
0N
1H
1O
0R
0S
0M
1L
1I
1S
1P
1V
1U
0[
0@
0A
0B
0E
19
1:
1/
10
0$
0'
0(
0)
1Y
1X
1W
0V
0U
09
0:
1;
1<
1=
1,
1-
1.
0/
00
#360000
b1100 !
1N
0S
0P
1[
1@
1A
1B
1E
1$
1'
1(
1)
0Y
0X
0W
1V
1U
19
1:
0;
0<
0=
0,
0-
0.
1/
10
#365000
b100 !
b101 "
b0 !
0K
0N
0Q
1P
0L
0[
0@
0A
0B
0E
0$
0'
0(
0)
1Y
0U
09
1=
1,
00
#370000
b1 !
b1 "
b11 !
b0 "
b111 !
0H
0O
1G
1J
1N
1L
0T
0Y
1W
1U
19
1;
0=
18
11
0,
1.
10
#375000
b1000 "
b1001 "
b11 !
0N
1H
1R
1S
1M
0L
0I
0P
1T
1P
0W
0V
0U
09
0:
0;
08
0T
01
0.
0/
00
1Y
1X
1<
1=
18
11
1,
1-
#380000
b1011 !
b1011 "
b1111 "
b1001 !
b111 "
1K
1O
0R
0J
1Q
0S
0P
1[
1@
1A
1B
1E
1$
1'
1(
1)
0Y
0X
0<
0=
0,
0-
#385000
b110 "
b100 "
0H
0K
0M
1I
1S
1P
1Z
1W
1V
1U
0[
0@
0A
0B
0E
19
1:
1;
1>
1T
1+
1.
1/
10
0$
0'
0(
0)
0W
0V
0:
0;
08
01
0.
0/
#390000
b1011 !
b101 "
1H
1J
1M
0I
0T
0S
0P
0Z
1Y
1X
0U
1[
1@
1A
1B
1E
09
1<
1=
0>
18
11
0+
1,
1-
00
1$
1'
1(
1)
0Y
0X
0<
0=
0,
0-
#395000
b1010 !
b1110 !
0G
1N
1P
0M
1L
1I
0P
1W
1V
1U
19
1:
1;
1T
1.
1/
10
0W
0;
08
01
0.
#400000
b110 !
b1 "
b10 !
0O
0N
0Q
0[
0@
0A
0B
0E
0$
0'
0(
0)
#405000
b1001 "
b1000 "
b110 !
1N
0H
1R
1S
0I
1P
1Y
1X
0V
0U
09
0:
1<
1=
1,
1-
0/
00
#410000
b1010 "
b100 !
b1110 "
0J
1K
1O
0S
0P
1[
1@
1A
1B
1E
1$
1'
1(
1)
0Y
1U
19
0=
0,
10
#415000
b1100 !
b1000 !
b1100 "
b1010 !
0K
1J
0N
1Q
1P
1Y
0X
0U
09
0<
1=
1,
0-
00
#420000
b100 "
b0 "
0O
0R
1S
0P
0[
0@
0A
0B
0E
0$
0'
0(
0)
0Y
1W
1;
0=
0,
1.
#425000
b1011 !
b1 "
b11 !
b111 !
b11 "
b1011 "
b1111 "
1H
1K
1O
1R
1G
1N
0Q
0S
1M
1[
1@
1A
1B
1E
1P
1$
1'
1(
1)
1X
0W
1U
19
0;
1<
1-
0.
10
1Y
0X
0U
09
0<
1=
1,
0-
00
#430000
b1111 !
b1011 !
b111 "
0R
0N
1Q
0P
0Y
1X
1U
19
1<
0=
0,
1-
10
#435000
b1001 !
b1000 !
b110 "
b100 "
b1100 !
0H
0K
0G
0J
1N
1P
0M
0L
0P
1Z
0X
1W
1V
0U
09
1:
1;
0<
1>
0T
1+
0-
1.
1/
00
0Z
0W
0V
0:
0;
0>
18
11
0+
0.
0/
#440000
b0 "
b100 !
b1000 "
b1001 "
b1011 "
b0 !
0N
0Q
1H
1K
0O
1R
1S
1L
1I
0[
0@
0A
0B
0E
1T
0$
0'
0(
0)
1Z
1Y
1=
1>
08
01
1+
1,
#445000
b1111 "
b1000 !
b1110 "
b1100 "
1Q
0H
0K
1O
0S
1P
0L
0I
1[
1@
1A
1B
1E
1$
1'
1(
1)
0Y
1W
1V
1:
1;
0=
0,
1.
1/
#450000
b1001 !
b1101 !
b1101 "
1H
1G
1N
1S
0P
1L
0Z
0V
0:
0>
0+
0/
#455000
b1111 !
b1001 "
b1011 "
b1110 !
b1010 !
b1010 "
0H
1K
0O
0G
1J
0N
0S
1M
0L
0T
1P
0W
0;
18
1T
11
0.
1Z
1W
1V
1:
1;
1>
08
01
1+
1.
1/
#460000
b10 "
b1000 !
b0 "
b1 "
0J
1H
0K
0R
1S
0M
1I
0[
0@
0A
0B
0E
0P
0$
0'
0(
0)
0W
0V
1U
19
0:
0;
0.
0/
10
0Z
1W
1V
0U
09
1:
1;
0>
0+
1.
1/
00
#465000
b0 !
b1 !
b101 !
b111 !
b11 "
1K
1G
1J
1N
0Q
0S
1P
1M
1L
0I
1S
0P
1Y
0W
0V
0:
0;
1=
1,
0.
0/
0Y
1W
1;
0=
0,
1.
#470000
b1011 "
b1111 !
b1110 !
b1010 !
b1001 "
0G
0N
1Q
0K
1R
0S
0M
1P
1I
1[
1@
1A
1B
1E
0T
0P
1$
1'
1(
1)
1V
1U
19
1:
18
1T
11
1/
10
0W
0;
08
01
0.
#475000
b1000 "
b0 "
b10 "
0H
1K
0R
1S
1M
0L
0I
0[
0@
0A
0B
0E
1P
0$
0'
0(
0)
0V
0U
09
0:
0T
0/
00
1Y
1X
1<
1=
18
11
1,
1-
#480000
b10 !
b11 !
b111 !
b1010 "
1R
1G
1N
0Q
0S
0P
1I
1[
1@
1A
1B
1E
1$
1'
1(
1)
1Z
0Y
0X
1W
1V
1U
19
1:
1;
0<
0=
1>
1+
0,
0-
1.
1/
10
#485000
b10 "
0R
1S
0[
0@
0A
0B
0E
1T
0$
0'
0(
0)
0Z
0U
09
0>
08
01
0+
00
#490000
b110 "
b1111 !
b1110 !
b1010 !
0G
0N
1Q
1O
0S
0I
1[
1@
1A
1B
1E
0T
1$
1'
1(
1)
0W
0V
0:
0;
18
11
0.
0/
#495000
b1000 !
b111 "
b11 "
b1001 !
1H
0O
1G
0J
1S
1P
0[
0@
0A
0B
0E
0$
0'
0(
0)
1Y
1X
1<
1=
1,
1-
#500000
b1011 "
b1 !
b101 !
b111 !
b1010 "
b1110 "
1J
1N
0Q
0H
1O
1R
0S
1I
1[
1@
1A
1B
1E
1T
1$
1'
1(
1)
0X
1V
1:
0<
08
01
0-
1/
#505000
b1100 "
b1111 !
b1101 "
1Q
1H
0K
0I
1S
0T
1X
0V
0:
1<
18
11
1-
0/
#510000
b101 "
b1 "
b111 !
0Q
0O
0R
0P
0[
0@
0A
0B
0E
1T
0$
0'
0(
0)
0Y
0X
0<
0=
08
01
0,
0-
#515000
b110 !
b10 !
b11 "
b10 "
b1010 "
0H
1K
1R
0G
0N
1P
0T
1Y
1X
1<
1=
18
11
1,
1-
#520000
b1110 "
b110 !
b1100 "
b1101 "
1N
1H
0K
1O
0S
0M
1L
1I
1[
1@
1A
1B
1E
0P
1$
1'
1(
1)
0Y
0X
1W
1V
1U
19
1:
1;
0<
0=
1T
0,
0-
1.
1/
10
0W
0;
08
01
0.
#525000
b100 !
b101 !
b101 "
b1 !
b111 "
b110 "
0H
1K
0R
1G
0J
0N
1P
0[
0@
0A
0B
0E
0T
0$
0'
0(
0)
1W
1;
18
11
1.
#530000
b0 !
b1110 "
b100 !
b1100 "
b1101 "
1H
0K
1R
0G
1N
0P
0L
1[
1@
1A
1B
1E
1$
1'
1(
1)
1Z
1>
1+
#535000
b110 !
b111 !
b1111 "
b1110 "
0H
1K
1G
1J
1M
1P
1T
0Z
1Y
0W
0U
09
0;
1=
0>
08
01
0+
1,
0.
00
#540000
b1111 !
b1101 !
b1111 "
1H
0J
1Q
1S
0I
0T
1X
0V
0:
1<
18
11
1-
0/
#545000
b1011 "
b11 "
b1001 !
b1000 !
b10 "
0G
0N
0H
0O
0R
0M
1L
0[
0@
0A
0B
0E
1T
0P
0$
0'
0(
0)
08
01
0Y
0X
1W
1;
0<
0=
0,
0-
1.
#550000
b0 "
b100 "
b1100 !
1N
0K
1O
0S
0L
1[
1@
1A
1B
1E
0T
1$
1'
1(
1)
0W
0;
18
11
0.
#555000
b1100 "
b1101 !
b1001 !
1G
0N
1R
1P
1I
1T
1Y
1V
1:
1=
08
01
1,
1/
#560000
b1 !
b1101 "
b1111 "
b111 "
b0 !
1H
1K
0R
0G
0Q
1L
0[
0@
0A
0B
0E
0T
0$
0'
0(
0)
0Y
1W
1U
19
1;
0=
18
11
0,
1.
10
#565000
b101 "
b1101 "
0K
1R
1S
0L
1T
1Z
0W
0V
0:
0;
1>
08
01
1+
0.
0/
#570000
b10 !
b1001 "
b110 !
b1110 !
b1000 "
b0 "
0H
0O
0R
1J
1N
1Q
1L
0I
0Z
1Y
1X
0U
09
1<
1=
0>
0+
1,
1-
00
#575000
b1100 !
b1000 !
b1 "
b1001 "
1H
1R
0J
0N
0S
0P
0L
1I
1[
1@
1A
1B
1E
0T
1$
1'
1(
1)
1Z
0Y
0X
1W
1V
1U
19
1:
1;
0<
0=
1>
18
11
1+
0,
0-
1.
1/
10
#580000
b1101 "
b0 !
b10 !
b1100 "
b100 "
1J
0Q
0H
1O
0R
1P
1L
0I
0[
0@
0A
0B
0E
1T
0$
0'
0(
0)
0Z
1Y
0W
0V
0U
09
0:
0;
1=
0>
08
01
0+
1,
0.
0/
00
#585000
b110 !
b0 "
b1110 !
b1100 !
b1000 "
0O
1R
0J
1N
1Q
0L
1[
1@
1A
1B
1E
1$
1'
1(
1)
1Z
0Y
1W
1V
1:
1;
0=
1>
1+
0,
1.
1/
#590000
b1001 "
b1101 "
b1110 !
b101 "
1J
1H
1O
0R
0P
1L
1I
0Z
0W
1U
19
0;
0>
0+
0.
10
#595000
b111 "
b1010 !
b110 "
b10 "
b1010 "
0N
0H
1K
0O
1R
1M
0L
0I
0T
1P
0V
0U
09
0:
18
1T
11
0/
00
1Z
1W
1V
1:
1;
1>
08
01
1+
1.
1/
#600000
b1000 !
b1110 "
b110 "
1O
0R
0J
0M
1L
0P
1S
1P
0Z
1X
0W
0V
1U
0[
0@
0A
0B
0E
19
0:
0;
1<
0>
0+
1-
0.
0/
10
0$
0'
0(
0)
1Y
0U
09
1=
1,
00
#605000
b1001 !
b1101 !
b10 "
b1010 "
0O
1R
1G
1N
0S
1I
1[
1@
1A
1B
1E
0T
1$
1'
1(
1)
0Y
0X
1W
1V
1U
19
1:
1;
0<
0=
18
11
0,
0-
1.
1/
10
#610000
b1000 "
b1111 !
b1110 !
b0 "
0G
1J
0K
0R
1S
0I
0[
0@
0A
0B
0E
1T
0$
0'
0(
0)
1Y
1X
0W
0V
0U
09
0:
0;
1<
1=
08
01
1,
1-
0.
0/
00
#615000
b110 !
b100 "
b1100 "
1O
1R
0Q
0S
0P
1[
1@
1A
1B
1E
1$
1'
1(
1)
0Y
1U
19
0=
0,
10
#620000
b10 !
b0 !
b1 !
b1001 !
b100 "
0R
1G
0J
0N
1Q
1S
1P
0L
1I
0[
0@
0A
0B
0E
0$
0'
0(
0)
1Z
0X
0<
1>
1+
0-
#625000
b101 "
b1 "
b1101 !
b1111 !
1J
1N
1H
0O
1M
0I
0T
0S
0P
0Z
1Y
1X
0U
1[
1@
1A
1B
1E
09
1<
1=
0>
18
11
0+
1,
1-
00
1$
1'
1(
1)
0Y
0X
0<
0=
0,
0-
#630000
b11 "
b111 !
b1011 "
b1010 "
b11 !
0N
0Q
0H
1K
1R
1S
1I
1P
0[
0@
0A
0B
0E
1T
0$
0'
0(
0)
1Z
1U
19
1>
08
01
1+
10
#635000
b1110 "
b1 !
b1001 !
b110 "
0J
1Q
1O
0R
0S
0P
0M
1L
1[
1@
1A
1B
1E
1S
1P
1$
1'
1(
1)
0Z
1V
0[
0@
0A
0B
0E
1:
0>
0+
1/
0$
0'
0(
0)
1Y
1X
1W
0V
0U
09
0:
1;
1<
1=
1,
1-
1.
0/
00
#640000
b1000 !
b1100 !
b1110 !
b110 !
b1110 "
1R
0G
1J
1N
0Q
0S
0P
1M
0L
0I
1[
1@
1A
1B
1E
0T
1P
1$
1'
1(
1)
0Y
0X
0W
0;
0<
0=
18
1T
11
0,
0-
0.
1Z
1W
1V
1:
1;
1>
08
01
1+
1.
1/
#645000
b1100 "
b1000 "
b111 !
b101 !
1G
0J
0K
0O
0P
0M
1I
0T
1S
1P
1U
0[
0@
0A
0B
0E
19
18
1T
11
10
0$
0'
0(
0)
0W
0V
0:
0;
08
01
0.
0/
#650000
b1001 "
b1011 "
b1111 "
1H
1K
1O
0S
0P
1M
0I
1[
1@
1A
1B
1E
0T
1P
1$
1'
1(
1)
0Z
0U
09
0>
18
1T
11
0+
00
1Z
1W
1V
1:
1;
1>
08
01
1+
1.
1/
#655000
b1101 !
b111 "
b1111 !
b11 "
0O
0R
1J
1Q
1L
0P
0Z
1X
0W
0V
1U
19
0:
0;
1<
0>
0+
1-
0.
0/
10
