Atividades/DPCM/simulation/qsim/dpcm.msim.vcd
$comment
	File created using the following command:
		vcd file dpcm.msim.vcd -direction
$end
$date
	Fri Dec  7 14:52:20 2018
$end
$version
	ModelSim Version 10.5b
$end
$timescale
	1ps
$end

$scope module dpcm_vlg_vec_tst $end
$var reg 1 ! clk $end
$var reg 8 " entrada [7:0] $end
$var reg 1 # reset $end
$var wire 1 $ saida [7] $end
$var wire 1 % saida [6] $end
$var wire 1 & saida [5] $end
$var wire 1 ' saida [4] $end
$var wire 1 ( saida [3] $end
$var wire 1 ) saida [2] $end
$var wire 1 * saida [1] $end
$var wire 1 + saida [0] $end

$scope module i1 $end
$var wire 1 , gnd $end
$var wire 1 - vcc $end
$var wire 1 . unknown $end
$var tri1 1 / devclrn $end
$var tri1 1 0 devpor $end
$var tri1 1 1 devoe $end
$var wire 1 2 saida[0]~output_o $end
$var wire 1 3 saida[1]~output_o $end
$var wire 1 4 saida[2]~output_o $end
$var wire 1 5 saida[3]~output_o $end
$var wire 1 6 saida[4]~output_o $end
$var wire 1 7 saida[5]~output_o $end
$var wire 1 8 saida[6]~output_o $end
$var wire 1 9 saida[7]~output_o $end
$var wire 1 : clk~input_o $end
$var wire 1 ; entrada[0]~input_o $end
$var wire 1 < reset~input_o $end
$var wire 1 = entrada[5]~input_o $end
$var wire 1 > entrada[1]~input_o $end
$var wire 1 ? entrada[2]~input_o $end
$var wire 1 @ Equal0~0_combout $end
$var wire 1 A entrada[3]~input_o $end
$var wire 1 B entrada[4]~input_o $end
$var wire 1 C Equal0~1_combout $end
$var wire 1 D entrada[6]~input_o $end
$var wire 1 E entrada[7]~input_o $end
$var wire 1 F Equal0~2_combout $end
$var wire 1 G Equal0~3_combout $end
$var wire 1 H Add0~1_sumout $end
$var wire 1 I saida[0]~reg0_q $end
$var wire 1 J Add0~2 $end
$var wire 1 K Add0~3 $end
$var wire 1 L Add0~5_sumout $end
$var wire 1 M saida[1]~reg0_q $end
$var wire 1 N Add0~6 $end
$var wire 1 O Add0~7 $end
$var wire 1 P Add0~9_sumout $end
$var wire 1 Q saida[2]~reg0_q $end
$var wire 1 R Add0~10 $end
$var wire 1 S Add0~11 $end
$var wire 1 T Add0~13_sumout $end
$var wire 1 U saida[3]~reg0_q $end
$var wire 1 V Add0~14 $end
$var wire 1 W Add0~15 $end
$var wire 1 X Add0~17_sumout $end
$var wire 1 Y saida[4]~reg0_q $end
$var wire 1 Z Add0~18 $end
$var wire 1 [ Add0~19 $end
$var wire 1 \ Add0~21_sumout $end
$var wire 1 ] saida[5]~reg0_q $end
$var wire 1 ^ Add0~22 $end
$var wire 1 _ Add0~23 $end
$var wire 1 ` Add0~25_sumout $end
$var wire 1 a saida[6]~reg0_q $end
$var wire 1 b Add0~26 $end
$var wire 1 c Add0~27 $end
$var wire 1 d Add0~29_sumout $end
$var wire 1 e saida[7]~reg0_q $end
$var wire 1 f entrada_anterior [7] $end
$var wire 1 g entrada_anterior [6] $end
$var wire 1 h entrada_anterior [5] $end
$var wire 1 i entrada_anterior [4] $end
$var wire 1 j entrada_anterior [3] $end
$var wire 1 k entrada_anterior [2] $end
$var wire 1 l entrada_anterior [1] $end
$var wire 1 m entrada_anterior [0] $end
$upscope $end
$upscope $end
$enddefinitions $end
#0
$dumpvars
0!
b1 "
0#
0+
0*
0)
0(
0'
0&
0%
0$
0,
1-
x.
1/
10
11
02
03
04
05
06
07
08
09
0:
1;
0<
0=
0>
0?
0@
0A
0B
1C
0D
0E
1F
1G
1H
0I
0J
1K
0L
0M
1N
0O
0P
0Q
1R
0S
0T
0U
1V
0W
0X
0Y
1Z
0[
0\
0]
1^
0_
0`
0a
1b
0c
0d
0e
0m
0l
0k
0j
0i
0h
0g
0f
$end
#5000
1!
1:
1m
1I
12
1@
1+
0H
0G
#10000
0!
0:
#15000
1!
1:
#20000
0!
0:
#25000
1!
1:
#30000
0!
0:
#35000
1!
1:
#40000
0!
0:
#45000
1!
1:
#50000
b11 "
b10 "
0!
0;
1>
0:
0N
1O
0@
0K
1L
1H
1G
0L
#55000
1!
1:
0m
1l
0O
1@
1K
1L
0H
0R
1N
0G
1P
0L
0V
1R
1T
0P
0Z
1V
1X
0T
0^
1Z
1\
0X
0b
1^
1`
0\
1b
1d
0`
0d
#60000
0!
0:
#65000
1!
1:
#70000
0!
0:
#75000
1!
1:
#80000
0!
0:
#85000
1!
1:
#90000
1#
0!
1<
0:
0l
0I
02
0N
1O
0@
0+
1L
1G
#95000
1!
1:
#100000
b10000010 "
b11000010 "
b11100010 "
b11110010 "
b11110110 "
b11110111 "
0!
1;
1?
1B
1=
1D
1E
0:
0F
0b
1c
0^
1_
0Z
1[
0C
0R
1S
1d
1`
1\
1X
1P
1H
#105000
1!
1:
#110000
0!
0:
#115000
1!
1:
#120000
0!
0:
#125000
1!
1:
#130000
0!
0:
#135000
1!
1:
#140000
0!
0:
#145000
1!
1:
#150000
b11111111 "
b1111111 "
b111111 "
b11111 "
b1111 "
b1011 "
b1010 "
0!
0;
0?
1A
0B
0=
0D
0E
0:
1F
1b
0c
1^
0_
1Z
0[
0V
1W
1R
0S
0d
0`
0\
0X
1T
0P
0H
#155000
1!
1:
#160000
0#
0!
0<
0:
#165000
1!
1:
1j
1l
1U
1M
13
15
1N
0O
1@
1V
0W
1C
1(
1*
0L
0T
0G
#170000
0!
0:
#175000
1!
1:
#180000
0!
0:
#185000
1!
1:
#190000
0!
0:
#195000
1!
1:
#200000
b1000 "
b10001000 "
b11001000 "
b11101000 "
b11101100 "
0!
0>
1?
1=
1D
1E
0:
0F
0b
1c
0^
1_
1G
0R
1S
0@
0N
1d
1`
1\
1P
1L
0P
#205000
1!
1:
1f
1g
1k
0l
1h
1e
1a
1]
0U
05
17
18
19
1^
0_
1N
1@
0S
1b
0c
1F
1$
1%
1&
0(
0\
0L
1P
0`
0d
1R
0V
0G
0P
1T
1V
0Z
0T
1X
1Z
0^
0X
1\
1^
0b
0\
1`
1b
0`
1d
0d
#210000
0!
0:
#215000
1!
1:
#220000
0!
0:
#225000
1!
1:
#230000
0!
0:
#235000
1!
1:
#240000
0!
0:
#245000
1!
1:
#250000
b11111100 "
b11111110 "
b1111110 "
b111110 "
b11110 "
0!
1>
1B
0=
0D
0E
0:
0F
0b
0^
1G
0Z
1[
0C
0N
1O
0@
1d
1`
1\
1X
1L
0d
0`
#255000
1!
1:
0f
0g
1i
1l
0h
0e
0a
1Y
16
08
09
1^
1N
0O
1@
1Z
0[
1C
1F
0$
0%
1'
0\
0L
0X
1`
1d
1b
0G
0`
0d
#260000
0!
0:
#265000
1!
1:
#270000
0!
0:
#275000
1!
1:
#280000
0!
0:
#285000
1!
1:
#290000
0!
0:
#295000
1!
1:
#300000
b10110 "
b10010 "
b10 "
b0 "
0!
0>
0?
0A
0B
0:
0Z
0C
0V
0R
0@
0N
1X
1T
1P
1L
0^
1G
1\
0X
0T
0P
0b
1`
1d
#305000
1!
1:
0i
0j
0k
0l
1e
1a
0Y
06
18
19
1N
1@
1C
1$
1%
0'
0L
1P
1T
1X
1R
0G
0P
1V
0T
1Z
0X
1^
0\
1b
0`
0d
#310000
0!
0:
#315000
1!
1:
#320000
0!
0:
#325000
1!
1:
#330000
0!
0:
#335000
1!
1:
#340000
0!
0:
#345000
1!
1:
#350000
b10000000 "
b11000000 "
b11001000 "
b11001100 "
b11001110 "
0!
1>
1?
1A
1D
1E
0:
0F
0b
1c
0V
1W
0C
0R
1S
0@
0N
1O
1d
1`
1T
1P
1L
1G
#355000
1!
1:
1f
1g
1j
1k
1l
0]
1U
1Q
14
15
07
1N
0O
1@
1R
0S
1V
0W
1C
1b
0c
1F
0&
1(
1)
0L
0P
0T
0`
0d
0G
#360000
0!
0:
#365000
1!
1:
#370000
0!
0:
#375000
1!
1:
#380000
0!
0:
#385000
1!
1:
#390000
0!
0:
#395000
1!
1:
#400000
b11101110 "
b11111110 "
b11110110 "
0!
0A
1B
1=
0:
0^
1_
1G
0Z
1[
0C
0V
1\
1X
1T
0X
#405000
1!
1:
1i
0j
1h
0e
0a
1]
0Q
0M
03
04
17
08
09
1^
0_
1V
1C
0[
0$
0%
1&
0)
0*
0\
0T
1X
1Z
0^
0G
0X
1\
1^
0b
0\
1`
1b
0`
1d
0d
#410000
0!
0:
#415000
1!
1:
#420000
0!
0:
#425000
1!
1:
#430000
0!
0:
#435000
1!
1:
#440000
0!
0:
#445000
1!
1:
#450000
b1110110 "
b110110 "
b110100 "
0!
0>
0D
0E
0:
0F
0b
0N
0@
1d
1`
1L
0R
1G
0d
1P
0V
1T
0Z
1X
0^
1\
0`
#455000
1!
1:
0f
0g
0l
1Y
1Q
1M
13
14
16
1N
1@
1F
1'
1)
1*
0L
1`
1d
1R
0G
0P
1V
0T
1Z
0X
1^
0\
1b
0`
0d
#460000
0!
0:
#465000
1!
1:
#470000
0!
0:
#475000
1!
1:
#480000
0!
0:
#485000
1!
1:
#490000
0!
0:
#495000
1!
1:
#500000
b110000 "
b10000 "
b0 "
b1000 "
b10001000 "
0!
0?
1A
0B
0=
1E
0:
0F
0^
1G
0Z
0C
0V
1W
0R
0@
1d
1\
1X
1T
1P
0b
1`
0\
0T
0d
#505000
1!
1:
1f
0i
1j
0k
0h
1a
0]
0U
0M
03
05
07
18
1R
1@
0W
1C
1Z
1F
1%
0&
0(
0*
1\
0P
1T
0X
1d
1V
0Z
1^
0G
0T
1X
0\
1Z
0^
1b
0X
1\
0`
1^
0b
0\
1`
0d
1b
0`
1d
0d
#510000
0!
0:
#515000
1!
1:
#520000
0!
0:
#525000
1!
1:
#530000
0!
0:
#535000
1!
1:
#540000
0!
0:
#545000
1!
1:
#550000
b11001000 "
b11001010 "
b11001110 "
b11000110 "
0!
1>
1?
0A
1D
0:
0b
1c
0F
0V
0C
0R
1S
0@
0N
1O
1`
1T
1P
1L
0Z
1G
1X
0^
1\
0`
#555000
1!
1:
1g
0j
1k
1l
0a
1]
1U
1M
13
15
17
08
1N
0O
1@
1R
0S
1V
1C
0c
1F
0%
1&
1(
1*
0L
0P
0T
1`
1Z
0G
0X
1d
1^
0\
1b
0`
0d
#560000
0!
0:
#565000
1!
1:
#570000
0!
0:
#575000
1!
1:
#580000
0!
0:
#585000
1!
1:
#590000
0!
0:
#595000
1!
1:
#600000
b11100110 "
b1100110 "
b1100100 "
b1100000 "
0!
0>
0?
1=
0E
0:
0F
0^
1_
1G
0R
0@
0N
1d
1\
1P
1L
0V
1T
0P
0Z
1X
0\
#605000
1!
1:
0f
0k
0l
1h
1e
0]
0Q
04
07
19
0_
1N
1@
1F
1$
0&
0)
1\
0L
1P
0d
0b
1R
0G
1`
0P
1V
1d
0T
1Z
0X
1^
0\
1b
0`
0d
#610000
0!
0:
#615000
1!
1:
#620000
0!
0:
#625000
1!
1:
#630000
0!
0:
#635000
1!
1:
#640000
0!
0:
#645000
1!
1:
#650000
b1110000 "
b110000 "
b110010 "
0!
1>
1B
0D
0:
0b
0F
0Z
1[
0C
0N
1O
0@
1`
1X
1L
1G
1d
#655000
1!
1:
0g
1i
1l
1a
0U
05
18
1N
0O
1@
1Z
0[
1C
1b
1F
1%
0(
0L
0X
0`
0G
0d
#660000
0!
0:
#665000
1!
1:
#670000
0!
0:
#675000
1!
1:
#680000
0!
0:
#685000
1!
1:
#690000
0!
0:
#695000
1!
1:
#700000
b10010 "
b10010010 "
b10000010 "
b11000010 "
0!
0B
0=
1D
1E
0:
0F
0b
1c
0^
1G
0Z
0C
1d
1`
1\
1X
0`
0\
#705000
1!
1:
1f
1g
0i
0h
0a
0M
03
08
1Z
1C
0c
1F
0%
0*
1\
0X
1`
0d
1^
0G
0\
1d
1b
0`
0d
#710000
0!
0:
#715000
1!
1:
#720000
0!
0:
#725000
1!
1:
#730000
0!
0:
#735000
1!
1:
#740000
0!
0:
#745000
1!
1:
#750000
b11000110 "
b11100110 "
b11110110 "
0!
1?
1B
1=
0:
0^
1_
1G
0Z
1[
0C
0R
1S
0@
1\
1X
1P
#755000
1!
1:
1i
1k
1h
0e
1]
1Q
14
17
09
1^
0_
1R
0S
1@
1Z
0[
1C
0$
1&
1)
0\
0P
0X
0G
#760000
0!
0:
#765000
1!
1:
#770000
0!
0:
#775000
1!
1:
#780000
0!
0:
#785000
1!
1:
#790000
0!
0:
#795000
1!
1:
#800000
b11111110 "
b11111100 "
b1111100 "
b111100 "
b111000 "
b11000 "
0!
0>
0?
1A
0=
0D
0E
0:
0F
0b
0^
1G
0V
1W
0C
0R
0@
0N
1d
1`
1\
1T
1P
1L
0d
0`
0T
0P
#805000
1!
1:
0f
0g
1j
0k
0l
0h
0Y
0Q
1M
13
04
06
1^
1N
1@
0W
1C
1F
0'
0)
1*
0\
0L
1P
1T
1`
1d
1b
1R
0Z
0G
0`
0P
1X
1V
0^
0d
0T
1\
1Z
0b
0X
1`
1^
0\
1d
1b
0`
0d
#810000
0!
0:
#815000
1!
1:
#820000
0!
0:
#825000
1!
1:
#830000
0!
0:
#835000
1!
1:
#840000
0!
0:
#845000
1!
1:
#850000
b1000 "
b1010 "
b1001010 "
b1001110 "
0!
1>
1?
0B
1D
0:
0b
1c
0F
0Z
0C
0R
1S
0@
0N
1O
1`
1X
1P
1L
0^
1G
1\
0`
#855000
1!
1:
1g
0i
1k
1l
1Y
1Q
14
16
1N
0O
1@
1R
0S
1Z
1C
0c
1F
1'
1)
0L
0P
0X
1`
1^
0G
0\
1d
1b
0`
0d
#860000
0!
0:
#865000
1!
1:
#870000
0!
0:
#875000
1!
1:
#880000
0!
0:
#885000
1!
1:
#890000
0!
0:
#895000
1!
1:
#900000
b1000110 "
b11000110 "
b11100110 "
b11100100 "
b11100000 "
0!
0>
0?
0A
1=
1E
0:
0F
0^
1_
1G
0V
0C
0R
0@
0N
1d
1\
1T
1P
1L
0Z
1X
0T
0P
0\
#905000
1!
1:
1f
0j
0k
0l
1h
1e
0]
0Q
04
07
19
0_
1N
1@
1C
1F
1$
0&
0)
1\
0L
1P
1T
0d
0b
1R
0G
1`
0P
1V
1d
0T
1Z
0X
1^
0\
1b
0`
0d
#910000
0!
0:
#915000
1!
1:
#920000
0!
0:
#925000
1!
1:
#930000
0!
0:
#935000
1!
1:
#940000
0!
0:
#945000
1!
1:
#950000
b11110000 "
b11111000 "
b1111000 "
b1111100 "
0!
1?
1A
1B
0E
0:
0F
0Z
1[
0C
0V
1W
0R
1S
0@
1d
1X
1T
1P
1G
#955000
1!
1:
0f
1i
1j
1k
1U
1Q
0M
03
14
15
1R
0S
1@
1V
0W
1C
1Z
0[
1F
1(
1)
0*
0P
0T
0X
0d
0G
#960000
0!
0:
#965000
1!
1:
#970000
0!
0:
#975000
1!
1:
#980000
0!
0:
#985000
1!
1:
#990000
0!
0:
#995000
1!
1:
