Atividades/Contador_De_Bits/simulation/qsim/contador_de_bits.msim.vcd
$comment
	File created using the following command:
		vcd file contador_de_bits.msim.vcd -direction
$end
$date
	Fri Nov 30 14:08:51 2018
$end
$version
	ModelSim Version 10.5b
$end
$timescale
	1ps
$end

$scope module contador_de_bits_vlg_vec_tst $end
$var reg 1 ! clk $end
$var reg 8 " data_in [7:0] $end
$var reg 1 # reset $end
$var reg 1 $ valid_in $end
$var wire 1 % data_out [2] $end
$var wire 1 & data_out [1] $end
$var wire 1 ' data_out [0] $end
$var wire 1 ( estados [1] $end
$var wire 1 ) estados [0] $end
$var wire 1 * read_in $end

$scope module i1 $end
$var wire 1 + gnd $end
$var wire 1 , vcc $end
$var wire 1 - unknown $end
$var tri1 1 . devclrn $end
$var tri1 1 / devpor $end
$var tri1 1 0 devoe $end
$var wire 1 1 read_in~output_o $end
$var wire 1 2 data_out[0]~output_o $end
$var wire 1 3 data_out[1]~output_o $end
$var wire 1 4 data_out[2]~output_o $end
$var wire 1 5 estados[0]~output_o $end
$var wire 1 6 estados[1]~output_o $end
$var wire 1 7 clk~input_o $end
$var wire 1 8 valid_in~input_o $end
$var wire 1 9 Selector4~0_combout $end
$var wire 1 : reset~input_o $end
$var wire 1 ; LessThan0~0_combout $end
$var wire 1 < Add1~0_combout $end
$var wire 1 = Selector3~0_combout $end
$var wire 1 > Selector2~0_combout $end
$var wire 1 ? Selector9~0_combout $end
$var wire 1 @ state.COUNT~q $end
$var wire 1 A data_out[0]~1_combout $end
$var wire 1 B state.IDLE~q $end
$var wire 1 C Selector8~0_combout $end
$var wire 1 D state.DATA_IN~q $end
$var wire 1 E Selector0~0_combout $end
$var wire 1 F read_in~reg0_q $end
$var wire 1 G data_in[7]~input_o $end
$var wire 1 H temp_data_in[7]~0_combout $end
$var wire 1 I bit_para_contagem~0_combout $end
$var wire 1 J bit_para_contagem~q $end
$var wire 1 K data_in[5]~input_o $end
$var wire 1 L data_in[6]~input_o $end
$var wire 1 M data_in[1]~input_o $end
$var wire 1 N data_in[3]~input_o $end
$var wire 1 O data_in[2]~input_o $end
$var wire 1 P data_in[0]~input_o $end
$var wire 1 Q Mux0~4_combout $end
$var wire 1 R data_in[4]~input_o $end
$var wire 1 S Mux0~0_combout $end
$var wire 1 T temp_data_out~0_combout $end
$var wire 1 U Selector7~0_combout $end
$var wire 1 V data_out[0]~0_combout $end
$var wire 1 W data_out[0]~reg0_q $end
$var wire 1 X temp_data_out~1_combout $end
$var wire 1 Y Selector6~0_combout $end
$var wire 1 Z data_out[1]~reg0_q $end
$var wire 1 [ Selector5~0_combout $end
$var wire 1 \ data_out[2]~reg0_q $end
$var wire 1 ] temp_data_in [7] $end
$var wire 1 ^ temp_data_in [6] $end
$var wire 1 _ temp_data_in [5] $end
$var wire 1 ` temp_data_in [4] $end
$var wire 1 a temp_data_in [3] $end
$var wire 1 b temp_data_in [2] $end
$var wire 1 c temp_data_in [1] $end
$var wire 1 d temp_data_in [0] $end
$var wire 1 e temp_data_out [2] $end
$var wire 1 f temp_data_out [1] $end
$var wire 1 g temp_data_out [0] $end
$var wire 1 h contador [3] $end
$var wire 1 i contador [2] $end
$var wire 1 j contador [1] $end
$var wire 1 k contador [0] $end
$upscope $end
$upscope $end
$enddefinitions $end
#0
$dumpvars
0!
b0 "
0#
1$
0'
0&
0%
0)
0(
0*
0+
1,
x-
1.
1/
10
01
02
03
04
05
06
07
18
09
0:
0;
0<
0=
0>
0?
0@
1A
0B
1C
0D
1E
0F
0G
0H
0I
0J
0K
0L
0M
0N
0O
0P
0Q
0R
0S
1T
0U
0V
0W
1X
0Y
0Z
0[
0\
0d
0c
0b
0a
0`
0_
0^
0]
0g
0f
0e
0k
0j
0i
zh
$end
#5000
1!
17
1B
1F
1D
15
11
1H
0T
1*
1)
0C
1?
0X
#10000
0!
07
#15000
1!
17
0D
1@
16
05
0H
0)
1(
0E
#20000
0$
0!
08
07
#25000
1!
17
0F
01
1T
0*
19
1X
1U
#30000
1#
0!
1:
07
0B
0@
06
0(
1C
0U
1E
0?
09
#35000
1!
17
#40000
1$
0!
18
07
#45000
1!
17
#50000
0!
07
#55000
1!
17
#60000
0$
0!
08
07
#65000
1!
17
#70000
0!
07
#75000
1!
17
#80000
1$
0!
18
07
#85000
1!
17
#90000
0!
07
#95000
1!
17
#100000
0#
0!
0:
07
#105000
1!
17
1B
1F
1D
15
11
1H
0T
1*
1)
0C
1?
0X
#110000
0!
07
#115000
1!
17
0D
1@
16
05
0H
0)
1(
0E
#120000
b100000 "
b101000 "
0$
0!
08
1N
1K
07
#125000
1!
17
0F
01
1T
0*
19
1X
1U
#130000
0!
07
#135000
1!
17
1k
1g
1<
09
1Y
0U
1=
#140000
0!
07
#145000
1!
17
1j
0k
1f
0g
0<
19
1>
0=
1U
0>
1=
#150000
0!
07
#155000
1!
17
1k
1g
1<
09
1[
0Y
0U
1>
0=
#160000
0!
07
#165000
1!
17
1i
0j
0k
1e
0f
0g
0<
19
1=
1U
0=
#170000
0!
07
#175000
1!
17
1k
1g
1Q
1<
09
1Y
0U
1=
#180000
0!
07
#185000
1!
17
1j
0k
1f
0g
0Q
0<
19
0=
1U
1=
#190000
0!
07
#195000
1!
17
1k
1g
1V
0T
1Q
1<
1;
0A
0?
09
0[
0Y
0U
0X
19
1U
1[
1Y
#200000
1$
0!
18
07
#205000
1!
17
0B
1\
1Z
1W
0@
06
12
13
14
0V
1%
1&
1'
0(
1C
0[
0Y
0U
1E
1A
0>
0=
09
#210000
0!
07
#215000
1!
17
1B
0i
0j
0k
0e
0f
0g
1F
1D
15
11
0Q
0<
0;
1S
1H
1*
1)
1?
0C
0S
#220000
0!
07
#225000
1!
17
1a
1_
0D
1@
16
05
0H
0)
1(
0E
#230000
0!
07
#235000
1!
17
0F
01
1T
0*
19
1X
1U
#240000
0!
07
#245000
1!
17
1k
1g
1<
09
1Y
0U
1=
#250000
0!
07
#255000
1!
17
1j
0k
1f
0g
0<
19
1>
0=
1U
0>
1=
#260000
0$
0!
08
07
#265000
1!
17
1k
1g
1Q
1<
09
1[
0Y
0U
1S
1>
0=
0X
1U
0[
1Y
#270000
0!
07
#275000
1!
17
1i
0j
0k
0Q
0<
19
1=
0S
0=
1X
0U
1[
0Y
#280000
1$
0!
18
07
#285000
1!
17
1k
1e
0f
0g
1Q
1<
09
1U
1S
1=
0X
0U
#290000
0!
07
#295000
1!
17
1j
0k
0Q
0<
0S
19
0=
1X
1U
1=
#300000
0$
0!
08
07
#305000
1!
17
1k
1g
1V
0T
1Q
1<
1;
0A
0?
09
1Y
0U
0X
19
1U
0Y
#310000
b1000 "
b0 "
0!
0N
0K
07
#315000
1!
17
0B
0Z
0@
06
03
0V
0&
0(
1C
0[
0U
1E
1A
0>
0=
09
#320000
0!
07
#325000
1!
17
1B
0i
0j
0k
0e
0g
1F
1D
15
11
0Q
0<
0;
1S
1*
1)
0S
#330000
0!
07
#335000
1!
17
#340000
1$
0!
18
07
1H
0C
1?
#345000
1!
17
0a
0_
0D
1@
16
05
0H
0)
1(
0E
#350000
0!
07
#355000
1!
17
0F
01
1T
0*
19
1X
1U
#360000
0!
07
#365000
1!
17
1k
1g
1<
09
1Y
0U
1=
#370000
0!
07
#375000
1!
17
1j
0k
1f
0g
0<
19
1>
0=
1U
0>
1=
#380000
0!
07
#385000
1!
17
1k
1g
1<
09
1[
0Y
0U
1>
0=
#390000
0!
07
#395000
1!
17
1i
0j
0k
1e
0f
0g
0<
19
1=
1U
0=
#400000
0!
07
#405000
1!
17
1k
1g
1Q
1<
09
1Y
0U
1=
#410000
0!
07
#415000
1!
17
1j
0k
1f
0g
0Q
0<
19
0=
1U
1=
#420000
0$
0!
08
07
#425000
1!
17
1k
1g
1V
0T
1Q
1<
1;
0A
0?
09
0[
0Y
0U
0X
19
1U
1[
1Y
#430000
b10000000 "
b10100000 "
b10101000 "
0!
1N
1K
1G
07
#435000
1!
17
0B
1Z
0@
06
13
0V
1&
0(
1C
0[
0Y
0U
1E
1A
0>
0=
09
#440000
0!
07
#445000
1!
17
1B
0i
0j
0k
0e
0f
0g
1F
1D
15
11
0Q
0<
0;
1S
1*
1)
0S
#450000
0!
07
#455000
1!
17
#460000
1$
0!
18
07
1H
0C
1?
#465000
1!
17
1a
1_
1]
0D
1@
16
05
0H
0)
1(
1I
0E
#470000
0!
07
#475000
1!
17
1J
0F
01
1T
0*
19
#480000
0!
07
#485000
1!
17
1k
1<
09
1=
#490000
0!
07
#495000
1!
17
1j
0k
0<
19
1>
0=
0>
1=
#500000
0!
07
#505000
1!
17
1k
1Q
1<
09
1S
1>
0=
1X
1U
#510000
0!
07
#515000
1!
17
1i
0j
0k
1g
0Q
0<
19
1=
1Y
0U
0S
0=
0X
1U
0Y
#520000
0!
07
#525000
1!
17
1k
1Q
1<
09
1S
1=
1X
0U
1Y
#530000
0!
07
#535000
1!
17
1j
0k
1f
0g
0Q
0<
19
0=
1U
0S
1=
0X
0U
#540000
0$
0!
08
07
#545000
1!
17
1k
1V
0T
1Q
1<
1;
0A
0?
09
1S
19
#550000
0!
07
#555000
1!
17
0B
0\
0W
0@
06
02
04
0V
0%
0'
0(
1C
0Y
1E
1A
0>
0=
09
#560000
1$
0!
18
07
#565000
1!
17
1B
0i
0j
0k
0f
1F
1D
15
11
0Q
0<
0;
1H
1*
1)
1?
0C
0S
#570000
0!
07
#575000
1!
17
0D
1@
16
05
0H
0)
1(
0E
#580000
0$
0!
08
07
#585000
1!
17
0F
01
1T
0*
19
#590000
0!
07
#595000
1!
17
1k
1<
09
1=
#600000
0!
07
#605000
1!
17
1j
0k
0<
19
1>
0=
0>
1=
#610000
0!
07
#615000
1!
17
1k
1Q
1<
09
1S
1>
0=
1X
1U
#620000
0!
07
#625000
1!
17
1i
0j
0k
1g
0Q
0<
19
1=
1Y
0U
0S
0=
0X
1U
0Y
#630000
0!
07
#635000
1!
17
1k
1Q
1<
09
1S
1=
1X
0U
1Y
#640000
1$
0!
18
07
#645000
1!
17
1j
0k
1f
0g
0Q
0<
19
0=
1U
0S
1=
0X
0U
#650000
0!
07
#655000
1!
17
1k
1V
0T
1Q
1<
1;
0A
0?
09
1S
19
#660000
0!
07
#665000
1!
17
0B
0@
06
0V
0(
1C
0Y
1E
1A
0>
0=
09
#670000
0!
07
#675000
1!
17
1B
0i
0j
0k
0f
1F
1D
15
11
0Q
0<
0;
1H
1*
1)
1?
0C
0S
#680000
b101000 "
b1000 "
b0 "
0$
0!
08
0N
0K
0G
07
0H
1C
0?
#685000
1!
17
#690000
0!
07
#695000
1!
17
#700000
1$
0!
18
07
1H
0C
1?
#705000
1!
17
0a
0_
0]
0D
1@
16
05
0H
0)
1(
0I
0E
#710000
0!
07
#715000
1!
17
0J
0F
01
1T
0*
19
1X
1U
#720000
0!
07
#725000
1!
17
1k
1g
1<
09
1Y
0U
1=
#730000
0!
07
#735000
1!
17
1j
0k
1f
0g
0<
19
1>
0=
1U
0>
1=
#740000
0!
07
#745000
1!
17
1k
1g
1<
09
1[
0Y
0U
1>
0=
#750000
0!
07
#755000
1!
17
1i
0j
0k
1e
0f
0g
0<
19
1=
1U
0=
#760000
0$
0!
08
07
#765000
1!
17
1k
1g
1Q
1<
09
1Y
0U
1=
#770000
0!
07
#775000
1!
17
1j
0k
1f
0g
0Q
0<
19
0=
1U
1=
#780000
0!
07
#785000
1!
17
1k
1g
1V
0T
1Q
1<
1;
0A
0?
09
0[
0Y
0U
0X
19
1U
1[
1Y
#790000
0!
07
#795000
1!
17
0B
1\
1W
0@
06
12
14
0V
1%
1'
0(
1C
0[
0Y
0U
1E
1A
0>
0=
09
#800000
0!
07
#805000
1!
17
1B
0i
0j
0k
0e
0f
0g
1F
1D
15
11
0Q
0<
0;
1S
1*
1)
0S
#810000
0!
07
#815000
1!
17
#820000
0!
07
#825000
1!
17
#830000
0!
07
#835000
1!
17
#840000
0!
07
#845000
1!
17
#850000
0!
07
#855000
1!
17
#860000
0!
07
#865000
1!
17
#870000
0!
07
#875000
1!
17
#880000
0!
07
#885000
1!
17
#890000
0!
07
#895000
1!
17
#900000
1$
0!
18
07
1H
0C
1?
#905000
1!
17
0D
1@
16
05
0H
0)
1(
0E
#910000
0!
07
#915000
1!
17
0F
01
1T
0*
19
1X
1U
#920000
0$
0!
08
07
#925000
1!
17
1k
1g
1<
09
1Y
0U
1=
#930000
0!
07
#935000
1!
17
1j
0k
1f
0g
0<
19
1>
0=
1U
0>
1=
#940000
1$
0!
18
07
#945000
1!
17
1k
1g
1<
09
1[
0Y
0U
1>
0=
#950000
0!
07
#955000
1!
17
1i
0j
0k
1e
0f
0g
0<
19
1=
1U
0=
#960000
0$
0!
08
07
#965000
1!
17
1k
1g
1Q
1<
09
1Y
0U
1=
#970000
0!
07
#975000
1!
17
1j
0k
1f
0g
0Q
0<
19
0=
1U
1=
#980000
0!
07
#985000
1!
17
1k
1g
1V
0T
1Q
1<
1;
0A
0?
09
0[
0Y
0U
0X
19
1U
1[
1Y
#990000
0!
07
#995000
1!
17
0B
0@
06
0V
0(
1C
0[
0Y
0U
1E
1A
0>
0=
09
