Atividades/Somador_4_bits/simulation/qsim/somador_4.msim.vcd
$comment
	File created using the following command:
		vcd file somador_4.msim.vcd -direction
$end
$date
	Fri Sep 21 14:28:46 2018
$end
$version
	ModelSim Version 10.5b
$end
$timescale
	1ps
$end

$scope module somador_4_vlg_vec_tst $end
$var reg 4 ! a [3:0] $end
$var reg 4 " b [3:0] $end
$var reg 1 # c0 $end
$var wire 1 $ c4 $end
$var wire 1 % s [3] $end
$var wire 1 & s [2] $end
$var wire 1 ' s [1] $end
$var wire 1 ( s [0] $end

$scope module i1 $end
$var wire 1 ) gnd $end
$var wire 1 * vcc $end
$var wire 1 + unknown $end
$var tri1 1 , devclrn $end
$var tri1 1 - devpor $end
$var tri1 1 . devoe $end
$var wire 1 / s[0]~output_o $end
$var wire 1 0 s[1]~output_o $end
$var wire 1 1 s[2]~output_o $end
$var wire 1 2 s[3]~output_o $end
$var wire 1 3 c4~output_o $end
$var wire 1 4 c0~input_o $end
$var wire 1 5 b[0]~input_o $end
$var wire 1 6 a[0]~input_o $end
$var wire 1 7 SC0|MS2|s~combout $end
$var wire 1 8 b[1]~input_o $end
$var wire 1 9 a[1]~input_o $end
$var wire 1 : SC1|MS2|s~combout $end
$var wire 1 ; SC1|cout~combout $end
$var wire 1 < b[2]~input_o $end
$var wire 1 = a[2]~input_o $end
$var wire 1 > SC2|MS2|s~combout $end
$var wire 1 ? b[3]~input_o $end
$var wire 1 @ a[3]~input_o $end
$var wire 1 A SC3|MS2|s~combout $end
$var wire 1 B SC3|cout~combout $end
$upscope $end
$upscope $end
$enddefinitions $end
#0
$dumpvars
b0 !
b1101 "
0#
0$
1(
0'
1&
1%
0)
1*
x+
1,
1-
1.
1/
00
11
12
03
04
15
06
17
08
09
0:
0;
1<
0=
1>
1?
0@
1A
0B
$end
#5000
b1000 !
b1100 !
b1110 !
1#
19
1=
1@
14
1;
07
1B
0>
01
13
0/
0(
1$
0&
1>
11
1&
#10000
b1001 "
b1000 "
b110 !
b10 !
b0 !
09
0=
0@
05
0<
0;
0B
17
1/
03
0$
1(
0>
01
0&
#15000
b0 "
b10 "
b1000 !
1@
18
0?
1:
10
1'
#20000
b1001 !
b11 "
b1101 !
b1111 !
b1011 "
b111 !
15
1?
16
19
1=
0@
1;
1>
11
1&
1B
0A
0>
01
02
13
1$
0%
0&
#25000
0#
b1111 "
b11 !
04
0=
1<
07
0/
0(
#30000
b1101 "
b1100 "
b1 !
1#
09
05
08
14
0;
0B
1A
1>
11
12
03
0$
1%
1&
#35000
b0 !
b100 "
b1000 !
b0 "
b1100 !
b10 "
b1110 !
18
0<
0?
06
19
1=
1@
1;
0:
17
1/
00
0'
1(
1B
0A
0>
01
02
13
1$
0%
0&
#40000
0#
b110 !
b10 !
04
0=
0@
0B
1>
07
0/
11
03
0$
1&
0(
#45000
b110 "
b100 "
b0 !
1#
b1000 !
b1100 !
09
1=
1@
08
1<
14
0;
17
1B
13
1/
1(
1$
0>
01
0&
#50000
b101 "
b1101 "
b1001 "
0#
b100 !
04
0@
15
0<
1?
0B
1A
1>
11
12
03
0$
1%
1&
#55000
b110 !
b1000 "
b0 "
b1110 !
05
0?
19
1@
1:
07
0/
10
1'
0(
#60000
b1111 !
b1011 !
b100 "
1#
b1001 !
1<
16
09
0=
14
#65000
b110 "
b111 "
b1111 "
15
18
1?
1;
1B
0A
0:
17
1/
00
02
13
1$
0%
0'
1(
1A
0>
01
12
1%
0&
#70000
b1011 "
0#
b1001 "
b1 "
08
0<
0?
04
0;
1:
07
0B
1>
11
03
0/
10
1'
0(
0$
1&
0>
01
0&
#75000
b1 !
b0 "
1#
05
0@
14
0A
02
0%
#80000
b0 !
b100 !
b110 !
b1000 "
b1110 !
b1001 "
15
1?
06
19
1=
1@
1;
1B
1>
0:
00
11
13
1$
1&
0'
1A
0>
01
12
1%
0&
#85000
0#
04
0;
1:
17
1/
10
1'
1(
0A
1>
11
02
0%
1&
#90000
b1111 !
b1011 !
b1001 !
b1 !
b1000 "
05
16
09
0=
0@
0B
1A
0>
0:
00
01
12
03
0$
1%
0&
0'
#95000
b1100 "
b101 !
b1101 "
1=
15
1<
1B
0A
1:
07
0/
10
02
13
1$
0%
1'
0(
#100000
b111 !
b1111 !
b1100 "
05
19
1@
1A
17
1/
12
1%
1(
#105000
b1110 "
b110 "
1#
b10 "
b1011 !
b1001 !
14
09
0=
18
0<
0?
1;
0B
0:
07
0/
00
03
0$
0'
0(
1>
11
1&
#110000
b1000 !
b11 "
b1 "
0#
15
08
06
04
0;
17
1/
1(
0>
01
0&
#115000
b1001 "
b1101 "
b1100 !
b1110 !
1#
19
1=
1<
1?
14
1;
07
1B
13
0/
0(
1$
1>
11
1&
#120000
b110 !
b1100 "
b100 "
0#
05
0?
0@
04
0;
1:
0B
03
10
1'
0$
0>
01
0&
#125000
b100 !
b1100 !
b1100 "
1?
09
1@
1B
0:
00
13
1$
0'
#130000
b1000 "
1#
b1110 !
b0 "
14
19
0<
0?
0B
1>
1:
17
1/
10
11
03
0$
1&
1'
1(
#135000
b1010 !
b1 "
b10 !
15
0=
0@
1;
0A
0>
0:
07
0/
00
01
02
0%
0&
0'
0(
1>
11
1&
#140000
b11 "
b111 "
b0 !
b1111 "
b1110 "
09
05
18
1<
1?
0;
1B
0>
1:
17
1/
10
01
13
1$
0&
1'
1(
0B
1A
1>
11
12
03
0$
1%
1&
#145000
b1 !
b1001 !
b1100 "
b1000 "
b0 "
b1 "
15
08
0<
0?
16
1@
0>
01
0&
#150000
b1011 !
b101 "
1<
19
1;
0:
1>
11
00
0'
1&
1B
0A
0>
01
02
13
1$
0%
0&
#155000
0#
b1111 !
b1110 !
b110 !
b111 "
b1111 "
04
18
1?
06
1=
0@
1>
11
1&
#160000
b100 !
b101 !
b1101 !
b1101 "
08
16
09
1@
0;
1A
1:
07
0/
10
12
1%
1'
0(
0>
01
0&
#165000
b1100 "
b1000 "
1#
b1001 !
b0 "
b1 !
b10 "
14
0=
0@
05
18
0<
0?
1;
0B
0A
0:
00
02
03
0$
0%
0'
1>
11
1&
#170000
b11 !
0#
b111 !
b1010 "
b1111 !
b1000 "
04
08
1?
19
1=
1@
0;
1B
1A
0>
1:
17
1/
10
01
12
13
1$
1%
0&
1'
1(
0A
1>
11
02
0%
1&
#175000
b1110 !
b1001 "
b1101 "
b1100 !
b101 "
15
1<
0?
06
09
0:
0>
01
00
0'
0&
#180000
1#
b1000 !
b1001 !
b100 "
14
05
16
0=
0B
1A
1>
1:
07
0/
10
11
12
03
0$
1%
1&
1'
0(
#185000
b0 "
b1000 "
b1101 !
b1100 !
b1001 "
06
1=
15
0<
1?
1B
0A
02
13
1$
0%
#190000
b1011 "
b1110 !
b1111 !
b1010 "
16
19
05
18
1;
1A
0>
01
12
1%
0&
#195000
0#
b10 "
b1110 !
b11 "
04
06
15
0?
0A
0:
17
1/
00
02
0%
0'
1(
#200000
b110 !
b10 !
b1 "
1#
b11 !
08
16
0=
0@
14
0B
1>
11
03
0$
1&
#205000
b101 "
b1 !
b100 "
b110 "
09
05
18
1<
1A
0>
07
0/
01
12
1%
0&
0(
#210000
b1110 "
b101 !
b111 !
b1100 "
19
1=
08
1?
1B
0A
1>
11
02
13
1$
0%
1&
#215000
b1111 !
b1110 !
b1000 "
b1001 "
b1 "
b1010 !
b11 "
15
18
0<
0?
06
0=
1@
0B
1A
1:
10
12
03
0$
1%
1'
#220000
0#
b1000 !
b1001 !
b111 "
b110 "
b1110 "
b1100 "
04
05
08
1<
1?
16
09
0;
0:
17
1B
0>
01
13
1/
00
0'
1(
1$
0&
0A
1>
11
02
0%
1&
#225000
b1101 !
1#
b1111 !
b1110 !
b100 "
14
0?
06
19
1=
0>
1:
10
01
0&
1'
#230000
b101 "
b1101 "
15
1?
1;
1A
0:
07
0/
00
12
1%
0'
0(
1>
11
1&
#235000
b1001 "
b1011 "
b1100 !
b1101 !
b1010 "
b10 "
16
09
05
18
0<
0?
0A
0>
01
02
0%
0&
#240000
b1100 !
b1010 "
1?
06
0;
1:
17
1A
12
1/
10
1'
1(
1%
0A
1>
11
02
0%
1&
#245000
b1000 !
0#
b1010 !
b1011 "
b11 "
04
15
0?
19
0=
1;
0B
1A
0>
0:
00
01
12
03
0$
1%
0&
0'
1>
11
1&
#250000
b111 "
1#
b1000 !
b110 "
14
09
05
1<
0;
1B
0A
0>
1:
10
01
02
13
1$
0%
0&
1'
0B
1A
1>
11
12
03
0$
1%
1&
#255000
b1001 !
b1101 !
b1111 !
b111 "
15
16
19
1=
1;
1B
0A
0>
01
02
13
1$
0%
0&
1>
11
1&
#260000
b111 !
b101 "
b1101 "
b1001 "
0#
b11 !
08
0<
1?
0=
0@
04
0:
07
0B
1A
12
03
0/
00
0'
0(
0$
1%
#265000
b1 !
b1000 "
05
09
0;
17
1/
1(
0>
01
0&
#270000
b0 !
b1010 "
b10 "
b110 "
b100 !
b110 !
18
1<
0?
06
19
1=
1;
07
0/
0(
1>
11
1&
#275000
b1110 !
1#
b100 "
b1100 "
b1000 "
14
08
0<
1?
1@
0;
1B
0>
1:
17
1/
10
01
13
1$
0&
1'
1(
0A
1>
11
02
0%
1&
#280000
b1111 !
b111 !
0#
b1100 "
04
1<
16
0@
0>
01
0&
#285000
b1101 "
b11 !
b1111 "
b111 "
b1011 !
1#
b11 "
0=
1@
15
18
0<
0?
14
1;
0B
1A
12
03
0$
1%
1>
11
1&
#290000
b1001 !
b1000 !
b1100 !
b1011 "
0#
1?
06
09
1=
04
0;
1B
0>
01
13
1$
0&
0A
1>
11
02
0%
1&
#295000
b1111 "
b1000 !
b111 "
0=
1<
0?
0B
1A
12
03
0$
1%
#300000
b110 "
b100 "
b1010 !
b1011 !
1#
b0 "
b1111 !
b1000 "
16
19
1=
05
08
0<
1?
14
1;
0:
07
1B
0A
02
13
0/
00
0'
0(
1$
0%
1A
0>
01
12
1%
0&
#305000
b1001 "
b1011 "
b1101 !
09
15
18
17
1/
1(
#310000
b1100 !
b1111 "
b111 "
b110 "
b100 "
05
08
1<
0?
06
0;
0A
1>
11
02
0%
1&
0>
01
0&
#315000
b1000 !
b1010 !
b0 "
b10 "
18
0<
19
0=
1;
0B
1A
12
03
0$
1%
1>
11
1&
#320000
0#
b1011 !
b110 "
b100 "
04
08
1<
16
0;
1:
1B
0A
0>
01
02
13
10
1'
1$
0%
0&
0B
1A
1>
11
12
03
0$
1%
1&
#325000
b1010 !
b110 "
18
06
1;
0:
07
0/
00
0'
0(
1B
0A
0>
01
02
13
1$
0%
0&
#330000
b1110 "
b1000 !
b1010 "
b1001 !
16
09
0<
1?
0;
1>
1:
17
1/
10
11
1&
1'
1(
0>
01
0&
#335000
b1011 "
1#
b1111 "
b1000 !
14
06
15
1<
1;
1>
0:
07
0/
00
11
1&
0'
0(
1A
0>
01
12
1%
0&
#340000
0#
b1001 !
04
16
#345000
b1101 !
b1101 "
b101 "
b1111 !
b1 "
1#
b1110 !
08
0<
0?
06
19
1=
14
0A
02
0%
#350000
b110 !
b10 !
b11 "
b1011 "
b11 !
18
1?
16
0=
0@
0B
1A
1>
1:
17
1/
10
11
12
03
0$
1%
1&
1'
1(
#355000
b1010 "
0#
b1011 !
b1000 "
04
1@
05
08
0;
1B
0A
02
13
1$
0%
0>
01
0&
#360000
b1001 !
b1101 !
b0 "
b1 "
b101 !
15
0?
09
1=
0@
0B
1>
07
0/
11
03
0$
1&
0(
#365000
b100 !
b0 !
b1001 "
b1000 !
1?
06
0=
1@
1B
0>
0:
17
1/
00
01
13
1$
0&
0'
1(
#370000
b1011 "
18
1:
10
1'
#375000
b1111 "
1#
b1010 !
b1110 "
b10 !
14
19
0@
05
1<
1;
0B
1A
1>
0:
00
11
12
03
0$
1%
1&
0'
1B
0A
0>
01
02
13
1$
0%
0&
#380000
b11 !
b110 "
b10 "
0<
0?
16
1:
07
0B
1>
11
03
0/
10
1'
0(
0$
1&
#385000
b111 !
0#
b101 !
b11 "
b1011 "
04
15
1?
09
1=
1B
0>
0:
00
01
13
1$
0&
0'
#390000
b1001 "
b1101 !
b1 "
1@
08
0?
0;
1:
10
1'
0B
1A
1>
11
12
03
0$
1%
1&
#395000
b1111 !
b0 "
b10 "
b1010 "
05
18
1?
19
1;
0:
1B
0A
17
1/
02
13
00
0'
1$
0%
1(
1A
0>
01
12
1%
0&
#400000
b1110 "
b1011 !
b11 !
b1 !
b1111 "
b111 "
09
0=
0@
15
1<
0?
0B
07
0/
03
0$
0(
#405000
1#
b101 "
b1 "
b101 !
14
1=
08
0<
0;
1:
17
1/
10
1'
1(
0A
1>
11
02
0%
1&
#410000
b100 !
b1100 !
0#
b11 "
b1000 !
04
18
06
0=
1@
1A
0>
01
12
1%
0&
#415000
b10 "
b1010 "
b1110 "
b1001 !
1#
b1100 "
b1101 !
16
1=
05
08
1<
1?
14
07
1B
13
0/
0(
1$
#420000
b101 !
b1101 "
b1111 "
b1 !
15
18
0=
0@
1;
0B
1>
0:
17
1/
00
11
03
0$
1&
0'
1(
1B
0A
0>
01
02
13
1$
0%
0&
#425000
b1001 !
b1101 !
1=
1@
1A
1>
11
12
1%
1&
#430000
b111 "
b1100 !
0#
b110 "
b1000 !
06
0=
05
0?
04
0;
1:
07
0A
0>
01
02
0/
10
1'
0(
0%
0&
0B
1A
1>
11
12
03
0$
1%
1&
#435000
b1010 !
b10 "
b0 "
b1000 "
b1011 !
08
0<
1?
16
19
17
1B
0A
0>
01
02
13
1/
1(
1$
0%
0&
#440000
b11 !
1#
b1001 "
b111 !
b101 !
b1011 "
b100 !
14
15
18
06
09
1=
0@
1;
0B
1A
1>
0:
07
0/
00
11
12
03
0$
1%
1&
0'
0(
1B
0A
0>
01
02
13
1$
0%
0&
#445000
b11 "
0#
b0 !
b10 !
b1 "
b11 !
04
16
19
0=
08
0?
0B
1>
11
03
0$
1&
#450000
b0 "
b1000 "
b111 !
b110 !
06
1=
05
1?
0;
1B
1:
0>
01
10
13
1$
1'
0&
0B
1A
1>
11
12
03
0$
1%
1&
#455000
b1110 !
b1100 !
b1001 "
b1 "
b1000 !
b1001 !
15
0?
16
09
0=
1@
0>
01
0&
#460000
b101 "
1#
b111 "
b1 !
b11 !
b1111 "
b10 !
14
06
19
0@
18
1<
1?
1;
1>
11
1&
1B
0A
0>
01
02
13
1$
0%
0&
#465000
b11 !
16
17
1/
1(
#470000
b1110 "
b111 !
b1100 "
b1111 !
1=
1@
05
08
0:
07
1A
1>
11
12
0/
00
0'
0(
1%
1&
#475000
b1000 "
b1101 !
b1001 "
b1001 !
09
0=
15
0<
0;
0A
1:
17
1/
10
02
0%
1'
1(
0>
01
0&
#480000
b1 "
b1 !
b101 "
b101 !
1=
0@
1<
0?
0B
1A
12
03
0$
1%
#485000
b100 !
b100 "
b1100 "
05
1?
06
0:
1B
0A
02
13
00
0'
1$
0%
#490000
b1100 !
b1000 !
b1001 !
b1101 "
b101 "
15
0?
16
0=
1@
0B
1A
1>
1:
10
11
12
03
0$
1%
1&
1'
#495000
0#
b1101 !
b1101 "
04
1?
1=
1B
0>
07
0/
01
13
1$
0&
0(
#500000
b1111 !
b1001 "
b111 !
b110 !
b1000 "
1#
05
0<
06
19
0@
14
17
0B
1>
11
03
1/
1(
0$
1&
#505000
b1010 "
b100 !
b1110 "
b1100 !
b1101 !
0#
16
09
1@
18
1<
04
1B
0>
01
13
1$
0&
#510000
b1001 !
b110 "
b1011 !
b11 !
b10 !
1#
0?
06
19
0=
0@
14
1;
0:
0B
0A
1>
11
02
03
00
0'
0$
0%
1&
1A
0>
01
12
1%
0&
#515000
b111 "
b1111 "
b1010 !
b1011 !
16
1@
15
1?
1B
1:
10
13
1$
1'
#520000
b1011 "
b1111 !
b111 !
1=
0@
0<
0A
02
0%
#525000
0#
b1111 "
b11 !
b1011 !
04
0=
1@
1<
1A
07
0/
12
1%
0(
#530000
b1101 "
1#
b1001 "
b1111 !
14
1=
08
0<
0:
17
1/
00
0'
1(
#535000
b1101 !
b101 !
b1011 "
0#
b1111 "
18
1<
09
0@
04
07
0A
1>
11
02
0/
0(
0%
1&
#540000
b1110 "
b1 !
b11 !
b1010 "
19
0=
05
0<
0B
1A
17
1/
12
03
0$
1%
1(
#545000
b10 !
b1010 !
b1000 "
b1110 !
08
06
1=
1@
0;
1B
0>
1:
07
0/
10
01
13
1$
0&
1'
0(
0A
1>
11
02
0%
1&
#550000
b0 "
b100 "
b1111 !
b1011 !
16
0=
1<
0?
0B
1A
17
1/
12
03
0$
1%
1(
#555000
b101 "
b11 !
b111 "
b1111 "
b111 !
1=
0@
15
18
1?
1;
1B
0A
07
0>
01
0/
02
13
1$
0%
0(
0&
1>
11
1&
#560000
1#
b110 !
b1110 "
b1110 !
b1100 "
b100 "
b1010 !
14
05
08
0?
06
0=
1@
0;
0>
17
1/
01
0&
1(
0B
1A
1>
11
12
03
0$
1%
1&
#565000
b1011 !
b101 "
b111 "
15
18
16
1;
1B
0A
0>
01
02
13
1$
0%
0&
#570000
b11 "
b1111 !
b1110 !
b10 "
06
1=
05
0<
0:
00
0'
#575000
b1010 "
b1000 "
b1100 "
b1010 !
b1011 !
b1101 "
16
0=
15
08
1<
1?
1A
12
1%
#580000
b1001 !
0#
b1 !
b1111 "
b1011 "
b101 !
b1010 "
04
05
18
0<
09
1=
0@
0;
0A
1:
10
02
0%
1'
0B
1A
1>
11
12
03
0$
1%
1&
#585000
b10 "
1#
b11 "
15
0?
14
1;
0:
0A
02
00
0'
0%
1A
0>
01
12
1%
0&
#590000
b100 !
b110 !
b10 !
b1011 "
0#
b1010 "
05
1?
06
19
0=
04
07
1>
11
0/
0(
1&
#595000
b1010 !
b1000 "
b0 "
b1 "
15
08
0?
1@
0;
1:
17
1/
10
1'
1(
0>
01
0&
#600000
b101 "
b1000 !
b1100 !
1#
b100 !
b111 "
b1111 "
b1110 "
09
1=
0@
05
18
1<
1?
14
1B
0A
02
13
1$
0%
#605000
b101 !
b1010 "
b111 !
b1111 !
0<
16
19
1@
1;
07
1>
11
0/
0(
1&
1A
0>
01
12
1%
0&
#610000
0#
b1000 "
b0 "
b1 "
b101 "
04
15
08
1<
0?
0A
1>
0:
00
11
02
0%
1&
0'
#615000
b1110 !
b1100 !
b100 !
1#
b111 "
b110 "
14
05
18
06
09
0@
0;
0B
1A
1:
17
1/
10
12
03
0$
1%
1'
1(
0>
01
0&
#620000
b101 !
b111 !
b1111 !
b100 "
b101 "
15
08
16
19
1@
1;
1B
0A
0:
00
02
13
1$
0%
0'
1>
11
1&
#625000
b1 "
0#
b1110 !
b1100 !
b11 "
b10 "
04
06
09
05
18
0<
0;
0>
1:
07
0/
10
01
0&
1'
0(
0B
1A
1>
11
12
03
0$
1%
1&
#630000
b100 !
1#
b110 !
19
0@
14
1;
0:
17
0A
02
1/
00
0'
1(
0%
1A
0>
01
12
1%
0&
#635000
b1010 "
b1110 "
b1111 "
b1110 !
0#
1@
15
1<
1?
04
1B
1>
11
13
1$
1&
#640000
b1010 !
b1011 !
b1101 "
b1100 "
b11 !
1#
05
08
16
0=
0@
14
07
0A
0>
01
02
0/
0(
0%
0&
#645000
b1 !
b100 "
b101 !
b101 "
15
0?
09
1=
0;
0B
1A
1>
1:
17
1/
10
11
12
03
0$
1%
1&
1'
1(
0>
01
0&
#650000
b1 "
b100 !
b11 "
b10 "
06
05
18
0<
0A
1>
11
02
0%
1&
#655000
0#
b1010 "
b0 !
b1 !
b1000 "
b1001 "
04
16
0=
15
08
1?
1A
07
0>
01
0/
12
1%
0(
0&
#660000
b1001 !
b1011 !
b1 "
b1111 !
b1110 !
b11 "
18
0?
06
19
1=
1@
1;
1>
0:
17
1/
00
11
1&
0'
1(
1B
0A
0>
01
02
13
1$
0%
0&
#665000
b111 "
1#
b110 "
b1111 !
14
16
05
1<
1>
1:
07
0/
10
11
1&
1'
0(
#670000
b1110 "
b1011 !
b1010 "
b1011 "
b1010 !
06
0=
15
0<
1?
#675000
b11 "
b10 "
b1011 !
16
05
0?
0B
1A
12
03
0$
1%
#680000
b1001 !
b1010 "
1?
09
0:
1B
0A
02
13
00
0'
1$
0%
#685000
b1 !
b1000 "
0#
b101 !
b1100 "
b100 "
08
1<
0?
1=
0@
04
0;
17
0B
1A
12
03
1/
1(
0$
1%
0>
01
0&
#690000
b101 "
b111 !
1#
b11 !
b1 "
19
0=
15
0<
14
1;
0A
02
0%
1>
11
1&
#695000
b1 !
b101 "
1<
09
0;
1:
1A
0>
01
12
10
1'
1%
0&
0A
1>
11
02
0%
1&
#700000
b1001 !
b1101 "
b1100 "
0#
b1101 !
b1111 !
05
1?
19
1=
1@
04
1B
1A
0>
01
12
13
1$
1%
0&
#705000
b1110 !
b1110 "
b110 "
b1010 !
b1000 !
18
0?
06
09
0=
0B
1>
07
0/
11
03
0$
1&
0(
#710000
b0 !
b111 "
1#
b1 !
b11 !
15
16
19
0@
14
1;
17
0A
02
1/
1(
0%
1A
0>
01
12
1%
0&
#715000
b101 "
b1101 "
b1011 !
b1100 "
1@
05
08
1?
1B
0:
07
0/
00
13
1$
0'
0(
#720000
b1111 !
0#
b1110 "
b111 !
b1111 "
04
15
18
1=
0@
0A
1>
1:
10
11
02
0%
1&
1'
#725000
b101 !
b111 "
b110 "
05
0?
09
0;
0B
1A
17
1/
12
03
0$
1%
1(
0>
01
0&
#730000
b1 !
b100 "
b1100 "
08
1?
0=
1>
0:
00
11
1&
0'
#735000
b1000 "
b0 !
1#
b1000 !
b1001 "
b1011 "
06
1@
15
18
0<
14
1;
07
1B
0A
0>
01
02
13
0/
0(
1$
0%
0&
1>
11
1&
#740000
b1100 !
b11 "
b111 "
0#
b100 !
b110 "
b100 "
05
08
1<
0?
1=
0@
04
0;
0B
1A
12
03
0$
1%
0>
01
0&
#745000
b110 !
b111 !
b0 "
1#
b1111 !
b1 "
15
0<
16
19
1@
14
1;
17
1>
11
1/
1(
1&
1B
0A
0>
01
02
13
1$
0%
0&
#750000
b101 "
b111 !
0@
1<
0B
1A
1>
11
12
03
0$
1%
1&
#755000
b101 !
0#
b100 "
b1101 !
04
05
09
1@
0;
1B
0A
02
13
1$
0%
0>
01
0&
#760000
b1100 "
b1000 "
b1111 !
19
0<
1?
1>
1:
10
11
1&
1'
#765000
b1110 !
b110 !
b0 "
b100 "
1<
0?
06
0@
0B
1A
07
0>
01
0/
12
03
0$
1%
0(
0&
#770000
b1110 !
b1100 "
1?
1@
1B
13
1$
#775000
b1010 !
b1110 "
1#
b1011 !
b11 !
18
16
0=
0@
14
1;
0B
1>
11
03
0$
1&
1B
0A
0>
01
02
13
1$
0%
0&
#780000
b111 !
b1100 "
0#
b110 !
08
06
1=
04
0;
1>
11
1&
0>
01
0&
#785000
b1101 "
b100 !
b1001 "
b1011 "
1#
09
15
18
0<
14
1;
0:
0B
1A
1>
11
12
03
00
0'
0$
1%
1&
1B
0A
0>
01
02
13
1$
0%
0&
#790000
b11 "
b1100 !
b1110 !
19
1@
0?
1:
10
1'
#795000
b10 "
b0 "
0#
b110 !
b100 !
04
09
0@
05
08
0;
0:
0B
1A
12
03
00
0'
0$
1%
0A
1>
11
02
0%
1&
#800000
b100 "
b1100 "
b1101 "
b1111 "
1#
b1100 !
b1110 !
14
19
1@
15
18
1<
1?
1;
1B
1A
0>
1:
10
01
12
13
1$
1%
0&
1'
1>
11
1&
#805000
b1010 !
b1011 !
b111 "
0#
0?
16
0=
04
0A
0>
01
02
0%
0&
#810000
b110 "
b11 !
b1 !
b101 !
09
1=
0@
05
0;
17
0B
1A
1>
11
12
03
1/
1(
0$
1%
1&
0>
01
0&
#815000
b10 "
b0 "
b100 !
b1000 "
1#
b1100 !
06
1@
08
0<
1?
14
0:
1B
0A
1>
11
02
13
00
0'
1$
0%
1&
#820000
b1000 !
0#
b0 !
0=
0@
04
07
0B
1A
0>
01
12
03
0/
0(
0$
1%
0&
#825000
b1001 "
b10 !
b1011 "
b11 !
b111 !
1#
b1111 !
16
19
1=
1@
15
18
14
1;
1:
17
1B
0A
1>
11
02
13
1/
10
1'
1(
1$
0%
1&
1A
0>
01
12
1%
0&
#830000
b1111 "
b111 "
b101 "
b1110 !
b110 !
06
0@
08
1<
0?
0B
1>
0:
07
0/
00
11
03
0$
1&
0'
0(
#835000
b100 "
b100 !
b1100 "
b101 !
16
09
05
1?
0;
1B
0A
1:
10
02
13
1$
0%
1'
0>
01
0&
#840000
b1 !
0#
b1000 "
b1001 !
b1011 !
b1010 !
04
0<
06
19
0=
1@
#845000
b1010 "
1#
b10 !
b0 !
b1 !
14
16
09
0@
18
1;
0:
0B
1A
12
03
00
0'
0$
1%
1>
11
1&
#850000
b10 "
b110 "
0#
b11 !
04
19
1<
0?
0>
17
1/
01
0&
1(
#855000
b111 "
b1011 !
b1010 !
1#
b1000 !
06
09
1@
15
14
07
1B
0A
02
13
0/
0(
1$
0%
#860000
b1100 !
b101 "
b1 "
b0 "
b100 !
b101 !
0#
b111 !
05
08
0<
16
19
1=
0@
04
0;
1:
17
0B
1A
12
03
1/
10
1'
1(
0$
1%
0A
1>
11
02
0%
1&
#865000
b11 !
b10 "
b110 "
b111 "
b10 !
1#
15
18
1<
06
0=
14
1;
07
0/
0(
1A
0>
01
12
1%
0&
#870000
b1111 "
b0 !
b1101 "
b1 !
0#
16
09
08
1?
04
0;
1B
0A
02
13
1$
0%
0B
1A
1>
11
12
03
0$
1%
1&
#875000
b1001 !
b1001 "
b1000 "
b0 "
b10 "
b1000 !
1#
05
18
0<
0?
06
1@
14
17
0>
01
1/
1(
0&
#880000
b1100 !
b100 !
b110 "
b1110 "
b101 !
1<
1?
16
1=
0@
1;
1B
0A
0:
07
0/
00
02
13
1$
0%
0'
0(
1>
11
1&
#885000
b111 !
b1100 "
0#
b1111 !
b1000 "
b0 "
b1110 !
08
0<
0?
06
19
1@
04
0;
1:
0>
01
10
1'
0&
0B
1A
1>
11
12
03
0$
1%
1&
#890000
b1010 !
b1000 !
b10 "
1#
18
09
0=
14
17
0>
01
1/
1(
0&
#895000
b11 "
b0 !
b111 "
b1111 "
b10 !
b1101 "
19
0@
15
08
1<
1?
1;
1>
0:
07
0/
00
11
1&
0'
0(
1B
0A
0>
01
02
13
1$
0%
0&
#900000
0#
b101 "
b111 "
04
18
0?
0B
1A
17
1/
12
03
0$
1%
1(
#905000
b110 "
b0 !
b1110 "
b1100 "
09
05
08
1?
0;
1B
0A
07
0/
02
13
1$
0%
0(
0B
1A
1>
11
12
03
0$
1%
1&
#910000
b1000 !
1#
b100 "
b110 "
14
18
0?
1@
1:
17
1/
10
1'
1(
#915000
b1100 !
b10 "
b11 "
b100 !
0#
b1011 "
b1001 "
15
08
0<
1?
1=
0@
04
0:
00
0'
#920000
b101 !
b111 !
b11 !
b1101 "
b1011 !
1#
1<
16
19
0=
1@
14
1;
1B
0A
02
13
1$
0%
1A
0>
01
12
1%
0&
#925000
b1100 "
b1111 !
0#
1=
05
04
0;
1:
1>
11
10
1'
1&
0>
01
0&
#930000
b1110 "
b1110 !
b1100 !
b100 !
b1111 "
b0 !
1#
06
09
0=
0@
15
18
14
1;
0:
07
0B
1>
11
03
0/
00
0'
0(
0$
1&
1B
0A
0>
01
02
13
1$
0%
0&
#935000
b111 "
b11 "
b10 !
b10 "
b110 !
0#
19
1=
05
0<
0?
04
0B
1A
12
03
0$
1%
#940000
b0 "
b111 !
b100 "
b11 !
16
0=
08
1<
0;
1:
17
1/
10
1'
1(
0A
1>
11
02
0%
1&
#945000
b1011 !
b1100 "
b1101 "
b1111 "
15
18
1?
1@
1;
1B
07
0/
13
1$
0(
1A
0>
01
12
1%
0&
#950000
b1001 !
1#
b1101 !
b111 "
b101 "
14
08
0?
09
1=
0;
0A
1>
17
1/
11
02
0%
1&
1(
0>
01
0&
#955000
b1 "
b101 !
b0 "
b1 !
b1000 "
0=
0@
05
0<
1?
0B
1A
07
0/
12
03
0$
1%
0(
#960000
b0 !
b10 !
0#
b1010 "
b1110 "
b110 "
04
18
1<
0?
06
19
1;
0:
0A
1>
11
02
00
0'
0%
1&
1A
0>
01
12
1%
0&
#965000
b110 !
b10 "
b1010 "
0<
1?
1=
1B
0A
02
13
1$
0%
#970000
b1110 !
b1011 "
1#
b1001 "
15
08
1@
14
1A
12
1%
#975000
b1111 !
b1011 !
0#
16
0=
04
0A
1>
11
02
0%
1&
#980000
b1 "
0?
0B
1A
12
03
0$
1%
#985000
b101 "
b11 !
b10 !
b110 !
1#
b1101 "
06
1=
0@
1<
1?
14
1B
0A
02
13
1$
0%
#990000
b1100 "
0#
b100 "
05
0?
04
0;
1:
0B
1A
12
03
10
1'
0$
1%
0>
01
0&
#995000
b110 "
b1110 !
1#
b1110 "
1@
18
1?
14
1;
0:
17
1B
13
1/
00
0'
1(
1$
1>
11
1&
