Atividades/DPCM_saturation/simulation/qsim/dpcm_saturation.msim.vcd
$comment
	File created using the following command:
		vcd file dpcm_saturation.msim.vcd -direction
$end
$date
	Fri Dec 14 14:04:10 2018
$end
$version
	ModelSim Version 10.5b
$end
$timescale
	1ps
$end

$scope module dpcm_saturation_vlg_vec_tst $end
$var reg 1 ! clk $end
$var reg 8 " entrada [7:0] $end
$var reg 1 # reset $end
$var wire 1 $ saida [7] $end
$var wire 1 % saida [6] $end
$var wire 1 & saida [5] $end
$var wire 1 ' saida [4] $end
$var wire 1 ( saida [3] $end
$var wire 1 ) saida [2] $end
$var wire 1 * saida [1] $end
$var wire 1 + saida [0] $end

$scope module i1 $end
$var wire 1 , gnd $end
$var wire 1 - vcc $end
$var wire 1 . unknown $end
$var tri1 1 / devclrn $end
$var tri1 1 0 devpor $end
$var tri1 1 1 devoe $end
$var wire 1 2 saida[0]~output_o $end
$var wire 1 3 saida[1]~output_o $end
$var wire 1 4 saida[2]~output_o $end
$var wire 1 5 saida[3]~output_o $end
$var wire 1 6 saida[4]~output_o $end
$var wire 1 7 saida[5]~output_o $end
$var wire 1 8 saida[6]~output_o $end
$var wire 1 9 saida[7]~output_o $end
$var wire 1 : clk~input_o $end
$var wire 1 ; entrada[0]~input_o $end
$var wire 1 < reset~input_o $end
$var wire 1 = entrada[5]~input_o $end
$var wire 1 > entrada[2]~input_o $end
$var wire 1 ? entrada[1]~input_o $end
$var wire 1 @ Equal0~0_combout $end
$var wire 1 A entrada[3]~input_o $end
$var wire 1 B entrada[4]~input_o $end
$var wire 1 C Equal0~1_combout $end
$var wire 1 D entrada[6]~input_o $end
$var wire 1 E entrada[7]~input_o $end
$var wire 1 F Equal0~2_combout $end
$var wire 1 G Equal0~3_combout $end
$var wire 1 H Add0~1_sumout $end
$var wire 1 I Add0~2 $end
$var wire 1 J Add0~3 $end
$var wire 1 K Add0~26 $end
$var wire 1 L Add0~27 $end
$var wire 1 M Add0~30 $end
$var wire 1 N Add0~31 $end
$var wire 1 O Add0~18 $end
$var wire 1 P Add0~19 $end
$var wire 1 Q Add0~22 $end
$var wire 1 R Add0~23 $end
$var wire 1 S Add0~5_sumout $end
$var wire 1 T Add0~6 $end
$var wire 1 U Add0~7 $end
$var wire 1 V Add0~9_sumout $end
$var wire 1 W Add0~10 $end
$var wire 1 X Add0~11 $end
$var wire 1 Y Add0~13_sumout $end
$var wire 1 Z Add0~17_sumout $end
$var wire 1 [ Add0~21_sumout $end
$var wire 1 \ s|saida~0_combout $end
$var wire 1 ] Add0~25_sumout $end
$var wire 1 ^ s|saida~1_combout $end
$var wire 1 _ Add0~29_sumout $end
$var wire 1 ` s|saida~2_combout $end
$var wire 1 a s|saida~3_combout $end
$var wire 1 b entrada_anterior [7] $end
$var wire 1 c entrada_anterior [6] $end
$var wire 1 d entrada_anterior [5] $end
$var wire 1 e entrada_anterior [4] $end
$var wire 1 f entrada_anterior [3] $end
$var wire 1 g entrada_anterior [2] $end
$var wire 1 h entrada_anterior [1] $end
$var wire 1 i entrada_anterior [0] $end
$var wire 1 j s|saida [7] $end
$var wire 1 k s|saida [6] $end
$var wire 1 l s|saida [5] $end
$var wire 1 m s|saida [4] $end
$var wire 1 n s|saida [3] $end
$var wire 1 o s|saida [2] $end
$var wire 1 p s|saida [1] $end
$var wire 1 q s|saida [0] $end
$upscope $end
$upscope $end
$enddefinitions $end
#0
$dumpvars
0!
b1111101 "
0#
0+
0*
0)
0(
0'
0&
0%
0$
0,
1-
x.
1/
10
11
02
03
04
05
06
07
08
09
0:
1;
0<
1=
1>
0?
0@
1A
1B
0C
1D
0E
0F
1G
1H
0I
1J
1K
0L
0M
1N
0O
1P
0Q
1R
1S
0T
1U
1V
0W
1X
0Y
1Z
1[
0\
0]
0^
1_
0`
1a
0i
0h
0g
0f
0e
0d
0c
0b
0q
0p
0o
0n
0m
0l
0k
0j
$end
#10000
1!
1:
1i
1c
1e
1f
1g
1d
1k
1l
1m
1n
15
16
17
18
1T
0U
1M
0_
0N
1@
1O
0Z
0P
1C
1Q
0R
1W
0X
1F
0H
1%
1&
1'
1(
0S
0[
0V
0G
0a
#20000
0!
0:
#30000
1!
1:
0k
0l
0m
0n
05
06
07
08
0%
0&
0'
0(
#40000
0!
0:
#50000
b111101 "
b11101 "
b1101 "
b101 "
b1 "
b11 "
b10 "
1!
0;
1?
0>
0A
0B
0=
0D
1:
0W
0F
0T
1G
0Q
0C
0O
1Z
0M
1_
0@
0K
1]
1L
1H
0J
1V
1S
1[
0Z
0]
1Y
0V
0S
0[
1a
#60000
1#
0!
1<
0:
0d
0g
0f
0e
0c
0i
0H
1J
1F
1C
1Z
1M
0_
1V
1[
1S
1]
1O
0Z
1Q
0[
0a
1^
1T
0S
1W
0V
0Y
1a
0^
0a
1^
#70000
1!
1:
#80000
0!
0:
#90000
1!
1:
#100000
b1000010 "
b1100010 "
b1100011 "
0!
1;
1=
1D
0:
0W
1X
0F
0T
1U
1H
1V
1S
1\
#110000
1!
1:
#120000
0!
0:
#130000
1!
1:
#140000
0!
0:
#150000
b1100111 "
b1000111 "
1!
1>
0=
1:
1T
0U
0M
1_
1N
0S
1`
#160000
0!
0:
#170000
1!
1:
#180000
0!
0:
#190000
1!
1:
#200000
b11000111 "
b10000111 "
b10000011 "
0!
0>
0D
1E
0:
1W
0X
1M
0_
0N
1Y
0V
0`
1a
0^
0\
#210000
1!
1:
#220000
0#
0!
0<
0:
#230000
1!
1:
1i
1b
1h
1j
1n
15
19
1K
0]
0L
1@
1F
0H
1$
1(
0Y
0G
0a
#240000
0!
0:
#250000
b10010011 "
b10010001 "
b10010000 "
b10000 "
b10100 "
1!
0;
0?
1>
1B
0E
1:
0F
0Q
1R
0C
0M
1_
1N
0@
0K
1]
1H
0J
1Y
1[
0_
0]
1G
1\
1^
1`
0^
0`
0j
0n
05
09
0$
0(
#260000
0!
0:
#270000
1!
1:
0i
0b
1e
0h
1g
1j
1m
1q
12
16
19
1_
0N
1@
1]
1Q
0R
1C
1F
0H
1J
1$
1'
1+
0[
0Y
0O
1Z
1K
0]
0G
0\
1^
1`
0Q
1M
0_
1[
0^
1a
0T
1O
0Z
1S
0`
0W
1Q
1V
0[
0a
1T
1Y
0S
1W
0V
0Y
1a
0a
#280000
0!
0:
#290000
1!
1:
0j
0m
0q
02
06
09
0$
0'
0+
#300000
b110100 "
b110110 "
b110010 "
0!
1?
0>
1=
0:
0T
1U
1G
0M
1_
0@
0K
1]
1L
1S
0O
1Z
1^
1`
0Q
1[
1a
0S
#310000
1!
1:
1h
0g
1d
1m
1n
1o
1p
13
14
15
16
0U
1M
0_
1@
1K
0]
0L
1'
1(
1)
1*
1S
0W
1O
0Z
0G
1V
0^
0`
1Q
1Y
0[
0a
1T
0S
1W
0V
0Y
1a
0a
#320000
0!
0:
#330000
1!
1:
0m
0n
0o
0p
03
04
05
06
0'
0(
0)
0*
#340000
0!
0:
#350000
b1110010 "
b1100010 "
b11100010 "
1!
0B
1D
1E
1:
0F
0W
1X
0Q
0C
1Y
1V
1[
0T
1G
1S
0V
#360000
0!
0:
#370000
1!
1:
1b
1c
0e
1j
1l
1m
16
17
19
1Q
1C
0X
1F
1$
1&
1'
0[
1V
0Y
1T
0G
0S
1Y
1W
0V
0Y
1a
0a
#380000
0!
0:
#390000
1!
1:
0j
0l
0m
06
07
09
0$
0&
0'
#400000
b11101010 "
b11001010 "
b11001000 "
b11011000 "
0!
0?
1A
1B
0=
0:
0T
1G
0Q
1R
0C
0O
1Z
1P
0K
1]
0@
1S
1[
0W
0M
1_
1V
1^
1a
0Z
1Y
0^
0a
1`
1^
#410000
1!
1:
1e
1f
0h
0d
1j
1k
1l
1m
1o
1p
13
14
16
17
18
19
1T
1K
0]
1@
1Z
0P
1C
1Q
0R
1$
1%
1&
1'
1)
1*
0S
0[
1W
1M
0_
0Q
0G
0V
1[
1a
0^
1O
0Z
0T
0Y
1S
0`
1Q
0W
0[
1V
0a
1T
0S
1Y
1W
0V
0Y
1a
0a
#420000
0!
0:
#430000
1!
1:
0j
0k
0l
0m
0o
0p
03
04
06
07
08
09
0$
0%
0&
0'
0)
0*
#440000
0!
0:
#450000
b11011100 "
b11010100 "
b11110100 "
b11110110 "
1!
1?
1>
0A
1=
1:
0T
1U
1G
0O
1Z
0C
0M
1_
1N
0@
0K
1]
1L
1S
0Q
1[
1^
1`
1a
0S
#460000
0!
0:
#470000
1!
1:
0f
1h
1g
1d
1m
1n
1o
1p
13
14
15
16
0U
1M
0_
0N
1@
1K
0]
0L
1O
0Z
1C
1'
1(
1)
1*
1S
0W
1Q
0G
1V
0[
0a
0`
0^
1T
1Y
0S
1W
0V
0Y
1a
0a
#480000
0!
0:
#490000
1!
1:
0m
0n
0o
0p
03
04
05
06
0'
0(
0)
0*
#500000
b11110111 "
b10110111 "
b110111 "
b110011 "
b111011 "
b111001 "
0!
1;
0?
0>
1A
0D
0E
0:
0F
0W
0O
1Z
1P
0C
0M
1_
0@
0K
1]
1H
1Y
1V
0Z
0_
1G
0Y
1\
1^
1`
1a
0`
0a
#510000
1!
1:
1i
0b
0c
1f
0h
0g
1k
1p
1q
12
13
18
1_
1@
1K
0]
1Z
0P
1C
1W
1F
0H
1%
1*
1+
0V
1Y
1M
0_
0Q
0G
1[
0Y
0\
1a
1`
0^
1O
0Z
0T
1S
0`
1Q
0W
0[
1V
0a
1T
0S
1Y
1W
0V
0Y
1a
0a
#520000
0!
0:
#530000
1!
1:
0k
0p
0q
02
03
08
0%
0*
0+
#540000
0!
0:
#550000
b11001 "
b11000 "
b10011000 "
b10011010 "
1!
0;
1?
0=
1E
1:
0F
0T
1G
0K
1]
1L
0@
1H
0J
1Y
1S
0W
0]
1V
1\
1^
0Y
0^
#560000
0!
0:
#570000
1!
1:
0i
1b
1h
0d
1k
1l
1q
12
17
18
1T
1]
0L
1@
1F
0H
1J
1%
1&
1+
0S
1Y
1W
0M
1_
1K
0]
0G
0V
0\
1^
0O
1Z
1M
0_
0Y
0^
1a
0Q
1O
0Z
1[
0T
1Q
1S
0[
0a
0W
1T
1V
0S
1W
1Y
0V
0Y
1a
0a
#580000
0!
0:
#590000
1!
1:
0k
0l
0q
02
07
08
0%
0&
0+
#600000
b10001010 "
b11001010 "
b11001110 "
b11000110 "
b11100110 "
b11100111 "
b1100111 "
0!
1;
1>
0A
0B
1=
1D
0E
0:
0F
0W
1X
0T
1U
1G
0Q
0C
0O
1Z
0M
1_
1N
0@
1H
1Y
1V
1S
1[
0S
0[
1\
1`
1a
#610000
1!
1:
1i
0b
1c
0e
0f
1g
1d
1j
1k
1n
1o
1q
12
14
15
18
19
0U
1M
0_
0N
1@
1O
0Z
1C
1W
0X
1F
0H
1$
1%
1(
1)
1+
1S
1[
0V
0Y
0W
1Q
0G
1V
0[
0\
0a
0`
1T
1Y
0S
1W
0V
0Y
1a
0a
#620000
0!
0:
#630000
1!
1:
0j
0k
0n
0o
0q
02
04
05
08
09
0$
0%
0(
0)
0+
#640000
0!
0:
#650000
b1110111 "
b1111111 "
1!
1A
1B
1:
0Q
1R
0C
0O
1Z
1P
1[
1G
1a
#660000
0!
0:
#670000
1!
1:
1e
1f
1m
1n
15
16
1O
0Z
0P
1C
1Q
0R
1'
1(
0[
0G
0a
#680000
0!
0:
#690000
1!
1:
0m
0n
05
06
0'
0(
#700000
b111111 "
b111011 "
b11011 "
b10011011 "
b10010011 "
0!
0>
0A
0=
0D
1E
0:
0F
0W
0T
1G
0O
1Z
0C
0M
1_
0@
1Y
1V
1S
0Q
0Z
0Y
0V
1[
1`
1a
0S
0a
#710000
1!
1:
1b
0c
0f
0g
0d
1m
1o
14
16
1M
0_
1@
1Z
1C
1F
1'
1)
1S
1V
1Y
1O
0Z
0G
1a
0`
1Q
0[
0a
1T
0S
1W
0V
0Y
1a
0a
#720000
0!
0:
#730000
1!
1:
0m
0o
04
06
0'
0)
#740000
0!
0:
#750000
b10010001 "
b10000001 "
b10000101 "
b10100101 "
b10101101 "
1!
0?
1>
1A
0B
1=
1:
0T
1U
1G
0Q
0C
0O
1Z
1P
0M
1_
1N
0@
0K
1]
1S
1[
0_
0S
1^
1`
1a
0`
#760000
0!
0:
#770000
1!
1:
0e
1f
0h
1g
1d
1m
1n
1p
13
15
16
0U
1_
0N
1@
1K
0]
1O
0Z
0P
1C
1Q
1'
1(
1*
1S
0[
0W
0O
1Z
1M
0_
1T
0G
1V
0S
0a
1`
0^
0Q
1O
0Z
1W
1Y
1[
0V
0`
1a
0T
1Q
1S
0[
0Y
0a
0W
1T
1V
0S
1W
1Y
0V
0Y
1a
0a
#780000
0!
0:
#790000
1!
1:
0m
0n
0p
03
05
06
0'
0(
0*
#800000
b10101100 "
b10111100 "
b10011100 "
0!
0;
1B
0=
0:
0T
1G
0Q
1R
0C
1H
0J
0@
1S
1[
0W
0K
1]
1V
1\
0M
1_
1Y
1^
0O
1Z
1`
0[
1a
#810000
1!
1:
0i
1e
0d
1j
1k
1l
1n
1o
1p
1q
12
13
14
15
17
18
19
1T
0R
1C
0H
1J
1@
1$
1%
1&
1(
1)
1*
1+
0S
1[
1W
0T
1K
0]
0G
0V
1S
0\
0W
1M
0_
0Y
1V
0^
1O
0Z
1Y
0`
1Q
0[
0a
1T
0S
1W
0V
0Y
1a
0a
#820000
0!
0:
#830000
1!
1:
0j
0k
0l
0n
0o
0p
0q
02
03
04
05
07
08
09
0$
0%
0&
0(
0)
0*
0+
#840000
0!
0:
#850000
b11100 "
b11110 "
b10110 "
b110 "
1!
1?
0A
0B
0E
1:
0F
0Q
0C
0O
1Z
0K
1]
1L
0@
1Y
1[
0T
1G
1S
0[
1^
1a
0W
1V
0Y
#860000
0!
0:
#870000
1!
1:
0b
0e
0f
1h
1k
1l
1n
1p
13
15
17
18
1K
0]
0L
1@
1O
0Z
1C
1F
1%
1&
1(
1*
1[
1Y
1Q
0G
0[
0a
0^
1T
0S
1W
0V
0Y
1a
0a
#880000
0!
0:
#890000
1!
1:
0k
0l
0n
0p
03
05
07
08
0%
0&
0(
0*
#900000
b1000110 "
b11000110 "
b11000100 "
0!
0?
1D
1E
0:
0F
0W
1X
0K
1]
0@
1Y
1V
0M
1_
1G
1^
0O
1Z
1`
0Q
1[
1a
0T
1S
0V
#910000
1!
1:
1b
1c
0h
1j
1l
1m
1n
1o
1p
13
14
15
16
17
19
1K
0]
1@
0X
1F
1$
1&
1'
1(
1)
1*
1V
0Y
1M
0_
0G
1Y
0^
0`
1O
0Z
1Q
0[
0a
1T
0S
1W
0V
0Y
1a
0a
#920000
0!
0:
#930000
1!
1:
0j
0l
0m
0n
0o
0p
03
04
05
06
07
09
0$
0&
0'
0(
0)
0*
#940000
0!
0:
#950000
b11000101 "
b11100101 "
b10100101 "
1!
1;
1=
0D
1:
0W
0F
0T
1U
1G
1H
0@
1V
1S
1Y
1\
#960000
0!
0:
#970000
1!
1:
1i
0c
1d
1j
1k
1l
1q
12
17
18
19
1T
0U
1W
1F
0H
1@
1$
1%
1&
1+
0S
0V
0G
0Y
0\
1a
0a
#980000
0!
0:
#990000
1!
1:
0j
0k
0l
0q
02
07
08
09
0$
0%
0&
0+
