Implementações/SomadorCompleto/simulation/qsim/somador_completo.msim.vcd
$comment
	File created using the following command:
		vcd file somador_completo.msim.vcd -direction
$end
$date
	Fri Sep 14 14:33:10 2018
$end
$version
	ModelSim Version 10.5b
$end
$timescale
	1ps
$end

$scope module somador_completo_vlg_vec_tst $end
$var reg 1 ! a $end
$var reg 1 " b $end
$var reg 1 # cin $end
$var wire 1 $ cout $end
$var wire 1 % s $end

$scope module i1 $end
$var wire 1 & gnd $end
$var wire 1 ' vcc $end
$var wire 1 ( unknown $end
$var tri1 1 ) devclrn $end
$var tri1 1 * devpor $end
$var tri1 1 + devoe $end
$var wire 1 , s~output_o $end
$var wire 1 - cout~output_o $end
$var wire 1 . cin~input_o $end
$var wire 1 / a~input_o $end
$var wire 1 0 b~input_o $end
$var wire 1 1 MS2|s~combout $end
$var wire 1 2 cout~0_combout $end
$upscope $end
$upscope $end
$enddefinitions $end
#0
$dumpvars
0!
0"
0#
0$
0%
0&
1'
x(
1)
1*
1+
0,
0-
0.
0/
00
01
02
$end
#140000
1!
1/
11
1,
1%
#300000
0!
0/
01
0,
0%
#320000
1"
10
11
1,
1%
#480000
0"
00
01
0,
0%
#500000
1#
1.
11
1,
1%
#640000
1!
1"
0#
1/
10
0.
12
01
0,
1-
1$
0%
#740000
0!
0"
0/
00
02
0-
0$
#780000
1!
1/
11
1,
1%
#800000
1#
1.
12
01
0,
1-
1$
0%
#880000
0!
0#
0/
0.
02
0-
0$
#900000
1"
1!
1#
10
1/
1.
12
11
1,
1-
1$
1%
