Materiais Didáticos/Projeto SD/meio_subtrator/simulation/qsim/meio_subtrator.msim.vcd
$comment
	File created using the following command:
		vcd file meio_subtrator.msim.vcd -direction
$end
$date
	Fri Sep 14 14:46:49 2018
$end
$version
	ModelSim Version 10.5b
$end
$timescale
	1ps
$end

$scope module meio_subtrator_vlg_vec_tst $end
$var reg 1 ! a $end
$var reg 1 " b $end
$var wire 1 # c $end
$var wire 1 $ s $end

$scope module i1 $end
$var wire 1 % gnd $end
$var wire 1 & vcc $end
$var wire 1 ' unknown $end
$var tri1 1 ( devclrn $end
$var tri1 1 ) devpor $end
$var tri1 1 * devoe $end
$var wire 1 + s~output_o $end
$var wire 1 , c~output_o $end
$var wire 1 - a~input_o $end
$var wire 1 . b~input_o $end
$var wire 1 / s~0_combout $end
$var wire 1 0 c~0_combout $end
$upscope $end
$upscope $end
$enddefinitions $end
#0
$dumpvars
0!
0"
0#
0$
0%
1&
x'
1(
1)
1*
0+
0,
0-
0.
0/
00
$end
#100000
1!
1"
1-
1.
#180000
0!
0"
0-
0.
#260000
1!
1-
1/
1+
1$
#330000
0!
0-
0/
0+
0$
#340000
1"
1.
10
1/
1+
1,
1#
1$
#430000
0"
0.
00
0/
0+
0,
0#
0$
#500000
1!
1-
1/
1+
1$
#580000
0!
0-
0/
0+
0$
