Atividades/Saturation/simulation/qsim/saturation.msim.vcd
$comment
	File created using the following command:
		vcd file saturation.msim.vcd -direction
$end
$date
	Fri Dec  7 15:02:35 2018
$end
$version
	ModelSim Version 10.5b
$end
$timescale
	1ps
$end

$scope module saturation_vlg_vec_tst $end
$var reg 1 ! clk $end
$var reg 9 " entrada [8:0] $end
$var reg 1 # reset $end
$var wire 1 $ saida [7] $end
$var wire 1 % saida [6] $end
$var wire 1 & saida [5] $end
$var wire 1 ' saida [4] $end
$var wire 1 ( saida [3] $end
$var wire 1 ) saida [2] $end
$var wire 1 * saida [1] $end
$var wire 1 + saida [0] $end

$scope module i1 $end
$var wire 1 , gnd $end
$var wire 1 - vcc $end
$var wire 1 . unknown $end
$var tri1 1 / devclrn $end
$var tri1 1 0 devpor $end
$var tri1 1 1 devoe $end
$var wire 1 2 saida[0]~output_o $end
$var wire 1 3 saida[1]~output_o $end
$var wire 1 4 saida[2]~output_o $end
$var wire 1 5 saida[3]~output_o $end
$var wire 1 6 saida[4]~output_o $end
$var wire 1 7 saida[5]~output_o $end
$var wire 1 8 saida[6]~output_o $end
$var wire 1 9 saida[7]~output_o $end
$var wire 1 : clk~input_o $end
$var wire 1 ; entrada[3]~input_o $end
$var wire 1 < entrada[4]~input_o $end
$var wire 1 = entrada[5]~input_o $end
$var wire 1 > entrada[6]~input_o $end
$var wire 1 ? saida[0]~0_combout $end
$var wire 1 @ LessThan0~1_combout $end
$var wire 1 A entrada[7]~input_o $end
$var wire 1 B entrada[8]~input_o $end
$var wire 1 C entrada[0]~input_o $end
$var wire 1 D saida~7_combout $end
$var wire 1 E reset~input_o $end
$var wire 1 F saida[0]~reg0_q $end
$var wire 1 G entrada[1]~input_o $end
$var wire 1 H saida~6_combout $end
$var wire 1 I saida[1]~reg0_q $end
$var wire 1 J entrada[2]~input_o $end
$var wire 1 K saida~5_combout $end
$var wire 1 L saida[2]~reg0_q $end
$var wire 1 M LessThan0~0_combout $end
$var wire 1 N saida~1_combout $end
$var wire 1 O saida[3]~reg0_q $end
$var wire 1 P saida~4_combout $end
$var wire 1 Q saida[4]~reg0_q $end
$var wire 1 R saida~3_combout $end
$var wire 1 S saida[5]~reg0_q $end
$var wire 1 T saida~2_combout $end
$var wire 1 U saida[6]~reg0_q $end
$var wire 1 V saida[7]~reg0_q $end
$upscope $end
$upscope $end
$enddefinitions $end
#0
$dumpvars
0!
b101011 "
0#
0+
0*
0)
0(
0'
0&
0%
0$
0,
1-
x.
1/
10
11
02
03
04
05
06
07
08
09
0:
1;
0<
1=
0>
0?
0@
0A
0B
1C
1D
0E
0F
1G
1H
0I
0J
0K
0L
0M
1N
0O
0P
0Q
1R
0S
0T
0U
0V
$end
#5000
1!
1:
1S
1O
1I
1F
12
13
15
17
1&
1(
1*
1+
#10000
0!
0:
#15000
1!
1:
#20000
0!
0:
#25000
1!
1:
#30000
1#
0!
1E
0:
0F
0I
0O
0S
07
05
03
02
0+
0*
0(
0&
#35000
1!
1:
#40000
0!
0:
#45000
1!
1:
#50000
b100101011 "
b110101011 "
b110101111 "
b110101110 "
0!
0C
1J
1A
1B
0:
1K
0D
#55000
1!
1:
#60000
0!
0:
#65000
1!
1:
#70000
0!
0:
#75000
1!
1:
#80000
0!
0:
#85000
1!
1:
#90000
0!
0:
#95000
1!
1:
#100000
b111101110 "
b111111110 "
b111110110 "
b111110100 "
b11110100 "
b11110000 "
0!
0G
0J
0;
1<
1>
0B
0:
1M
1T
1P
0K
0H
#105000
1!
1:
#110000
0!
0:
#115000
1!
1:
#120000
0#
0!
0E
0:
#125000
1!
1:
1U
1S
1Q
1O
15
16
17
18
1%
1&
1'
1(
#130000
0!
0:
#135000
1!
1:
#140000
0!
0:
#145000
1!
1:
#150000
b11010000 "
b1010000 "
b1011000 "
b101011000 "
0!
1;
0=
0A
1B
0:
0T
0R
0P
#155000
1!
1:
1V
0U
0S
0Q
06
07
08
19
1$
0%
0&
0'
#160000
0!
0:
#165000
1!
1:
#170000
0!
0:
#175000
1!
1:
#180000
0!
0:
#185000
1!
1:
#190000
0!
0:
#195000
1!
1:
#200000
b100011000 "
b100001000 "
b100001010 "
b100001110 "
b100101110 "
b110101110 "
b110100110 "
b10100110 "
0!
1G
1J
0;
0<
1=
0>
1A
0B
0:
0M
1T
1R
1P
#205000
1!
1:
0V
1U
1S
1Q
16
17
18
09
0$
1%
1&
1'
#210000
0!
0:
#215000
1!
1:
#220000
0!
0:
#225000
1!
1:
#230000
0!
0:
#235000
1!
1:
#240000
0!
0:
#245000
1!
1:
#250000
b10110110 "
b10110100 "
b10110000 "
b10111000 "
0!
0G
0J
1;
1<
0:
1M
#255000
1!
1:
#260000
0!
0:
#265000
1!
1:
#270000
0!
0:
#275000
1!
1:
#280000
0!
0:
#285000
1!
1:
#290000
0!
0:
#295000
1!
1:
#300000
b10111001 "
b11111001 "
b1111001 "
b101111001 "
b101101001 "
b101101011 "
b101101111 "
0!
1C
1G
1J
0<
1>
0A
1B
0:
0M
0T
0R
0P
#305000
1!
1:
1V
0U
0S
0Q
06
07
08
19
1$
0%
0&
0'
#310000
0!
0:
#315000
1!
1:
#320000
0!
0:
#325000
1!
1:
#330000
0!
0:
#335000
1!
1:
#340000
0!
0:
#345000
1!
1:
#350000
b101001111 "
b101000111 "
b111000111 "
b11000111 "
b11000011 "
0!
0J
0;
0=
1A
0B
0:
1T
1R
1P
#355000
1!
1:
0V
1U
1S
1Q
16
17
18
09
0$
1%
1&
1'
#360000
0!
0:
#365000
1!
1:
#370000
0!
0:
#375000
1!
1:
#380000
0!
0:
#385000
1!
1:
#390000
0!
0:
#395000
1!
1:
#400000
b11000010 "
b11000000 "
b11100000 "
b11101000 "
b1101000 "
b1101100 "
0!
0C
0G
1J
1;
1=
0A
0:
0P
1K
#405000
1!
1:
0Q
1L
14
06
0'
1)
#410000
0!
0:
#415000
1!
1:
#420000
0!
0:
#425000
1!
1:
#430000
0!
0:
#435000
1!
1:
#440000
0!
0:
#445000
1!
1:
#450000
b101101100 "
b101101101 "
b101101111 "
b101001111 "
b101000111 "
0!
1C
1G
0;
0=
1B
0:
0R
0T
0K
#455000
1!
1:
1V
0U
0S
0L
04
07
08
19
1$
0%
0&
0)
#460000
0!
0:
#465000
1!
1:
#470000
0!
0:
#475000
1!
1:
#480000
0!
0:
#485000
1!
1:
#490000
0!
0:
#495000
1!
1:
#500000
b111000111 "
b111000110 "
b111000100 "
b111100100 "
0!
0C
0G
1=
1A
0:
1T
1R
0N
1K
#505000
1!
1:
1U
1S
0O
1L
14
05
17
18
1%
1&
0(
1)
#510000
0!
0:
#515000
1!
1:
#520000
0!
0:
#525000
1!
1:
#530000
0!
0:
#535000
1!
1:
#540000
0!
0:
#545000
1!
1:
#550000
b110100100 "
b110100000 "
b10100000 "
b100000 "
b100001 "
0!
1C
0J
0>
0A
0B
0:
0T
0K
1D
#555000
1!
1:
0V
0U
0L
1F
12
04
08
09
0$
0%
0)
1+
#560000
0!
0:
#565000
1!
1:
#570000
0!
0:
#575000
1!
1:
#580000
0!
0:
#585000
1!
1:
#590000
0!
0:
#595000
1!
1:
#600000
b110001 "
b1110001 "
b101110001 "
b111110001 "
b111110000 "
0!
0C
1<
1>
1A
1B
0:
1M
1T
1P
0D
#605000
1!
1:
1V
1U
1Q
0F
02
16
18
19
1$
1%
1'
0+
#610000
0!
0:
#615000
1!
1:
#620000
0!
0:
#625000
1!
1:
#630000
0!
0:
#635000
1!
1:
#640000
0!
0:
#645000
1!
1:
#650000
b111110010 "
b110110010 "
b10110010 "
b10110011 "
0!
1C
1G
0>
0B
0:
0M
1N
#655000
1!
1:
0V
1O
15
09
0$
1(
#660000
0!
0:
#665000
1!
1:
#670000
0!
0:
#675000
1!
1:
#680000
0!
0:
#685000
1!
1:
#690000
0!
0:
#695000
1!
1:
#700000
b10111011 "
b10111001 "
b11111001 "
0!
0G
1;
1>
0:
1@
#705000
1!
1:
#710000
0!
0:
#715000
1!
1:
#720000
0!
0:
#725000
1!
1:
#730000
0!
0:
#735000
1!
1:
#740000
0!
0:
#745000
1!
1:
#750000
b1111001 "
b1110001 "
0!
0;
0A
0:
0@
0N
1D
#755000
1!
1:
0O
1F
12
05
0(
1+
#760000
0!
0:
#765000
1!
1:
#770000
0!
0:
#775000
1!
1:
#780000
0!
0:
#785000
1!
1:
#790000
0!
0:
#795000
1!
1:
#800000
b1110011 "
b11110011 "
0!
1G
1A
0:
1N
0D
#805000
1!
1:
1O
0F
02
15
1(
0+
#810000
0!
0:
#815000
1!
1:
#820000
0!
0:
#825000
1!
1:
#830000
0!
0:
#835000
1!
1:
#840000
0!
0:
#845000
1!
1:
#850000
b11110111 "
b11111111 "
b11111101 "
0!
0G
1J
1;
0:
1@
#855000
1!
1:
#860000
0!
0:
#865000
1!
1:
#870000
0!
0:
#875000
1!
1:
#880000
0!
0:
#885000
1!
1:
#890000
0!
0:
#895000
1!
1:
#900000
b11101101 "
b111101101 "
b110101101 "
b100101101 "
b100100101 "
0!
0;
0<
0>
0A
1B
0:
0@
0T
0R
0P
#905000
1!
1:
1V
0U
0S
0Q
06
07
08
19
1$
0%
0&
0'
#910000
0!
0:
#915000
1!
1:
#920000
0!
0:
#925000
1!
1:
#930000
0!
0:
#935000
1!
1:
#940000
0!
0:
#945000
1!
1:
#950000
b100100001 "
b110100001 "
0!
0J
1A
0:
1R
0N
1D
#955000
1!
1:
1S
0O
1F
12
05
17
1&
0(
1+
#960000
0!
0:
#965000
1!
1:
#970000
0!
0:
#975000
1!
1:
#980000
0!
0:
#985000
1!
1:
#990000
0!
0:
#995000
1!
1:
