Atividades/Decode_7seg/simulation/qsim/decode7seg.msim.vcd
$comment
	File created using the following command:
		vcd file decode7seg.msim.vcd -direction
$end
$date
	Sun Nov 04 14:10:58 2018
$end
$version
	ModelSim Version 10.5b
$end
$timescale
	1ps
$end

$scope module decode7seg_vlg_vec_tst $end
$var reg 4 ! entrada [3:0] $end
$var wire 1 " saida [6] $end
$var wire 1 # saida [5] $end
$var wire 1 $ saida [4] $end
$var wire 1 % saida [3] $end
$var wire 1 & saida [2] $end
$var wire 1 ' saida [1] $end
$var wire 1 ( saida [0] $end

$scope module i1 $end
$var wire 1 ) gnd $end
$var wire 1 * vcc $end
$var wire 1 + unknown $end
$var tri1 1 , devclrn $end
$var tri1 1 - devpor $end
$var tri1 1 . devoe $end
$var wire 1 / saida[0]~output_o $end
$var wire 1 0 saida[1]~output_o $end
$var wire 1 1 saida[2]~output_o $end
$var wire 1 2 saida[3]~output_o $end
$var wire 1 3 saida[4]~output_o $end
$var wire 1 4 saida[5]~output_o $end
$var wire 1 5 saida[6]~output_o $end
$var wire 1 6 entrada[0]~input_o $end
$var wire 1 7 entrada[1]~input_o $end
$var wire 1 8 entrada[2]~input_o $end
$var wire 1 9 entrada[3]~input_o $end
$var wire 1 : WideOr6~0_combout $end
$var wire 1 ; WideOr5~0_combout $end
$var wire 1 < WideOr4~0_combout $end
$var wire 1 = WideOr3~0_combout $end
$var wire 1 > WideOr2~0_combout $end
$var wire 1 ? WideOr1~0_combout $end
$var wire 1 @ WideOr0~0_combout $end
$upscope $end
$upscope $end
$enddefinitions $end
#0
$dumpvars
b1001 !
0(
0'
1&
1%
0$
0#
0"
0)
1*
x+
1,
1-
1.
0/
00
11
12
03
04
05
16
07
08
19
1:
0;
1<
1=
0>
0?
0@
$end
#5000
b1 !
b11 !
b10 !
06
17
09
1>
0=
0<
1;
10
01
02
13
1$
0%
0&
1'
#10000
b110 !
b1110 !
b1100 !
b1101 !
16
07
18
19
1@
0>
03
15
1"
0$
#15000
b1111 !
17
0@
1?
1>
1=
0;
00
12
13
14
05
0"
1#
1$
1%
0'
#20000
b1011 !
b1010 !
06
08
0?
0>
03
04
0#
0$
#25000
b1110 !
b1111 !
16
18
1?
1>
13
14
1#
1$
#30000
b1110 !
06
0=
02
0%
#35000
b1010 !
b1011 !
16
08
1@
0>
03
15
1"
0$
#45000
b11 !
b1 !
b101 !
b100 !
06
07
18
09
0?
1=
1<
11
12
04
0#
1%
1&
#50000
b110 !
b111 !
16
17
0:
0@
1;
10
05
1/
1(
0"
1'
#55000
b1111 !
b1011 !
b1010 !
06
08
19
1:
0<
0;
00
01
0/
0(
0&
0'
#60000
b1000 !
b0 !
b1 !
16
07
09
0:
1@
1<
1;
10
11
15
1/
1(
1"
1&
1'
#65000
b101 !
b111 !
b1111 !
17
18
19
1:
0@
1?
1>
0<
0;
00
01
13
14
05
0/
0(
0"
1#
1$
0&
0'
#70000
b1110 !
b1010 !
b10 !
06
08
09
0?
0=
1;
10
02
04
0#
0%
1'
#85000
b0 !
b1 !
b101 !
b1101 !
16
07
18
19
1@
0>
03
15
1"
0$
#95000
b1100 !
b1000 !
b0 !
06
08
09
0:
0@
0;
00
05
1/
1(
0"
0'
#100000
b1 !
b101 !
b1101 !
16
18
19
1:
1@
1;
10
15
0/
0(
1"
1'
#105000
b1111 !
b1011 !
b11 !
17
08
09
0@
1<
11
05
0"
1&
#110000
b1011 !
19
1@
1?
0<
0;
00
01
14
15
1"
1#
0&
0'
#115000
b1001 !
07
0@
0?
1=
1<
11
12
04
05
0"
0#
1%
1&
#120000
b1000 !
b1010 !
06
17
0<
01
0&
#125000
b10 !
b11 !
16
09
0=
1<
1;
10
11
02
0%
1&
1'
#130000
b111 !
b1111 !
b1110 !
06
18
19
1?
1>
0<
0;
00
01
13
14
1#
1$
0&
0'
#135000
b1100 !
b1000 !
07
08
0?
0>
03
04
0#
0$
#140000
b1010 !
b1110 !
17
18
1?
1>
13
14
1#
1$
#145000
b110 !
b111 !
b101 !
b1 !
16
07
08
09
0:
1@
0?
0>
1=
1<
1;
10
11
12
03
04
15
1/
1(
1"
0#
0$
1%
1&
1'
#150000
b11 !
17
1:
0@
0=
02
05
0/
0(
0"
0%
#155000
b10 !
b110 !
b100 !
06
07
18
1@
1=
0;
00
12
15
1"
1%
0'
#160000
b1100 !
b1101 !
16
19
0=
0<
1;
10
01
02
0%
0&
1'
#165000
b1001 !
b1011 !
b11 !
17
08
09
0@
1<
11
05
0"
1&
#170000
b1011 !
19
1@
1?
0<
0;
00
01
14
15
1"
1#
0&
0'
#175000
b1010 !
b10 !
06
09
0@
0?
1>
1;
10
13
04
05
0"
0#
1$
1'
#180000
b11 !
16
0>
1<
11
03
0$
1&
#185000
b1 !
b1001 !
b1000 !
06
07
19
0<
0;
00
01
0&
0'
#190000
b1100 !
b1110 !
b110 !
b111 !
16
17
18
09
0:
1=
1<
1;
10
11
12
1/
1(
1%
1&
1'
#195000
b11 !
b1011 !
b1010 !
06
08
19
1:
0<
0;
00
01
0/
0(
0&
0'
#200000
b1000 !
b0 !
07
09
0:
0=
02
1/
1(
0%
#205000
b100 !
b110 !
b1110 !
17
18
19
1:
1?
1>
13
14
0/
0(
1#
1$
#210000
b1111 !
b1011 !
b1001 !
b1 !
16
07
08
09
0:
1@
0?
0>
1=
1<
1;
10
11
12
03
04
15
1/
1(
1"
0#
0$
1%
1&
1'
#215000
b0 !
06
0@
0=
0<
0;
00
01
02
05
0"
0%
0&
0'
#220000
b100 !
b1100 !
b1101 !
16
18
19
1:
1@
1;
10
15
0/
0(
1"
1'
#225000
b1001 !
b1 !
b0 !
06
08
09
0:
0@
0;
00
05
1/
1(
0"
0'
#230000
b100 !
b101 !
16
18
1:
1?
1<
11
14
0/
0(
1#
1&
#235000
b111 !
b11 !
17
08
0?
1;
10
04
0#
1'
#240000
b1011 !
b1010 !
b1000 !
b1100 !
06
07
18
19
0:
1?
1>
0<
0;
00
01
13
14
1/
1(
1#
1$
0&
0'
#245000
b1110 !
b1010 !
17
08
1:
0?
0>
1=
12
03
04
0/
0(
0#
0$
1%
#250000
b1011 !
b1001 !
b1101 !
16
07
18
1@
0=
1;
10
02
15
1"
0%
1'
#255000
b1111 !
b1011 !
17
08
1?
0;
00
14
1#
0'
#260000
b1010 !
b1110 !
06
18
0@
1>
13
05
0"
1$
#265000
b110 !
b100 !
b0 !
07
08
09
0:
0?
0>
03
04
1/
1(
0#
0$
#270000
b1 !
b1001 !
b1101 !
16
18
19
1:
1@
1;
10
15
0/
0(
1"
1'
#275000
b1100 !
b100 !
06
09
1=
1<
0;
00
11
12
1%
1&
0'
#280000
b101 !
b1101 !
16
19
0=
0<
1;
10
01
02
0%
0&
1'
#285000
b1001 !
b1000 !
b0 !
06
08
09
0:
0@
0;
00
05
1/
1(
0"
0'
#290000
b100 !
b101 !
b1101 !
16
18
19
1:
1@
1;
10
15
0/
0(
1"
1'
#295000
b1111 !
b1110 !
b110 !
06
17
09
0@
1?
0;
00
14
05
0"
1#
0'
#300000
b100 !
b1100 !
07
19
0:
1>
13
1/
1(
1$
#305000
b1110 !
b110 !
17
09
1:
0>
03
0/
0(
0$
#310000
b100 !
07
1@
0?
1=
1<
11
12
04
15
1"
0#
1%
1&
#315000
b0 !
08
0:
0@
0=
0<
01
02
05
1/
1(
0"
0%
0&
#320000
b1 !
b1001 !
b1011 !
16
17
19
1:
1@
1?
14
15
0/
0(
1"
1#
#325000
b1111 !
b1110 !
b110 !
b100 !
06
07
18
09
0?
1=
1<
11
12
04
0#
1%
1&
#335000
b0 !
b1000 !
08
19
0@
0=
0<
01
02
05
0"
0%
0&
#340000
b1001 !
b1101 !
16
18
1@
1;
10
15
1"
1'
#345000
b1111 !
b111 !
b110 !
06
17
09
0@
1?
0;
00
14
05
0"
1#
0'
#350000
b10 !
b11 !
16
08
0?
1<
1;
10
11
04
0#
1&
1'
#355000
b1011 !
b1010 !
06
19
1=
0<
0;
00
01
12
1%
0&
0'
#360000
b1000 !
07
0=
02
0%
#365000
b1100 !
b100 !
18
09
1@
1=
1<
11
12
15
1"
1%
1&
#370000
b110 !
b1110 !
17
19
0@
1?
1>
0=
0<
01
02
13
14
05
0"
1#
1$
0%
0&
#375000
b1111 !
b1101 !
16
07
1@
0?
0>
1;
10
03
04
15
1"
0#
0$
1'
#380000
b1001 !
b1000 !
b1010 !
06
17
08
0@
1=
0;
00
12
05
0"
1%
0'
#385000
b1011 !
16
1@
1?
0=
02
14
15
1"
1#
0%
#390000
b11 !
b111 !
b101 !
07
18
09
0@
1<
11
05
0"
1&
#395000
b100 !
b1100 !
06
19
0:
1>
0<
01
13
1/
1(
1$
0&
#400000
b1000 !
b1001 !
16
08
1:
0?
0>
1=
1<
11
12
03
04
0/
0(
0#
0$
1%
1&
#405000
b1000 !
06
0=
0<
01
02
0%
0&
#410000
b1001 !
16
1=
1<
11
12
1%
1&
#415000
b1011 !
17
1@
1?
0=
0<
01
02
14
15
1"
1#
0%
0&
#420000
b11 !
b111 !
b101 !
07
18
09
0@
1<
11
05
0"
1&
#425000
b1101 !
b1001 !
08
19
0?
1=
12
04
0#
1%
#430000
b1000 !
06
0=
0<
01
02
0%
0&
#435000
b0 !
b100 !
18
09
1@
1=
1<
11
12
15
1"
1%
1&
#440000
b101 !
b1 !
16
08
0:
1;
10
1/
1(
1'
#445000
b101 !
18
1:
0@
1?
0=
0;
00
02
14
05
0/
0(
0"
1#
0%
0'
#450000
b111 !
b11 !
17
08
0?
1;
10
04
0#
1'
#455000
b1011 !
b1010 !
b1000 !
b1100 !
06
07
18
19
0:
1?
1>
0<
0;
00
01
13
14
1/
1(
1#
1$
0&
0'
#460000
b1110 !
17
1:
0/
0(
#465000
b1111 !
b1101 !
16
07
1@
0?
0>
1;
10
03
04
15
1"
0#
0$
1'
#470000
b1001 !
b1011 !
17
08
1?
0;
00
14
1#
0'
#475000
b1010 !
b1000 !
06
07
0@
0?
04
05
0"
0#
#480000
b0 !
b100 !
18
09
1@
1=
1<
11
12
15
1"
1%
1&
#485000
b101 !
b1101 !
b1001 !
16
08
19
0@
05
0"
#490000
b1011 !
b1010 !
06
17
0<
01
0&
#495000
b1011 !
16
1@
1?
0=
02
14
15
1"
1#
0%
#500000
b11 !
b111 !
b101 !
b100 !
06
07
18
09
0?
1=
1<
11
12
04
0#
1%
1&
#505000
b110 !
b111 !
16
17
0:
0@
1;
10
05
1/
1(
0"
1'
#510000
b1111 !
b1011 !
08
19
1:
1@
1?
0=
0<
0;
00
01
02
14
15
0/
0(
1"
1#
0%
0&
0'
#515000
b11 !
09
0@
0?
1<
1;
10
11
04
05
0"
0#
1&
1'
#520000
b1 !
b101 !
b1101 !
07
18
19
1@
0<
01
15
1"
0&
#525000
b1100 !
b1110 !
b110 !
06
17
09
0@
1?
0;
00
14
05
0"
1#
0'
#530000
b1110 !
19
1>
13
1$
#540000
b1100 !
07
0:
1/
1(
#545000
b1101 !
b1111 !
16
17
1:
1=
12
0/
0(
1%
#550000
b1011 !
b11 !
08
09
0?
0>
0=
1<
1;
10
11
02
03
04
0#
0$
0%
1&
1'
#560000
b10 !
b110 !
b1110 !
06
18
19
1?
1>
0<
0;
00
01
13
14
1#
1$
0&
0'
#565000
b1100 !
07
0:
1/
1(
#570000
b100 !
09
1:
1@
0?
0>
1=
1<
11
12
03
04
15
0/
0(
1"
0#
0$
1%
1&
#575000
b110 !
17
0@
1?
0=
0<
01
02
14
05
0"
1#
0%
0&
#585000
b111 !
b1111 !
16
19
1>
1=
12
13
1$
1%
#590000
b111 !
09
0:
0?
0>
1<
1;
10
11
03
04
1/
1(
0#
0$
1&
1'
#595000
b11 !
b1 !
07
08
1@
15
1"
#600000
b0 !
b1000 !
06
19
1:
0@
0=
0<
0;
00
01
02
05
0/
0(
0"
0%
0&
0'
#605000
b1100 !
b100 !
18
09
1@
1=
1<
11
12
15
1"
1%
1&
#610000
b110 !
b10 !
17
08
0@
1>
0=
0<
1;
10
01
02
13
05
0"
1$
0%
0&
1'
#615000
b1010 !
b1000 !
07
19
0>
0;
00
03
0$
0'
#620000
b1001 !
16
1=
1<
11
12
1%
1&
#625000
b1101 !
b101 !
18
09
1?
0=
02
14
1#
0%
#630000
b100 !
b1100 !
06
19
0:
1>
0<
01
13
1/
1(
1$
0&
#635000
b1000 !
b1001 !
16
08
1:
0?
0>
1=
1<
11
12
03
04
0/
0(
0#
0$
1%
1&
#640000
b1101 !
b1100 !
06
18
0:
1?
1>
0=
0<
01
02
13
14
1/
1(
1#
1$
0%
0&
#645000
b1000 !
b1001 !
16
08
1:
0?
0>
1=
1<
11
12
03
04
0/
0(
0#
0$
1%
1&
#650000
b1 !
b101 !
b100 !
06
18
09
1@
15
1"
#660000
b1100 !
b1101 !
16
19
0=
0<
1;
10
01
02
0%
0&
1'
#665000
b1111 !
b111 !
b110 !
06
17
09
0@
1?
0;
00
14
05
0"
1#
0'
#670000
b1110 !
b1111 !
16
19
1>
1=
12
13
1$
1%
#675000
b1011 !
b1001 !
b1 !
b0 !
06
07
08
09
0:
0?
0>
0=
02
03
04
1/
1(
0#
0$
0%
#680000
b10 !
b1010 !
b1011 !
16
17
19
1:
1@
1?
14
15
0/
0(
1"
1#
#685000
b1111 !
b1101 !
b101 !
b100 !
06
07
18
09
0?
1=
1<
11
12
04
0#
1%
1&
#690000
b0 !
b1 !
16
08
0:
1;
10
1/
1(
1'
#695000
b11 !
b111 !
17
18
0@
05
0"
#700000
b110 !
b100 !
06
07
1:
1@
0;
00
15
0/
0(
1"
0'
#705000
b1100 !
b1101 !
16
19
0=
0<
1;
10
01
02
0%
0&
1'
#710000
b1001 !
b1011 !
17
08
1?
0;
00
14
1#
0'
#715000
b11 !
b10 !
b0 !
06
07
09
0:
0@
0?
04
05
1/
1(
0"
0#
#720000
b100 !
18
1:
1@
1=
1<
11
12
15
0/
0(
1"
1%
1&
#725000
b1100 !
b1101 !
b1111 !
16
17
19
0@
1?
1>
0<
01
13
14
05
0"
1#
1$
0&
#730000
b1011 !
b11 !
b10 !
b0 !
06
07
08
09
0:
0?
0>
0=
02
03
04
1/
1(
0#
0$
0%
#735000
b100 !
b101 !
b111 !
16
17
18
1=
1<
1;
10
11
12
1%
1&
1'
#740000
b1111 !
19
1:
1?
1>
0<
0;
00
01
13
14
0/
0(
1#
1$
0&
0'
#745000
b1011 !
b1010 !
b1000 !
06
07
08
0?
0>
0=
02
03
04
0#
0$
0%
#750000
b1100 !
b1110 !
17
18
1?
1>
13
14
1#
1$
#755000
b1111 !
b1101 !
16
07
1@
0?
0>
1;
10
03
04
15
1"
0#
0$
1'
#760000
b101 !
b100 !
b110 !
06
17
09
0@
1?
0;
00
14
05
0"
1#
0'
#765000
b111 !
16
0:
0?
1=
1<
1;
10
11
12
04
1/
1(
0#
1%
1&
1'
#770000
b11 !
b1011 !
b1001 !
b1000 !
06
07
08
19
1:
0=
0<
0;
00
01
02
0/
0(
0%
0&
0'
#775000
b1100 !
b100 !
18
09
1@
1=
1<
11
12
15
1"
1%
1&
#780000
b110 !
b1110 !
17
19
0@
1?
1>
0=
0<
01
02
13
14
05
0"
1#
1$
0%
0&
#785000
b1100 !
07
0:
1/
1(
#790000
b1000 !
b1010 !
17
08
1:
0?
0>
1=
12
03
04
0/
0(
0#
0$
1%
#795000
b10 !
09
1>
0=
1;
10
02
13
1$
0%
1'
#800000
b11 !
b111 !
b101 !
b1101 !
16
07
18
19
1@
0>
03
15
1"
0$
#805000
b1111 !
17
0@
1?
1>
1=
0;
00
12
13
14
05
0"
1#
1$
1%
0'
#810000
b1110 !
b1010 !
b10 !
06
08
09
0?
0=
1;
10
02
04
0#
0%
1'
#815000
b11 !
b111 !
16
18
0:
0>
1=
1<
11
12
03
1/
1(
0$
1%
1&
#820000
b101 !
b1101 !
b1001 !
07
08
19
1:
0;
00
0/
0(
0'
#825000
b1011 !
b11 !
b111 !
17
18
09
0:
1;
10
1/
1(
1'
#830000
b110 !
b1110 !
06
19
1:
1?
1>
0=
0<
0;
00
01
02
13
14
0/
0(
1#
1$
0%
0&
0'
#835000
b1100 !
b1000 !
07
08
0?
0>
03
04
0#
0$
#840000
b1001 !
b1 !
b101 !
16
18
09
1?
1<
11
14
1#
1&
#845000
b111 !
b110 !
b10 !
06
17
08
0?
1>
0<
1;
10
01
13
04
0#
1$
0&
1'
#850000
b1010 !
b1000 !
b1001 !
b1101 !
16
07
18
19
1@
0>
03
15
1"
0$
#855000
b101 !
b111 !
17
09
0:
0@
1=
1<
11
12
05
1/
1(
0"
1%
1&
#860000
b11 !
08
1:
0=
02
0/
0(
0%
#865000
b10 !
b1010 !
06
19
1=
0<
0;
00
01
12
1%
0&
0'
#870000
b1000 !
b1100 !
b1101 !
b101 !
16
07
18
09
1?
0=
1<
11
02
14
1#
0%
1&
#875000
b111 !
b110 !
06
17
0<
01
0&
#880000
b10 !
b1010 !
b1011 !
16
08
19
1@
15
1"
#885000
b1001 !
b1101 !
07
18
0?
1;
10
04
0#
1'
#890000
b1100 !
b1000 !
06
08
0@
0;
00
05
0"
0'
#895000
b1010 !
17
1=
12
1%
#900000
b10 !
b11 !
16
09
0=
1<
1;
10
11
02
0%
1&
1'
#905000
b111 !
b101 !
07
18
1?
0;
00
14
1#
0'
#910000
b100 !
06
1@
0?
1=
12
04
15
1"
0#
1%
#915000
b1100 !
b1000 !
08
19
0@
0=
0<
01
02
05
0"
0%
0&
#920000
b1010 !
b10 !
b110 !
17
18
09
1?
14
1#
#925000
b100 !
07
1@
0?
1=
1<
11
12
04
15
1"
0#
1%
1&
#930000
b0 !
08
0:
0@
0=
0<
01
02
05
1/
1(
0"
0%
0&
#935000
b1 !
16
1@
1=
1<
1;
10
11
12
15
1"
1%
1&
1'
#940000
b11 !
b111 !
b110 !
06
17
18
1:
0@
1?
0=
0<
0;
00
01
02
14
05
0/
0(
0"
1#
0%
0&
0'
#945000
b100 !
b0 !
07
08
0:
0?
04
1/
1(
0#
#950000
b1000 !
b1001 !
b1101 !
16
18
19
1:
1@
1;
10
15
0/
0(
1"
1'
#955000
b1100 !
b1000 !
06
08
0@
0;
00
05
0"
0'
#960000
b1010 !
b1011 !
16
17
1@
1?
14
15
1"
1#
#965000
b11 !
b111 !
b101 !
b100 !
06
07
18
09
0?
1=
1<
11
12
04
0#
1%
1&
#970000
b1100 !
b1110 !
17
19
0@
1?
1>
0=
0<
01
02
13
14
05
0"
1#
1$
0%
0&
#975000
b1010 !
b10 !
b0 !
07
08
09
0:
0?
0>
03
04
1/
1(
0#
0$
#980000
b1 !
b101 !
b111 !
16
17
18
1=
1<
1;
10
11
12
1%
1&
1'
#985000
b1111 !
b1110 !
b1100 !
06
07
19
1?
1>
0=
0<
0;
00
01
02
13
14
1#
1$
0%
0&
0'
#990000
b1101 !
b1111 !
16
17
1:
1=
12
0/
0(
1%
#995000
b1011 !
b11 !
08
09
0?
0>
0=
1<
1;
10
11
02
03
04
0#
0$
0%
1&
1'
