Atividades/Ula/simulation/qsim/ula.msim.vcd
$comment
	File created using the following command:
		vcd file ula.msim.vcd -direction
$end
$date
	Fri Sep 28 16:28:56 2018
$end
$version
	ModelSim Version 10.5b
$end
$timescale
	1ps
$end

$scope module ula_vlg_vec_tst $end
$var reg 4 ! a [3:0] $end
$var reg 4 " b [3:0] $end
$var reg 1 # clk $end
$var reg 1 $ rst_n $end
$var reg 2 % sel [1:0] $end
$var wire 1 & s [4] $end
$var wire 1 ' s [3] $end
$var wire 1 ( s [2] $end
$var wire 1 ) s [1] $end
$var wire 1 * s [0] $end

$scope module i1 $end
$var wire 1 + gnd $end
$var wire 1 , vcc $end
$var wire 1 - unknown $end
$var tri1 1 . devclrn $end
$var tri1 1 / devpor $end
$var tri1 1 0 devoe $end
$var wire 1 1 s[0]~output_o $end
$var wire 1 2 s[1]~output_o $end
$var wire 1 3 s[2]~output_o $end
$var wire 1 4 s[3]~output_o $end
$var wire 1 5 s[4]~output_o $end
$var wire 1 6 clk~input_o $end
$var wire 1 7 rst_n~input_o $end
$var wire 1 8 a[1]~input_o $end
$var wire 1 9 sel[0]~input_o $end
$var wire 1 : sel[1]~input_o $end
$var wire 1 ; b[0]~input_o $end
$var wire 1 < a[0]~input_o $end
$var wire 1 = Add0~22_cout $end
$var wire 1 > Add0~1_sumout $end
$var wire 1 ? s~0_combout $end
$var wire 1 @ s[0]~reg0_q $end
$var wire 1 A a[2]~input_o $end
$var wire 1 B b[1]~input_o $end
$var wire 1 C Add0~2 $end
$var wire 1 D Add0~5_sumout $end
$var wire 1 E s~1_combout $end
$var wire 1 F s[1]~reg0_q $end
$var wire 1 G a[3]~input_o $end
$var wire 1 H b[2]~input_o $end
$var wire 1 I Add0~6 $end
$var wire 1 J Add0~9_sumout $end
$var wire 1 K s~2_combout $end
$var wire 1 L s[2]~reg0_q $end
$var wire 1 M b[3]~input_o $end
$var wire 1 N Add0~10 $end
$var wire 1 O Add0~13_sumout $end
$var wire 1 P s~3_combout $end
$var wire 1 Q s[3]~reg0_q $end
$var wire 1 R Add0~14 $end
$var wire 1 S Add0~17_sumout $end
$var wire 1 T s~4_combout $end
$var wire 1 U s[4]~reg0_q $end
$upscope $end
$upscope $end
$enddefinitions $end
#0
$dumpvars
b1100 !
b1001 "
0#
1$
b0 %
0*
0)
0(
0'
0&
0+
1,
x-
1.
1/
10
01
02
03
04
05
06
17
08
09
0:
1;
0<
0=
1>
1?
0@
1A
0B
0C
0D
0E
0F
1G
0H
0I
1J
1K
0L
1M
0N
0O
0P
0Q
1R
1S
1T
0U
$end
#5000
1#
16
1U
1L
1@
11
13
15
1&
1(
1*
#10000
b10 %
b11 %
0#
19
1:
06
0S
0R
1O
1N
0J
1D
0>
1=
0T
1E
0?
1S
1R
0O
1>
0S
#15000
1#
16
0U
1F
0@
01
12
05
0&
1)
0*
#20000
0#
06
#25000
1#
16
#30000
0#
06
#35000
1#
16
#40000
0#
06
#45000
1#
16
#50000
0#
06
#55000
1#
16
#60000
0#
06
#65000
1#
16
#70000
0#
06
#75000
1#
16
#80000
0#
06
#85000
1#
16
#90000
0#
06
#95000
1#
16
#100000
b100 !
b0 !
b10 !
b11 !
b1 "
b0 "
0#
0;
0M
1<
18
0A
0G
06
0N
1J
1I
0D
1C
0K
0E
1?
0R
1O
1N
0J
1D
1S
1R
0O
0S
#105000
1#
16
0L
0F
1@
11
02
03
0(
0)
1*
#110000
0#
06
#115000
1#
16
#120000
0#
06
#125000
1#
16
#130000
0#
06
#135000
1#
16
#140000
0#
06
#145000
1#
16
#150000
0#
06
#155000
1#
16
#160000
0#
06
#165000
1#
16
#170000
0#
06
#175000
1#
16
#180000
0#
06
#185000
1#
16
#190000
b1 %
b0 %
0#
09
0:
06
1S
0R
1O
0N
1J
0D
0>
0=
1E
0S
0O
0C
1>
0?
0E
1K
1P
1T
0I
1D
1?
0P
0T
0J
1E
0K
#195000
1#
16
1F
12
1)
#200000
b10 "
b1011 !
b1111 !
b1101 !
b10 %
0#
1:
08
1A
1G
1B
06
1O
1J
1T
1P
0?
#205000
1#
16
1U
1Q
0@
01
14
15
1&
1'
0*
#210000
0#
06
#215000
1#
16
#220000
0#
06
#225000
1#
16
#230000
0#
06
#235000
1#
16
#240000
0#
06
#245000
1#
16
#250000
0#
06
#255000
1#
16
#260000
0#
06
#265000
1#
16
#270000
0#
06
#275000
1#
16
#280000
0#
06
#285000
1#
16
#290000
0#
06
#295000
1#
16
#300000
b110 "
b1100 !
b1110 "
b1100 "
b100 !
b110 !
0#
0<
18
0G
0B
1H
1M
06
1N
0J
0>
0T
1K
0E
1R
0O
1S
#305000
1#
16
0U
1L
0F
02
13
05
0&
1(
0)
#310000
0#
06
#315000
1#
16
#320000
b0 %
0#
0:
06
1T
0P
0K
1E
#325000
1#
16
1U
0Q
0L
1F
12
03
04
15
1&
0'
0(
1)
#330000
b1 %
0#
19
06
0S
0R
1O
0N
1J
1I
0D
1>
1=
1S
0O
1N
0J
1C
0>
1?
0E
1K
1P
0T
1O
1D
0?
0K
0P
1T
1E
1P
#335000
1#
16
1Q
14
1'
#340000
0#
06
#345000
1#
16
#350000
0#
06
#355000
1#
16
#360000
0#
06
#365000
1#
16
#370000
0#
06
#375000
1#
16
#380000
0#
06
#385000
1#
16
#390000
0#
06
#395000
1#
16
#400000
b100 "
b110 "
0#
1B
0M
06
1R
0O
0D
0S
0E
0P
0T
#405000
1#
16
0U
0Q
0F
02
04
05
0&
0'
0)
#410000
0#
06
#415000
1#
16
#420000
0#
06
#425000
1#
16
#430000
0#
06
#435000
1#
16
#440000
0#
06
#445000
1#
16
#450000
0#
06
#455000
1#
16
#460000
0#
06
#465000
1#
16
#470000
0#
06
#475000
1#
16
#480000
0#
06
#485000
1#
16
#490000
0#
06
#495000
1#
16
#500000
b111 "
b10 !
b11 "
b11 !
b1 !
0#
1<
08
0A
1;
0H
06
0I
1D
0N
1J
1E
0R
1O
1K
1S
1P
1T
#505000
1#
16
1U
1Q
1L
1F
12
13
14
15
1&
1'
1(
1)
#510000
0#
06
#515000
1#
16
#520000
b0 %
0#
09
06
0S
0O
0J
1I
0D
1>
0=
1J
0>
1?
0E
0K
0P
0T
0?
1K
#525000
1#
16
0U
0Q
0F
02
04
05
0&
0'
0)
#530000
0#
06
#535000
1#
16
#540000
0#
06
#545000
1#
16
#550000
0#
06
#555000
1#
16
#560000
0#
06
#565000
1#
16
#570000
0#
06
#575000
1#
16
#580000
0#
06
#585000
1#
16
#590000
0#
06
#595000
1#
16
#600000
b1001 !
b1011 "
0#
1M
1G
06
1R
1S
1T
#605000
1#
16
1U
15
1&
#610000
0#
06
#615000
1#
16
#620000
0#
06
#625000
1#
16
#630000
0#
06
#635000
1#
16
#640000
0#
06
#645000
1#
16
#650000
0#
06
#655000
1#
16
#660000
0#
06
#665000
1#
16
#670000
0#
06
#675000
1#
16
#680000
0#
06
#685000
1#
16
#690000
0#
06
#695000
1#
16
#700000
b1001 "
b1000 "
b1100 "
0#
0;
0B
1H
06
1N
0J
0I
1D
0C
1>
1O
0N
1J
0D
1?
1E
0K
0O
0E
1K
1P
0P
#705000
1#
16
1@
11
1*
#710000
0#
06
#715000
1#
16
#720000
0#
06
#725000
1#
16
#730000
0#
06
#735000
1#
16
#740000
0#
06
#745000
1#
16
#750000
0#
06
#755000
1#
16
#760000
0#
06
#765000
1#
16
#770000
0#
06
#775000
1#
16
#780000
0#
06
#785000
1#
16
#790000
0#
06
#795000
1#
16
#800000
b1101 !
b1111 !
b111 !
b100 "
b101 "
0#
1;
0M
18
1A
0G
06
0R
1N
0J
1D
1C
0>
0S
1O
1I
0D
0?
1E
0K
1J
0E
1P
0T
1K
#805000
1#
16
0U
1Q
0@
01
14
05
0&
1'
0*
#810000
0#
06
#815000
1#
16
#820000
0#
06
#825000
1#
16
#830000
0#
06
#835000
1#
16
#840000
0#
06
#845000
1#
16
#850000
0#
06
#855000
1#
16
#860000
0#
06
#865000
1#
16
#870000
0#
06
#875000
1#
16
#880000
0#
06
#885000
1#
16
#890000
0#
06
#895000
1#
16
#900000
b111 "
b101 !
0#
08
1B
06
#905000
1#
16
#910000
0#
06
#915000
1#
16
#920000
0#
06
#925000
1#
16
#930000
0#
06
#935000
1#
16
#940000
0#
06
#945000
1#
16
#950000
0#
06
#955000
1#
16
#960000
0#
06
#965000
1#
16
#970000
0#
06
#975000
1#
16
#980000
0#
06
#985000
1#
16
#990000
0#
06
#995000
1#
16
