Atividades/Maquinas_De_Estados/Encoded/simulation/qsim/encoded.msim.vcd
$comment
	File created using the following command:
		vcd file encoded.msim.vcd -direction
$end
$date
	Sat Oct 13 17:25:36 2018
$end
$version
	ModelSim Version 10.5b
$end
$timescale
	1ps
$end

$scope module encoded_vlg_vec_tst $end
$var reg 1 ! clk $end
$var reg 1 " data_in $end
$var reg 1 # reset $end
$var wire 1 $ data_out [1] $end
$var wire 1 % data_out [0] $end
$var wire 1 & estados [1] $end
$var wire 1 ' estados [0] $end

$scope module i1 $end
$var wire 1 ( gnd $end
$var wire 1 ) vcc $end
$var wire 1 * unknown $end
$var tri1 1 + devclrn $end
$var tri1 1 , devpor $end
$var tri1 1 - devoe $end
$var wire 1 . data_out[0]~output_o $end
$var wire 1 / data_out[1]~output_o $end
$var wire 1 0 estados[0]~output_o $end
$var wire 1 1 estados[1]~output_o $end
$var wire 1 2 clk~input_o $end
$var wire 1 3 reset~input_o $end
$var wire 1 4 state.S0~q $end
$var wire 1 5 data_in~input_o $end
$var wire 1 6 Selector1~0_combout $end
$var wire 1 7 state.S2~q $end
$var wire 1 8 data_out~2_combout $end
$var wire 1 9 state.S3~0_combout $end
$var wire 1 : state.S3~q $end
$var wire 1 ; data_out~3_combout $end
$var wire 1 < Selector0~0_combout $end
$var wire 1 = state.S1~q $end
$var wire 1 > estados~2_combout $end
$upscope $end
$upscope $end
$enddefinitions $end
#0
$dumpvars
0!
0"
0#
1%
0$
0'
0&
0(
1)
x*
1+
1,
1-
1.
0/
00
01
02
03
04
05
06
07
18
09
0:
1;
1<
0=
1>
$end
#5000
1!
12
1=
14
0;
08
10
0.
1/
1$
0%
1'
#10000
0!
02
#15000
1!
12
#20000
0!
02
#25000
1!
12
#30000
0!
02
#35000
1!
12
#40000
0!
02
#45000
1!
12
#50000
1"
0!
15
02
0<
16
#55000
1!
12
0=
17
0>
19
18
06
00
1.
11
1&
1%
0'
#60000
0!
02
#65000
1!
12
1:
07
1;
09
08
16
10
0.
0/
0$
0%
1'
#70000
0!
02
#75000
1!
12
0:
17
0;
19
18
06
00
1.
1/
1$
1%
0'
#80000
1#
0!
13
02
04
07
1>
1;
1<
09
0/
01
0&
0$
#85000
1!
12
#90000
0!
02
#95000
1!
12
#100000
0"
0!
05
02
#105000
1!
12
#110000
0!
02
#115000
1!
12
#120000
0!
02
#125000
1!
12
#130000
0!
02
#135000
1!
12
#140000
0#
0!
03
02
#145000
1!
12
1=
14
0;
08
10
0.
1/
1$
0%
1'
#150000
1"
0!
15
02
0<
16
#155000
1!
12
0=
17
0>
19
18
06
00
1.
11
1&
1%
0'
#160000
0!
02
#165000
1!
12
1:
07
1;
09
08
16
10
0.
0/
0$
0%
1'
#170000
0!
02
#175000
1!
12
0:
17
0;
19
18
06
00
1.
1/
1$
1%
0'
#180000
0!
02
#185000
1!
12
1:
07
1;
09
08
16
10
0.
0/
0$
0%
1'
#190000
0!
02
#195000
1!
12
0:
17
0;
19
18
06
00
1.
1/
1$
1%
0'
#200000
0"
0!
05
02
1<
09
#205000
1!
12
1=
07
1>
08
10
0.
01
0&
0%
1'
#210000
0!
02
#215000
1!
12
#220000
0!
02
#225000
1!
12
#230000
0!
02
#235000
1!
12
#240000
0!
02
#245000
1!
12
#250000
1"
0!
15
02
0<
16
#255000
1!
12
0=
17
0>
19
18
06
00
1.
11
1&
1%
0'
#260000
0!
02
#265000
1!
12
1:
07
1;
09
08
16
10
0.
0/
0$
0%
1'
#270000
0!
02
#275000
1!
12
0:
17
0;
19
18
06
00
1.
1/
1$
1%
0'
#280000
0!
02
#285000
1!
12
1:
07
1;
09
08
16
10
0.
0/
0$
0%
1'
#290000
0!
02
#295000
1!
12
0:
17
0;
19
18
06
00
1.
1/
1$
1%
0'
#300000
0!
02
#305000
1!
12
1:
07
1;
09
08
16
10
0.
0/
0$
0%
1'
#310000
0!
02
#315000
1!
12
0:
17
0;
19
18
06
00
1.
1/
1$
1%
0'
#320000
0!
02
#325000
1!
12
1:
07
1;
09
08
16
10
0.
0/
0$
0%
1'
#330000
0!
02
#335000
1!
12
0:
17
0;
19
18
06
00
1.
1/
1$
1%
0'
#340000
0!
02
#345000
1!
12
1:
07
1;
09
08
16
10
0.
0/
0$
0%
1'
#350000
0"
0!
05
02
19
06
#355000
1!
12
#360000
0!
02
#365000
1!
12
#370000
0!
02
#375000
1!
12
#380000
0!
02
#385000
1!
12
#390000
0!
02
#395000
1!
12
#400000
0!
02
#405000
1!
12
#410000
0!
02
#415000
1!
12
#420000
0!
02
#425000
1!
12
#430000
0!
02
#435000
1!
12
#440000
0!
02
#445000
1!
12
#450000
1"
0!
15
02
09
16
#455000
1!
12
0:
17
0;
19
18
06
00
1.
1/
1$
1%
0'
#460000
0!
02
#465000
1!
12
1:
07
1;
09
08
16
10
0.
0/
0$
0%
1'
#470000
0!
02
#475000
1!
12
0:
17
0;
19
18
06
00
1.
1/
1$
1%
0'
#480000
0!
02
#485000
1!
12
1:
07
1;
09
08
16
10
0.
0/
0$
0%
1'
#490000
0!
02
#495000
1!
12
0:
17
0;
19
18
06
00
1.
1/
1$
1%
0'
#500000
0!
02
#505000
1!
12
1:
07
1;
09
08
16
10
0.
0/
0$
0%
1'
#510000
0!
02
#515000
1!
12
0:
17
0;
19
18
06
00
1.
1/
1$
1%
0'
#520000
0!
02
#525000
1!
12
1:
07
1;
09
08
16
10
0.
0/
0$
0%
1'
#530000
0!
02
#535000
1!
12
0:
17
0;
19
18
06
00
1.
1/
1$
1%
0'
#540000
0!
02
#545000
1!
12
1:
07
1;
09
08
16
10
0.
0/
0$
0%
1'
#550000
0"
0!
05
02
19
06
#555000
1!
12
#560000
0!
02
#565000
1!
12
#570000
0!
02
#575000
1!
12
#580000
0!
02
#585000
1!
12
#590000
0!
02
#595000
1!
12
#600000
0!
02
#605000
1!
12
#610000
0!
02
#615000
1!
12
#620000
0!
02
#625000
1!
12
#630000
0!
02
#635000
1!
12
#640000
0!
02
#645000
1!
12
#650000
0!
02
#655000
1!
12
#660000
0!
02
#665000
1!
12
#670000
0!
02
#675000
1!
12
#680000
0!
02
#685000
1!
12
#690000
0!
02
#695000
1!
12
#700000
0!
02
#705000
1!
12
#710000
0!
02
#715000
1!
12
#720000
0!
02
#725000
1!
12
#730000
0!
02
#735000
1!
12
#740000
0!
02
#745000
1!
12
#750000
1"
0!
15
02
09
16
#755000
1!
12
0:
17
0;
19
18
06
00
1.
1/
1$
1%
0'
#760000
0!
02
#765000
1!
12
1:
07
1;
09
08
16
10
0.
0/
0$
0%
1'
#770000
0!
02
#775000
1!
12
0:
17
0;
19
18
06
00
1.
1/
1$
1%
0'
#780000
0!
02
#785000
1!
12
1:
07
1;
09
08
16
10
0.
0/
0$
0%
1'
#790000
0!
02
#795000
1!
12
0:
17
0;
19
18
06
00
1.
1/
1$
1%
0'
#800000
0!
02
#805000
1!
12
1:
07
1;
09
08
16
10
0.
0/
0$
0%
1'
#810000
0!
02
#815000
1!
12
0:
17
0;
19
18
06
00
1.
1/
1$
1%
0'
#820000
0!
02
#825000
1!
12
1:
07
1;
09
08
16
10
0.
0/
0$
0%
1'
#830000
0!
02
#835000
1!
12
0:
17
0;
19
18
06
00
1.
1/
1$
1%
0'
#840000
0!
02
#845000
1!
12
1:
07
1;
09
08
16
10
0.
0/
0$
0%
1'
#850000
0!
02
#855000
1!
12
0:
17
0;
19
18
06
00
1.
1/
1$
1%
0'
#860000
0!
02
#865000
1!
12
1:
07
1;
09
08
16
10
0.
0/
0$
0%
1'
#870000
0!
02
#875000
1!
12
0:
17
0;
19
18
06
00
1.
1/
1$
1%
0'
#880000
0!
02
#885000
1!
12
1:
07
1;
09
08
16
10
0.
0/
0$
0%
1'
#890000
0!
02
#895000
1!
12
0:
17
0;
19
18
06
00
1.
1/
1$
1%
0'
#900000
0!
02
#905000
1!
12
1:
07
1;
09
08
16
10
0.
0/
0$
0%
1'
#910000
0!
02
#915000
1!
12
0:
17
0;
19
18
06
00
1.
1/
1$
1%
0'
#920000
0!
02
#925000
1!
12
1:
07
1;
09
08
16
10
0.
0/
0$
0%
1'
#930000
0!
02
#935000
1!
12
0:
17
0;
19
18
06
00
1.
1/
1$
1%
0'
#940000
0!
02
#945000
1!
12
1:
07
1;
09
08
16
10
0.
0/
0$
0%
1'
#950000
0"
0!
05
02
19
06
#955000
1!
12
#960000
0!
02
#965000
1!
12
#970000
0!
02
#975000
1!
12
#980000
0!
02
#985000
1!
12
#990000
0!
02
#995000
1!
12
