Atividades/AMBA_APB_compliant_DPCM_saturation/simulation/qsim/amba_dpcm_saturation.msim.vcd
$comment
	File created using the following command:
		vcd file amba_dpcm_saturation.msim.vcd -direction
$end
$date
	Fri Dec 14 14:11:30 2018
$end
$version
	ModelSim Version 10.5b
$end
$timescale
	1ps
$end

$scope module amba_dpcm_saturation_vlg_vec_tst $end
$var reg 1 ! clk $end
$var reg 8 " entrada [7:0] $end
$var reg 1 # reset $end
$var wire 1 $ saida [7] $end
$var wire 1 % saida [6] $end
$var wire 1 & saida [5] $end
$var wire 1 ' saida [4] $end
$var wire 1 ( saida [3] $end
$var wire 1 ) saida [2] $end
$var wire 1 * saida [1] $end
$var wire 1 + saida [0] $end

$scope module i1 $end
$var wire 1 , gnd $end
$var wire 1 - vcc $end
$var wire 1 . unknown $end
$var tri1 1 / devclrn $end
$var tri1 1 0 devpor $end
$var tri1 1 1 devoe $end
$var wire 1 2 saida[0]~output_o $end
$var wire 1 3 saida[1]~output_o $end
$var wire 1 4 saida[2]~output_o $end
$var wire 1 5 saida[3]~output_o $end
$var wire 1 6 saida[4]~output_o $end
$var wire 1 7 saida[5]~output_o $end
$var wire 1 8 saida[6]~output_o $end
$var wire 1 9 saida[7]~output_o $end
$var wire 1 : clk~input_o $end
$var wire 1 ; entrada[6]~input_o $end
$var wire 1 < reset~input_o $end
$var wire 1 = entrada[5]~input_o $end
$var wire 1 > entrada[0]~input_o $end
$var wire 1 ? entrada[1]~input_o $end
$var wire 1 @ entrada[2]~input_o $end
$var wire 1 A d|Equal0~0_combout $end
$var wire 1 B entrada[3]~input_o $end
$var wire 1 C entrada[4]~input_o $end
$var wire 1 D d|Equal0~1_combout $end
$var wire 1 E entrada[7]~input_o $end
$var wire 1 F d|Equal0~2_combout $end
$var wire 1 G d|Equal0~3_combout $end
$var wire 1 H d|Add0~2 $end
$var wire 1 I d|Add0~3 $end
$var wire 1 J d|Add0~18 $end
$var wire 1 K d|Add0~19 $end
$var wire 1 L d|Add0~14 $end
$var wire 1 M d|Add0~15 $end
$var wire 1 N d|Add0~34 $end
$var wire 1 O d|Add0~35 $end
$var wire 1 P d|Add0~30 $end
$var wire 1 Q d|Add0~31 $end
$var wire 1 R d|Add0~26 $end
$var wire 1 S d|Add0~27 $end
$var wire 1 T d|Add0~21_sumout $end
$var wire 1 U d|Add0~25_sumout $end
$var wire 1 V d|Add0~29_sumout $end
$var wire 1 W d|Add0~33_sumout $end
$var wire 1 X d|s|saida[0]~0_combout $end
$var wire 1 Y d|s|LessThan0~1_combout $end
$var wire 1 Z d|Add0~22 $end
$var wire 1 [ d|Add0~23 $end
$var wire 1 \ d|Add0~9_sumout $end
$var wire 1 ] d|Add0~10 $end
$var wire 1 ^ d|Add0~11 $end
$var wire 1 _ d|Add0~5_sumout $end
$var wire 1 ` d|Add0~1_sumout $end
$var wire 1 a d|s|saida~7_combout $end
$var wire 1 b saida[0]~reg0_q $end
$var wire 1 c d|Add0~17_sumout $end
$var wire 1 d d|s|saida~6_combout $end
$var wire 1 e saida[1]~reg0_q $end
$var wire 1 f d|Add0~13_sumout $end
$var wire 1 g d|s|saida~5_combout $end
$var wire 1 h saida[2]~reg0_q $end
$var wire 1 i d|s|LessThan0~0_combout $end
$var wire 1 j d|s|saida~1_combout $end
$var wire 1 k saida[3]~reg0_q $end
$var wire 1 l d|s|saida~4_combout $end
$var wire 1 m saida[4]~reg0_q $end
$var wire 1 n d|s|saida~3_combout $end
$var wire 1 o saida[5]~reg0_q $end
$var wire 1 p d|s|saida~2_combout $end
$var wire 1 q saida[6]~reg0_q $end
$var wire 1 r saida[7]~reg0_q $end
$var wire 1 s d|entrada_anterior [7] $end
$var wire 1 t d|entrada_anterior [6] $end
$var wire 1 u d|entrada_anterior [5] $end
$var wire 1 v d|entrada_anterior [4] $end
$var wire 1 w d|entrada_anterior [3] $end
$var wire 1 x d|entrada_anterior [2] $end
$var wire 1 y d|entrada_anterior [1] $end
$var wire 1 z d|entrada_anterior [0] $end
$var wire 1 { ligacao_entrada [7] $end
$var wire 1 | ligacao_entrada [6] $end
$var wire 1 } ligacao_entrada [5] $end
$var wire 1 ~ ligacao_entrada [4] $end
$var wire 1 !! ligacao_entrada [3] $end
$var wire 1 "! ligacao_entrada [2] $end
$var wire 1 #! ligacao_entrada [1] $end
$var wire 1 $! ligacao_entrada [0] $end
$var wire 1 %! d|ligacao_saida [8] $end
$var wire 1 &! d|ligacao_saida [7] $end
$var wire 1 '! d|ligacao_saida [6] $end
$var wire 1 (! d|ligacao_saida [5] $end
$var wire 1 )! d|ligacao_saida [4] $end
$var wire 1 *! d|ligacao_saida [3] $end
$var wire 1 +! d|ligacao_saida [2] $end
$var wire 1 ,! d|ligacao_saida [1] $end
$var wire 1 -! d|ligacao_saida [0] $end
$var wire 1 .! d|s|saida [7] $end
$var wire 1 /! d|s|saida [6] $end
$var wire 1 0! d|s|saida [5] $end
$var wire 1 1! d|s|saida [4] $end
$var wire 1 2! d|s|saida [3] $end
$var wire 1 3! d|s|saida [2] $end
$var wire 1 4! d|s|saida [1] $end
$var wire 1 5! d|s|saida [0] $end
$upscope $end
$upscope $end
$enddefinitions $end
#0
$dumpvars
0!
b1111101 "
0#
0+
0*
0)
0(
0'
0&
0%
0$
0,
1-
x.
1/
10
11
02
03
04
05
06
07
08
09
0:
1;
0<
1=
1>
0?
1@
1A
1B
1C
1D
0E
1F
0G
0H
1I
1J
0K
1L
0M
1N
0O
1P
0Q
1R
0S
0T
0U
0V
0W
1X
0Y
1Z
0[
0\
1]
0^
0_
0`
0a
0b
0c
0d
0e
0f
0g
0h
1i
0j
0k
0l
0m
0n
0o
0p
0q
0r
0z
0y
0x
0w
0v
0u
0t
0s
0$!
0#!
0"!
0!!
0~
0}
0|
0{
0-!
0,!
0+!
0*!
0)!
0(!
0'!
0&!
0%!
05!
04!
03!
02!
01!
00!
0/!
0.!
$end
#10000
1!
1:
1~
1!!
1"!
1$!
1}
1|
0Z
1[
0F
0R
1S
1G
0A
0L
1M
0N
1O
0D
0P
1Q
1T
1U
1`
1f
1W
1V
#20000
0!
0:
#30000
1!
1:
1+!
1-!
1*!
1)!
1(!
1'!
1t
1v
1w
1x
1z
1u
1R
0S
1A
1L
0M
1N
0O
1D
1P
0Q
1Z
0[
1F
1Y
0X
0i
0U
0`
0f
0W
0V
0T
1p
1n
1l
1j
1a
1g
0G
0g
0a
#40000
0!
0:
#50000
b11111101 "
b10111101 "
b10011101 "
b10001101 "
b10000101 "
b10000001 "
b10000011 "
1!
1?
0@
0B
0C
0=
0;
1E
1:
1/!
10!
11!
12!
1{
0~
0!!
0"!
1#!
0}
0|
0Z
0F
0R
1G
0J
1K
0A
0L
0N
0D
0P
0]
1^
1T
1U
1c
1f
1W
1V
1_
1\
0\
0T
0W
0V
0U
#60000
0!
0:
#70000
1!
1:
1,!
0-!
0*!
0)!
0(!
0'!
0t
1s
0v
0w
0x
1y
0u
1q
1o
1m
1k
1%!
15
16
17
18
1J
0K
1A
1L
1D
0^
1F
0Y
1X
1%
1&
1'
1(
1U
0c
0f
1W
1V
0_
1\
1T
0p
0n
0l
1N
0G
0W
1_
1P
0V
1R
0U
1Z
0T
1]
0\
0_
#80000
0!
0:
#90000
1!
1:
1.!
0/!
00!
01!
#100000
b10000010 "
b11000010 "
b11100010 "
b11110010 "
b11110110 "
0!
0>
1@
1C
1=
1;
0:
#110000
1!
1:
1r
0q
0o
0m
1~
1"!
0$!
1}
1|
06
07
08
19
0Z
1[
0F
0R
1S
1G
0I
0A
0L
1M
0P
1Q
0D
1$
0%
0&
0'
1T
1U
1`
1f
1V
0J
1c
0f
#120000
0!
0:
#130000
1!
1:
0+!
1-!
1)!
1(!
1'!
1t
1v
1x
0z
1u
0%!
1R
0S
1I
1A
0M
1P
0Q
1D
1Z
0[
1F
0X
0U
0`
1f
0V
0T
1p
1n
1l
1a
0j
1d
1J
0N
0G
0c
1W
1L
0P
0f
1V
1N
0R
0W
1U
1P
0Z
0V
1T
1R
0]
0U
1\
1Z
0T
1_
1]
0\
0_
#140000
0!
0:
#150000
b11111110 "
b11011110 "
b11001110 "
1!
1B
0C
0=
1:
0.!
1/!
10!
11!
02!
14!
15!
0~
1!!
0}
0R
1G
0N
1O
0D
0P
1U
1W
1V
0Z
1T
0U
0]
1\
1_
#160000
1#
0!
1<
0:
0u
0y
0x
0v
0s
0t
0'!
0(!
0)!
0-!
0,!
0|
0#!
0"!
0!!
0{
05!
04!
0k
01!
00!
0/!
0r
09
05
1i
1X
1P
1D
1N
0O
0(
0$
0d
0a
0l
0n
0p
0V
1U
0W
1R
0G
0U
1Z
0T
1]
0\
0_
#170000
1!
1:
#180000
0!
0:
#190000
1!
1:
#200000
b11001100 "
b11000100 "
0!
0?
0B
0:
#210000
1!
1:
#220000
0!
0:
#230000
1!
1:
#240000
0!
0:
#250000
b1000100 "
b100 "
b0 "
b10 "
b1010 "
1!
1?
0@
1B
0;
0E
1:
#260000
0#
0!
0<
0:
#270000
1!
1:
1!!
1#!
0J
1K
0A
0N
1O
0D
1c
1W
1G
#280000
0!
0:
#290000
1!
1:
1,!
1*!
1w
1y
1J
0K
1A
1N
0O
1D
0X
0i
0c
0W
1j
1d
0G
#300000
b1000 "
b0 "
0!
0?
0B
0:
#310000
1!
1:
12!
14!
0!!
0#!
0J
0A
0N
0D
1c
1W
0L
0P
1G
1f
1V
0R
0W
1U
0Z
1T
0]
1\
1_
#320000
0!
0:
#330000
1!
1:
1+!
1&!
0*!
1)!
1(!
1'!
0w
0y
1k
1e
1%!
13
15
1J
1A
1D
1(
1*
0c
1W
1p
1n
1l
0j
1g
1L
0G
0f
1N
0W
1P
0V
1R
0U
1Z
0T
1]
0\
0_
#340000
0!
0:
#350000
b1 "
1!
1>
1:
1.!
1/!
10!
11!
02!
13!
1$!
0A
1`
1G
#360000
0!
0:
#370000
1!
1:
0+!
0,!
1-!
0&!
0)!
0(!
0'!
1z
1r
1q
1o
1m
0k
1h
0%!
14
05
16
17
18
19
1A
1X
1$
1%
1&
1'
0(
1)
0`
0p
0n
0l
0g
0d
1a
0G
#380000
0!
0:
#390000
1!
1:
0.!
0/!
00!
01!
03!
04!
15!
#400000
b11 "
b10 "
0!
0>
1?
0:
#410000
1!
1:
0r
0q
0o
0m
0h
0e
1b
1#!
0$!
12
03
04
06
07
08
09
0I
0A
0J
1K
0$
0%
0&
0'
0)
0*
1+
1`
1c
1G
0c
#420000
0!
0:
#430000
1!
1:
1y
0z
1I
1A
0K
0`
1c
1J
0L
0G
0c
1f
1L
0N
0f
1W
1N
0P
0W
1V
1P
0R
0V
1U
1R
0Z
0U
1T
1Z
0]
0T
1\
1]
0\
1_
0_
#440000
0!
0:
#450000
b1010 "
1!
1B
1:
1!!
0N
1O
0D
1W
1G
#460000
0!
0:
#470000
1!
1:
0-!
1*!
1w
1N
0O
1D
0X
1i
0W
1j
0a
0G
#480000
0!
0:
#490000
1!
1:
12!
05!
#500000
b101010 "
b10101010 "
b11101010 "
b11101110 "
b11101100 "
0!
0?
1@
1=
1;
1E
0:
#510000
1!
1:
1k
0b
1{
1"!
0#!
1}
1|
02
15
0Z
1[
0F
0R
1S
1G
0J
0A
0L
1M
0]
1^
1(
0+
1T
1U
1c
1f
1_
1\
0f
#520000
0!
0:
#530000
1!
1:
1,!
1&!
0*!
1(!
1'!
1t
1s
1x
0y
1u
1%!
1R
0S
1J
1A
0M
1]
0^
1F
1Z
0[
0i
0U
0c
1f
0_
0\
0T
1p
1n
0j
1d
1L
0N
0G
0f
1W
1N
0P
0W
1V
1P
0R
0V
1U
1R
0Z
0U
1T
1Z
0]
0T
1\
1]
0\
1_
0_
#540000
0!
0:
#550000
b11001100 "
b11001110 "
1!
1?
0=
1:
1.!
1/!
10!
02!
14!
1#!
0}
0R
1G
0J
1K
0A
1U
1c
0Z
1T
0]
1\
1_
#560000
0!
0:
#570000
1!
1:
1y
0u
1r
1q
1o
0k
1e
13
05
17
18
19
1R
1J
0K
1A
1$
1%
1&
0(
1*
0U
0c
1Z
0G
0T
1]
0\
0_
#580000
0!
0:
#590000
1!
1:
#600000
b11000110 "
b1000110 "
b1100110 "
b1100100 "
0!
0?
0B
1=
0E
0:
#610000
1!
1:
0{
0!!
0#!
1}
0R
1S
1G
0J
0A
0N
0D
0]
0F
1U
1c
1W
1_
1\
0L
0P
1f
1V
0_
0W
0U
#620000
0!
0:
#630000
1!
1:
1+!
1)!
0(!
0'!
0s
0w
0y
1u
0%!
0S
1J
1A
1D
1]
1F
1U
0c
1W
1_
0\
1l
1j
0d
0Z
1L
0G
1T
0f
0_
0]
1N
1\
0W
1P
1_
0V
1R
0U
1Z
0T
1]
0\
0_
#640000
0!
0:
#650000
b1110100 "
b110100 "
b110000 "
b111000 "
b10111000 "
b10011000 "
1!
0@
1B
1C
0=
0;
1E
1:
0.!
11!
12!
04!
1{
1~
1!!
0"!
0}
0|
0Z
0F
0R
1G
0L
0A
0N
1O
0D
0P
1Q
0]
1^
1T
1U
1f
1W
1V
1_
1\
0\
0T
0W
#660000
0!
0:
#670000
1!
1:
0,!
0&!
1(!
0t
1s
1v
1w
0x
0u
0r
1m
1k
0e
1%!
03
15
16
09
1R
1L
1A
0O
1D
1P
0Q
0^
1F
0$
1'
1(
0*
0U
0f
1W
0V
0_
1\
1T
0n
0p
0l
1Z
1N
0P
0G
0T
0W
1V
1_
1]
1P
0R
0\
0V
1U
1R
0Z
0_
0U
1T
1Z
0]
0T
1\
1]
0\
1_
0_
#680000
0!
0:
#690000
1!
1:
1.!
0/!
00!
01!
#700000
b10011010 "
b10001010 "
b11001010 "
b11000010 "
b1000010 "
b1100010 "
0!
1?
0B
0C
1=
1;
0E
0:
#710000
1!
1:
1r
0q
0o
0m
0{
0~
0!!
1#!
1}
1|
06
07
08
19
0Z
1[
0F
0R
1S
1G
0J
1K
0A
0N
0D
0P
0]
1$
0%
0&
0'
1T
1U
1c
1W
1V
1_
1\
0V
0U
0_
#720000
0!
0:
#730000
1!
1:
0+!
1,!
1&!
1*!
0)!
0(!
1'!
1t
0s
0v
0w
1y
1u
0%!
0S
1J
0K
1A
1N
1D
1]
1F
1Z
0[
1U
0c
0W
1V
1_
0\
0T
1p
1n
1l
0Z
1P
0G
1T
0V
0_
0]
1R
1\
0U
1Z
1_
0T
1]
0\
0_
#740000
0!
0:
#750000
b1100110 "
b1100100 "
b1110100 "
b110100 "
b10100 "
1!
0?
1@
1C
0=
0;
1:
0.!
1/!
10!
11!
1~
1"!
0#!
0}
0|
0Z
0F
0R
1G
0J
0A
0L
1M
0P
1Q
0D
1T
1U
1c
1f
1V
0]
1\
0T
0f
1_
#760000
0!
0:
#770000
1!
1:
0*!
1)!
1(!
0'!
0t
1v
1x
0y
0u
0r
1q
1o
1m
1%!
16
17
18
09
1R
1J
1A
0M
1P
0Q
1D
1F
0$
1%
1&
1'
0U
0c
1f
0V
1T
0p
0j
1d
1Z
1L
0N
0G
0T
0f
1W
1]
1N
0P
0\
0W
1V
1P
0R
0_
0V
1U
1R
0Z
0U
1T
1Z
0]
0T
1\
1]
0\
1_
0_
#780000
0!
0:
#790000
1!
1:
1.!
0/!
02!
14!
#800000
b10101 "
b10001 "
b1 "
b1000001 "
0!
1>
0@
0C
1;
0:
#810000
1!
1:
1r
0q
0k
1e
0~
0"!
1$!
1|
13
05
08
19
0Z
1[
0F
0A
0L
0P
0D
1$
0%
0(
1*
1T
1`
1f
1V
0N
0R
1G
1W
1U
0V
0T
#820000
0!
0:
#830000
1!
1:
1+!
0,!
1-!
0&!
1*!
0)!
1t
0v
0x
1z
0%!
1A
1L
1D
0[
1F
0`
0f
1V
1T
0l
1j
1g
0d
1a
1N
0]
0G
0W
1\
1P
0V
1_
1R
0U
1Z
0T
1]
0\
0_
#840000
0!
0:
#850000
b1001001 "
b11001001 "
b11001011 "
b11001010 "
1!
0>
1?
1B
1E
1:
0.!
01!
12!
13!
04!
15!
1{
1!!
1#!
0$!
0I
0A
0J
1K
0N
1O
0D
0]
1^
0F
1`
1c
1W
1_
1\
1G
0c
#860000
0!
0:
#870000
1!
1:
0+!
1&!
0(!
1s
1w
1y
0z
0r
0m
1k
1h
0e
1b
1%!
12
03
14
15
06
09
1I
1A
0K
1N
0O
1D
1]
0^
1F
0$
0'
1(
1)
0*
1+
0`
1c
0W
0_
0\
0n
0g
1J
0L
0G
0c
1f
1L
0N
0f
1W
1N
0P
0W
1V
1P
0R
0V
1U
1R
0Z
0U
1T
1Z
0]
0T
1\
1]
0\
1_
0_
#880000
0!
0:
#890000
1!
1:
1.!
00!
03!
#900000
b11101010 "
b11111010 "
b1111010 "
b1111000 "
b1111001 "
0!
1>
0?
1C
1=
0E
0:
#910000
1!
1:
1r
0o
0h
0{
1~
0#!
1$!
1}
04
07
19
0R
1S
1G
0A
0J
0P
1Q
0D
0]
0F
1$
0&
0)
1U
1`
1c
1V
1_
1\
0L
1f
0_
0N
1W
0V
#920000
0!
0:
#930000
1!
1:
1+!
1,!
1(!
0s
1v
0y
1z
1u
0%!
1R
0S
1A
1J
0Q
1D
1]
1F
0U
0`
0c
1V
1_
0\
1n
1p
1l
0a
1L
0R
0G
0f
1U
0_
1N
0Z
0W
1T
1P
0]
0V
1\
1R
0U
1_
1Z
0T
1]
0\
0_
#940000
0!
0:
#950000
b111001 "
b110001 "
b10001 "
b10010001 "
b10010011 "
1!
1?
0B
0=
0;
1E
1:
0.!
1/!
10!
11!
05!
1{
0!!
1#!
0}
0|
0Z
0F
0R
1G
0J
1K
0A
0N
0D
0]
1^
1T
1U
1c
1W
1_
1\
0P
0\
0T
1V
0U
#960000
0!
0:
#970000
1!
1:
0+!
0-!
0&!
1)!
0(!
0t
1s
0w
1y
0u
0r
1q
1o
1m
0b
1%!
02
16
17
18
09
1J
0K
1A
1N
1D
0^
1F
0$
1%
1&
1'
0+
1U
0c
0W
0_
1\
1T
0n
0l
0p
1P
0G
0V
1_
1R
0U
1Z
0T
1]
0\
0_
#980000
0!
0:
#990000
1!
1:
1.!
0/!
00!
01!
