Atividades/Maquinas_De_Estados/Mealy/simulation/qsim/mealy.msim.vcd
$comment
	File created using the following command:
		vcd file mealy.msim.vcd -direction
$end
$date
	Fri Oct  5 15:28:49 2018
$end
$version
	ModelSim Version 10.5b
$end
$timescale
	1ps
$end

$scope module mealy_vlg_vec_tst $end
$var reg 1 ! clk $end
$var reg 1 " data_in $end
$var reg 1 # reset $end
$var wire 1 $ data_out [1] $end
$var wire 1 % data_out [0] $end
$var wire 1 & estados [1] $end
$var wire 1 ' estados [0] $end

$scope module i1 $end
$var wire 1 ( gnd $end
$var wire 1 ) vcc $end
$var wire 1 * unknown $end
$var tri1 1 + devclrn $end
$var tri1 1 , devpor $end
$var tri1 1 - devoe $end
$var wire 1 . data_out[0]~output_o $end
$var wire 1 / data_out[1]~output_o $end
$var wire 1 0 estados[0]~output_o $end
$var wire 1 1 estados[1]~output_o $end
$var wire 1 2 data_in~input_o $end
$var wire 1 3 clk~input_o $end
$var wire 1 4 reset~input_o $end
$var wire 1 5 state.S0~q $end
$var wire 1 6 Selector1~0_combout $end
$var wire 1 7 state.S2~q $end
$var wire 1 8 Selector0~0_combout $end
$var wire 1 9 state.S1~q $end
$var wire 1 : state.S3~0_combout $end
$var wire 1 ; state.S3~q $end
$var wire 1 < Selector4~0_combout $end
$var wire 1 = Selector3~0_combout $end
$var wire 1 > estados~3_combout $end
$var wire 1 ? estados~4_combout $end
$upscope $end
$upscope $end
$enddefinitions $end
#0
$dumpvars
0!
0"
0#
0%
1$
0'
0&
0(
1)
x*
1+
1,
1-
0.
1/
00
01
02
03
04
05
06
07
18
09
0:
0;
0<
1=
1>
1?
$end
#5000
1!
13
19
15
0>
0=
0/
10
1'
0$
#10000
0!
03
#15000
1!
13
#20000
0!
03
#25000
1!
13
#30000
0!
03
#35000
1!
13
#40000
0!
03
#45000
1!
13
#50000
0!
03
#55000
1!
13
#60000
0!
03
#65000
1!
13
#70000
0!
03
#75000
1!
13
#80000
1#
0!
14
03
05
09
1>
1=
1/
00
0'
1$
#85000
1!
13
#90000
0!
03
#95000
1!
13
#100000
1"
0!
12
03
0=
0/
0$
#105000
1!
13
#110000
0!
03
#115000
1!
13
#120000
0#
0!
04
03
#125000
1!
13
19
15
0>
08
16
1<
1.
10
1'
1%
#130000
0!
03
#135000
1!
13
09
17
1>
0?
1=
0<
1:
06
0.
1/
11
00
0'
1&
1$
0%
#140000
0!
03
#145000
1!
13
1;
07
0>
1<
0:
16
1.
10
1'
1%
#150000
0!
03
#155000
1!
13
0;
17
1>
0<
1:
06
0.
00
0'
0%
#160000
0!
03
#165000
1!
13
1;
07
0>
1<
0:
16
1.
10
1'
1%
#170000
0!
03
#175000
1!
13
0;
17
1>
0<
1:
06
0.
00
0'
0%
#180000
0!
03
#185000
1!
13
1;
07
0>
1<
0:
16
1.
10
1'
1%
#190000
0!
03
#195000
1!
13
0;
17
1>
0<
1:
06
0.
00
0'
0%
#200000
0!
03
#205000
1!
13
1;
07
0>
1<
0:
16
1.
10
1'
1%
#210000
0!
03
#215000
1!
13
0;
17
1>
0<
1:
06
0.
00
0'
0%
#220000
0!
03
#225000
1!
13
1;
07
0>
1<
0:
16
1.
10
1'
1%
#230000
0!
03
#235000
1!
13
0;
17
1>
0<
1:
06
0.
00
0'
0%
#240000
0!
03
#245000
1!
13
1;
07
0>
1<
0:
16
1.
10
1'
1%
#250000
0!
03
#255000
1!
13
0;
17
1>
0<
1:
06
0.
00
0'
0%
#260000
0!
03
#265000
1!
13
1;
07
0>
1<
0:
16
1.
10
1'
1%
#270000
0!
03
#275000
1!
13
0;
17
1>
0<
1:
06
0.
00
0'
0%
#280000
0!
03
#285000
1!
13
1;
07
0>
1<
0:
16
1.
10
1'
1%
#290000
0!
03
#295000
1!
13
0;
17
1>
0<
1:
06
0.
00
0'
0%
#300000
0!
03
#305000
1!
13
1;
07
0>
1<
0:
16
1.
10
1'
1%
#310000
0!
03
#315000
1!
13
0;
17
1>
0<
1:
06
0.
00
0'
0%
#320000
0!
03
#325000
1!
13
1;
07
0>
1<
0:
16
1.
10
1'
1%
#330000
0!
03
#335000
1!
13
0;
17
1>
0<
1:
06
0.
00
0'
0%
#340000
0!
03
#345000
1!
13
1;
07
0>
1<
0:
16
1.
10
1'
1%
#350000
0!
03
#355000
1!
13
0;
17
1>
0<
1:
06
0.
00
0'
0%
#360000
0!
03
#365000
1!
13
1;
07
0>
1<
0:
16
1.
10
1'
1%
#370000
0!
03
#375000
1!
13
0;
17
1>
0<
1:
06
0.
00
0'
0%
#380000
0!
03
#385000
1!
13
1;
07
0>
1<
0:
16
1.
10
1'
1%
#390000
0!
03
#395000
1!
13
0;
17
1>
0<
1:
06
0.
00
0'
0%
#400000
0!
03
#405000
1!
13
1;
07
0>
1<
0:
16
1.
10
1'
1%
#410000
0!
03
#415000
1!
13
0;
17
1>
0<
1:
06
0.
00
0'
0%
#420000
0!
03
#425000
1!
13
1;
07
0>
1<
0:
16
1.
10
1'
1%
#430000
0!
03
#435000
1!
13
0;
17
1>
0<
1:
06
0.
00
0'
0%
#440000
0!
03
#445000
1!
13
1;
07
0>
1<
0:
16
1.
10
1'
1%
#450000
0"
0!
02
03
0=
0<
1:
06
0.
0/
0$
0%
#455000
1!
13
#460000
0!
03
#465000
1!
13
#470000
0!
03
#475000
1!
13
#480000
0!
03
#485000
1!
13
#490000
0!
03
#495000
1!
13
#500000
0!
03
#505000
1!
13
#510000
0!
03
#515000
1!
13
#520000
0!
03
#525000
1!
13
#530000
0!
03
#535000
1!
13
#540000
0!
03
#545000
1!
13
#550000
0!
03
#555000
1!
13
#560000
0!
03
#565000
1!
13
#570000
0!
03
#575000
1!
13
#580000
0!
03
#585000
1!
13
#590000
0!
03
#595000
1!
13
#600000
1"
0!
12
03
1=
1<
0:
16
1.
1/
1$
1%
#605000
1!
13
0;
17
1>
0<
1:
06
0.
00
0'
0%
#610000
0!
03
#615000
1!
13
1;
07
0>
1<
0:
16
1.
10
1'
1%
#620000
0!
03
#625000
1!
13
0;
17
1>
0<
1:
06
0.
00
0'
0%
#630000
0!
03
#635000
1!
13
1;
07
0>
1<
0:
16
1.
10
1'
1%
#640000
0!
03
#645000
1!
13
0;
17
1>
0<
1:
06
0.
00
0'
0%
#650000
0!
03
#655000
1!
13
1;
07
0>
1<
0:
16
1.
10
1'
1%
#660000
0!
03
#665000
1!
13
0;
17
1>
0<
1:
06
0.
00
0'
0%
#670000
0!
03
#675000
1!
13
1;
07
0>
1<
0:
16
1.
10
1'
1%
#680000
0!
03
#685000
1!
13
0;
17
1>
0<
1:
06
0.
00
0'
0%
#690000
0!
03
#695000
1!
13
1;
07
0>
1<
0:
16
1.
10
1'
1%
#700000
0"
0!
02
03
0=
0<
1:
06
0.
0/
0$
0%
#705000
1!
13
#710000
0!
03
#715000
1!
13
#720000
0!
03
#725000
1!
13
#730000
0!
03
#735000
1!
13
#740000
0!
03
#745000
1!
13
#750000
1"
0!
12
03
1=
1<
0:
16
1.
1/
1$
1%
#755000
1!
13
0;
17
1>
0<
1:
06
0.
00
0'
0%
#760000
0!
03
#765000
1!
13
1;
07
0>
1<
0:
16
1.
10
1'
1%
#770000
0!
03
#775000
1!
13
0;
17
1>
0<
1:
06
0.
00
0'
0%
#780000
0!
03
#785000
1!
13
1;
07
0>
1<
0:
16
1.
10
1'
1%
#790000
0!
03
#795000
1!
13
0;
17
1>
0<
1:
06
0.
00
0'
0%
#800000
0"
0!
02
03
0=
1<
0:
18
1.
0/
0$
1%
#805000
1!
13
19
07
0>
1?
0<
0.
01
10
1'
0&
0%
#810000
0!
03
#815000
1!
13
#820000
0!
03
#825000
1!
13
#830000
0!
03
#835000
1!
13
#840000
0!
03
#845000
1!
13
#850000
1"
0!
12
03
1<
08
16
1.
1%
#855000
1!
13
09
17
1>
0?
1=
0<
1:
06
0.
1/
11
00
0'
1&
1$
0%
#860000
0!
03
#865000
1!
13
1;
07
0>
1<
0:
16
1.
10
1'
1%
#870000
0!
03
#875000
1!
13
0;
17
1>
0<
1:
06
0.
00
0'
0%
#880000
0!
03
#885000
1!
13
1;
07
0>
1<
0:
16
1.
10
1'
1%
#890000
0!
03
#895000
1!
13
0;
17
1>
0<
1:
06
0.
00
0'
0%
#900000
0"
0!
02
03
0=
1<
0:
18
1.
0/
0$
1%
#905000
1!
13
19
07
0>
1?
0<
0.
01
10
1'
0&
0%
#910000
0!
03
#915000
1!
13
#920000
0!
03
#925000
1!
13
#930000
0!
03
#935000
1!
13
#940000
0!
03
#945000
1!
13
#950000
1"
0!
12
03
1<
08
16
1.
1%
#955000
1!
13
09
17
1>
0?
1=
0<
1:
06
0.
1/
11
00
0'
1&
1$
0%
#960000
0!
03
#965000
1!
13
1;
07
0>
1<
0:
16
1.
10
1'
1%
#970000
0!
03
#975000
1!
13
0;
17
1>
0<
1:
06
0.
00
0'
0%
#980000
0!
03
#985000
1!
13
1;
07
0>
1<
0:
16
1.
10
1'
1%
#990000
0!
03
#995000
1!
13
0;
17
1>
0<
1:
06
0.
00
0'
0%
